[
    "805479",
    "716609",
    "2129259",
    "3611682",
    "3489636",
    "3580937",
    "4486182",
    "2129328",
    "4533622",
    "1853850",
    "2295998",
    "750720",
    "2129064",
    "727536",
    "2244545",
    "2404371",
    "2473141",
    "2142967",
    "4017710",
    "3089272",
    "2965456",
    "717979",
    "4253504",
    "2777788",
    "3089089",
    "3585862",
    "3600876",
    "710483",
    "2125924",
    "2633618",
    "2257225",
    "2241953",
    "2125904",
    "2259747",
    "710504",
    "1412932",
    "2403263",
    "2129061",
    "2129325",
    "3079143",
    "3079145",
    "3079116",
    "3079503",
    "3077280",
    "2840915",
    "1455401",
    "3349479",
    "2125898",
    "3586856",
    "3586863",
    "3586869",
    "3586840",
    "3089078",
    "727552",
    "2795220",
    "2795629",
    "3089239",
    "1392819",
    "838666",
    "811311",
    "3594750",
    "2865155",
    "2780789",
    "809333",
    "2129292",
    "3603583",
    "710428",
    "3089254",
    "3089080",
    "2795521",
    "710458",
    "2894509",
    "1984445",
    "3089229",
    "4017712",
    "4017703",
    "4017705",
    "4017706",
    "4017727",
    "4017707",
    "4017734",
    "4017708",
    "4017711",
    "3089213",
    "2780779",
    "2129295",
    "3089252",
    "3089076",
    "3586383",
    "3605030",
    "3605022",
    "3286881",
    "716608",
    "2366487",
    "4243253",
    "2125985",
    "3603032",
    "4243221",
    "4243056",
    "4243057",
    "4243228",
    "4243229",
    "710635",
    "4243059",
    "4243231",
    "4243234",
    "4253301",
    "4243243",
    "4252985",
    "3601262",
    "995214",
    "3478999",
    "2165979",
    "1414530",
    "3586245",
    "3584925",
    "2166046",
    "2795617",
    "3586565",
    "4253483",
    "1378670",
    "2777783",
    "975517",
    "2795472",
    "2271915",
    "3596815",
    "2166047",
    "2780787",
    "2840918",
    "3079148",
    "2795513",
    "2780756",
    "2167849",
    "2440120",
    "3129033",
    "2403334",
    "2403262",
    "1089505",
    "3128959",
    "3893070",
    "3586847",
    "2864437",
    "3586395",
    "2780791",
    "4116454",
    "3384037",
    "3946819",
    "3664969",
    "4253234",
    "3305109",
    "2633615",
    "3602696",
    "3089090",
    "2795468",
    "3580038",
    "3603709",
    "3579743",
    "4253277",
    "3089216",
    "2165960",
    "4477877",
    "4477859",
    "4477851",
    "2961894",
    "4486194",
    "4486202",
    "4486208",
    "3882905",
    "3574398",
    "4486237",
    "4486170",
    "717973",
    "2257124",
    "2795519",
    "3373589",
    "3089086",
    "4116437",
    "3604015",
    "2508902",
    "2129311",
    "2202729",
    "1856622",
    "2241954",
    "4533476",
    "4533614",
    "4533488",
    "4533501",
    "4533627",
    "4533559",
    "716624",
    "4533565",
    "4533635",
    "4533640",
    "4533581",
    "4533641",
    "4533587",
    "4533474",
    "4532056",
    "3585180",
    "3584923",
    "4532066",
    "3586760",
    "2865255",
    "2244959",
    "4533314",
    "4533350",
    "4532051",
    "4532055",
    "4532059",
    "4531879",
    "4531989",
    "4531995",
    "4531901",
    "4532003",
    "4532004",
    "4532006",
    "4532008",
    "4532048",
    "1828412",
    "3594454",
    "2560904",
    "4545541",
    "4545549",
    "4533584",
    "716568",
    "4555395",
    "3591408",
    "3123877",
    "4555391",
    "4555241",
    "4555258",
    "4555704",
    "4555336",
    "4555711",
    "4555180",
    "4555223",
    "4555264",
    "4555718",
    "4555720",
    "4555268",
    "4555346",
    "4555404",
    "4555272",
    "4555360",
    "4555639",
    "2777396",
    "4555381",
    "4555643",
    "4555159",
    "4555647",
    "809413",
    "4555165",
    "4555387",
    "4555202",
    "4555653",
    "4555343",
    "3580839",
    "3579812",
    "2474426",
    "3598293",
    "4253328",
    "2129327",
    "663128",
    "3479002",
    "4555327",
    "3573140",
    "3580091",
    "2474421",
    "3595207",
    "1153772",
    "3479039",
    "1392822",
    "2142329",
    "2882829"
]