[
    "680130",
    "1879056",
    "4251474",
    "2782905",
    "4305371",
    "4352727",
    "4250832",
    "2782854",
    "2467384",
    "4238173",
    "679071",
    "3255595",
    "2078398",
    "4233022",
    "4233140",
    "2140809",
    "2629128",
    "2754211",
    "678966",
    "679829",
    "4250012",
    "1408868",
    "3052582",
    "2987670",
    "2780096",
    "1223741",
    "4305375",
    "1223740",
    "2791938",
    "975684",
    "2433054",
    "1068968",
    "769441",
    "2792152",
    "2731612",
    "2480545",
    "3130008",
    "2691736",
    "3129975",
    "3130143",
    "3130602",
    "2533783",
    "3129977",
    "3130984",
    "3129978",
    "3129979",
    "3129980",
    "3130006",
    "673142",
    "3004930",
    "1183054",
    "825215",
    "2731603",
    "2789674",
    "2533513",
    "2782893",
    "2533512",
    "1483047",
    "4214667",
    "1428691",
    "2635059",
    "2522622",
    "2774693",
    "2340203",
    "4192029",
    "2791937",
    "679193",
    "2159636",
    "2634956",
    "2533745",
    "1424030",
    "4214645",
    "1591948",
    "1132750",
    "852085",
    "1223730",
    "1261083",
    "4251451",
    "4251460",
    "4227528",
    "4233120",
    "4301024",
    "3669931",
    "3669932",
    "4283874",
    "4250011",
    "4305335",
    "4305404",
    "4305364",
    "4305368",
    "4306892",
    "4306924",
    "4307436",
    "4294963",
    "678961",
    "4309250",
    "4309116",
    "4307030",
    "4309099",
    "4232740",
    "4295538",
    "4295539",
    "1715991",
    "4320909",
    "4247031",
    "4249196",
    "4200337",
    "4305394",
    "2522090",
    "4347618",
    "679070",
    "2774537",
    "894809",
    "1438936",
    "4207240",
    "4205518",
    "1707817",
    "2731529",
    "1883688",
    "4352673",
    "1443749",
    "4327740",
    "2534026",
    "4250880",
    "4256215",
    "4250746",
    "2621090",
    "4295536",
    "2661138",
    "4308994",
    "3255625",
    "4308752",
    "4250088",
    "4306988",
    "1840107",
    "4220040",
    "2774393",
    "3246872",
    "679072",
    "1840108",
    "685141",
    "1066499",
    "679190",
    "3255621",
    "685142",
    "1432870",
    "1826696",
    "2078399",
    "679192",
    "3255654",
    "923631",
    "4312075",
    "2361963",
    "3255599",
    "3035882",
    "2621085",
    "1032643",
    "3004943",
    "4241096",
    "4209242",
    "744473",
    "3408421",
    "4266971",
    "4306991",
    "4267564",
    "2987668",
    "4498399",
    "4309251",
    "4335510",
    "4507946",
    "4512056",
    "4512200",
    "1498726",
    "679199",
    "4512173",
    "4273704",
    "3052261",
    "1149480",
    "4507889",
    "4250087",
    "4434091",
    "4493999",
    "4304662",
    "4304644",
    "4246557",
    "4250089",
    "2159639",
    "4315841",
    "4241795",
    "2789678",
    "1792133",
    "4220307",
    "4214249",
    "4597713",
    "2140808",
    "4308985",
    "1125893",
    "4306233",
    "4307005",
    "4301023",
    "2661222",
    "2783382",
    "1334235",
    "2126056",
    "2400186",
    "2695698",
    "4305409",
    "1625063",
    "1223845",
    "4516224",
    "4276354",
    "4246656",
    "4307022",
    "4309119",
    "743929",
    "4271837",
    "1826379",
    "2159638",
    "2076784",
    "2883541",
    "4297924",
    "680154",
    "4301084",
    "4312173",
    "4312179",
    "1566784",
    "4309123",
    "4241186",
    "4224530"
]