[
    "437629",
    "1461553",
    "994175",
    "2884078",
    "2636595",
    "4237981",
    "3933957",
    "3305241",
    "921097",
    "4266367",
    "3791061",
    "4364536",
    "2524919",
    "1809352",
    "2904787",
    "2757833",
    "2781774",
    "1390704",
    "2636596",
    "546772",
    "3556497",
    "4523188",
    "972846",
    "2636580",
    "4392336",
    "3286373",
    "3276756",
    "2755748",
    "2851998",
    "547332",
    "3282150",
    "4523187",
    "547342",
    "4512399",
    "2636593",
    "545944",
    "3942855",
    "2756015",
    "546770",
    "1966024",
    "784886",
    "2702383",
    "4516044",
    "4516043",
    "3438553",
    "3278397",
    "3500804",
    "4316441",
    "1387083",
    "3347774",
    "3287620",
    "3953098",
    "2989213",
    "1809354",
    "3054161",
    "3282123",
    "2852290",
    "3287618",
    "4364546",
    "1429694",
    "2852099",
    "2534230",
    "4009627",
    "1481145",
    "3972013",
    "548229",
    "2260001",
    "2506702",
    "4355793",
    "3276757",
    "3285056",
    "1105272",
    "3550186",
    "4523189",
    "4513221",
    "1112537",
    "1449566",
    "3280344",
    "3461063",
    "3404793",
    "3277791",
    "3460788",
    "2143400",
    "2043671",
    "4043971",
    "3793482",
    "3280277",
    "3286456",
    "547171",
    "2819428",
    "547170",
    "4062422",
    "1809356",
    "2649746",
    "547254",
    "3287622",
    "2096427",
    "2260000",
    "692913",
    "3289511",
    "1370918",
    "546775",
    "3588191",
    "2995634",
    "3286443",
    "1681815",
    "548112",
    "1371258",
    "1409695",
    "2393557",
    "1180808",
    "3340267",
    "4210976",
    "2382486",
    "3282129",
    "1371302",
    "547256",
    "3278653",
    "972829",
    "3282132",
    "3292716",
    "544129",
    "3051971",
    "977811",
    "546784",
    "544247",
    "3461129",
    "3463069",
    "3286963",
    "3293605",
    "3664357",
    "4515915",
    "545946",
    "1859077",
    "568546",
    "547927",
    "2965242",
    "3285891",
    "4048959",
    "2756957",
    "568550",
    "3793478",
    "3285042",
    "4489211",
    "1593893",
    "547328",
    "1102313",
    "4523364",
    "3503562",
    "2956104",
    "3077643",
    "2534246",
    "2558272",
    "3357962",
    "4489477",
    "4437946",
    "4512425",
    "4516042",
    "689496",
    "3363160",
    "3279090",
    "3466184",
    "1962232",
    "4024194",
    "2073989",
    "2805484",
    "1617303",
    "1371568",
    "2811779",
    "3278393",
    "3052518",
    "3287029",
    "4196617",
    "1984425",
    "1682015",
    "3194119",
    "4000777",
    "547194",
    "543761",
    "3303709",
    "4020164",
    "3971939",
    "3971941",
    "3279843",
    "692904",
    "4211002",
    "3194093",
    "1538088",
    "2394295",
    "3280345",
    "2534237",
    "1371250",
    "2757836",
    "3356076",
    "4010405",
    "3316693",
    "3277834",
    "2108379",
    "2191701",
    "4480797",
    "1390717",
    "2683916",
    "3286399",
    "3953187",
    "3281090",
    "3281115",
    "2601259",
    "1516555",
    "1371249",
    "1406510",
    "3463011",
    "3514037",
    "3052247",
    "3788064",
    "3344718",
    "2289128",
    "2795670",
    "3971942",
    "1371389",
    "543648",
    "3519356",
    "3286964",
    "1371255",
    "2960513",
    "2975796",
    "1371325",
    "3329675",
    "1809353",
    "2756995",
    "3516831",
    "1700132",
    "1689051",
    "3286965",
    "3149579",
    "3894334",
    "3285925",
    "3286440",
    "3438523",
    "3438490",
    "1728186",
    "2807775",
    "4009625",
    "3279516",
    "977808",
    "3348617",
    "2890109",
    "1009911",
    "543805",
    "4012184",
    "2965241",
    "3461840",
    "3277903",
    "3904395",
    "2811777",
    "2581326",
    "3466284",
    "3450477",
    "1703498",
    "3266390",
    "3285889",
    "3004794",
    "2309209",
    "547265",
    "1388210",
    "3463316",
    "944978",
    "2412057",
    "3286436",
    "2904501",
    "4338977",
    "970702",
    "3972012",
    "3278599",
    "3281131",
    "3348457",
    "972831",
    "3588190",
    "3282128",
    "3051237",
    "546765",
    "547257",
    "945869",
    "4355792",
    "3281614",
    "3880635",
    "543901",
    "3793483",
    "2756061",
    "3316695",
    "2522215",
    "543759",
    "547195",
    "3314923",
    "2387028",
    "1387780",
    "2715915",
    "4272954",
    "3338501",
    "542883",
    "2956105",
    "4047578",
    "4052634",
    "2112355",
    "1689074",
    "1689068",
    "3972018",
    "3277794",
    "975541",
    "3494231",
    "3972019",
    "2756784",
    "544077",
    "4047968",
    "3282131",
    "3793479",
    "1510813",
    "1658484",
    "3279175",
    "3738185",
    "988093",
    "3301650",
    "3793481",
    "544105",
    "2654880",
    "2446592",
    "2350735",
    "3355257",
    "2073992",
    "4456674",
    "3015563",
    "3333079",
    "2702382",
    "3604846",
    "3972014",
    "3556496",
    "1386812",
    "1728189",
    "1387762",
    "546793",
    "3051977",
    "2956187",
    "2821107",
    "3953285",
    "548126",
    "1809355",
    "2534257",
    "3276739",
    "3738570",
    "568554",
    "544061",
    "2791928",
    "3286441",
    "2108370",
    "2185917",
    "1583620",
    "1899401",
    "2897673",
    "2828599",
    "4009624",
    "3279841",
    "1406494",
    "548151",
    "1409692",
    "2819431",
    "3347709",
    "3287491",
    "3357472",
    "3286398",
    "1682018",
    "568568",
    "1386722",
    "547333",
    "1872124",
    "1429703",
    "547000",
    "3302681",
    "3520847",
    "2756062",
    "1018878",
    "3216827",
    "3285926",
    "546769",
    "1538100",
    "1872121",
    "970783",
    "2085634",
    "2975798",
    "2067783",
    "4010411",
    "3286411",
    "972818",
    "546787",
    "2745187",
    "1862010",
    "2932481",
    "2886265",
    "1481147",
    "1409668",
    "3288453",
    "3051973",
    "1394660",
    "1604591",
    "544100",
    "853957",
    "1007241",
    "1700128",
    "3946596",
    "3277844",
    "2829407",
    "692902",
    "3149573",
    "2055987",
    "2466212",
    "1538106",
    "1449563",
    "3288762",
    "2581328",
    "3279982",
    "568556",
    "547335",
    "548230",
    "546800",
    "546773",
    "1934885",
    "3286444",
    "543013",
    "543804",
    "542982",
    "450182",
    "2289126",
    "3292710",
    "3287621",
    "3466187",
    "568531",
    "870349",
    "3556500",
    "2541411",
    "1681538",
    "3279173",
    "3282130",
    "1375722",
    "3286930",
    "918525",
    "3292286",
    "3520845",
    "2534245",
    "542914",
    "3286417",
    "4010409",
    "3282691",
    "2506703",
    "2884075",
    "635633",
    "1345610",
    "1609948",
    "547341",
    "3972017",
    "2852000",
    "1010597",
    "3348619",
    "2807744",
    "1371259",
    "3588194",
    "3738356",
    "3284305",
    "3469770",
    "544073",
    "3798807",
    "542971",
    "2862802",
    "3292320",
    "3279895",
    "2870091",
    "2556587",
    "677494",
    "3493495",
    "3438474",
    "2636579",
    "547174",
    "854030",
    "3287694",
    "3149589",
    "3516823",
    "3461162",
    "677493",
    "3291822",
    "1386919",
    "3971850",
    "977815",
    "2534233",
    "3281154",
    "2534265",
    "1387108",
    "2851999",
    "3277837",
    "3077644",
    "2756060",
    "2828596",
    "544218",
    "3286395",
    "568552",
    "2108361",
    "2615942",
    "2755765",
    "547062",
    "3052248",
    "3054160",
    "3411430",
    "3959338",
    "3411429",
    "1371577",
    "784888",
    "2625549",
    "3339411",
    "2757002",
    "692903",
    "1128605",
    "3052520",
    "2975797",
    "3338500",
    "1454641",
    "2601238",
    "543023",
    "2755833",
    "3438497",
    "2291420",
    "547905",
    "2760614",
    "548133",
    "547334",
    "3556499",
    "3285890",
    "1398889",
    "3280272",
    "2890101",
    "3285872",
    "542970",
    "1516556",
    "2975794",
    "1609961",
    "972817",
    "1644151",
    "2995646",
    "2255877",
    "2890105",
    "1855494",
    "2995635",
    "4030210",
    "547012",
    "2692983",
    "2863957",
    "3286442",
    "2702669",
    "543898",
    "2791926",
    "3894336",
    "3292541",
    "3051972",
    "1370894",
    "1370783",
    "2601260",
    "546766",
    "547166",
    "547326",
    "2382487",
    "2544745",
    "548122",
    "2878232",
    "2242255",
    "3771249",
    "1931156",
    "1970029",
    "1033679",
    "2758368",
    "3856185",
    "3805019",
    "1996764",
    "970277",
    "544072",
    "1537855",
    "1505049",
    "1388947",
    "1542415",
    "2745186",
    "544068",
    "3286394",
    "2045331",
    "1609965",
    "1387279",
    "1538098",
    "547153",
    "542885",
    "1481975",
    "3286457",
    "3286743",
    "3052249",
    "3971938",
    "2264186",
    "970279",
    "4010505",
    "1386771",
    "3277893",
    "2933011",
    "889984",
    "3806985",
    "3284562",
    "1510808",
    "1371529",
    "3454532",
    "3286393",
    "3599816",
    "2975799",
    "1047943",
    "1387394",
    "548130",
    "870321",
    "3052570",
    "547167",
    "3004828",
    "4211004",
    "2878233",
    "547289",
    "1411168",
    "542912",
    "2361008",
    "4061743",
    "3528394",
    "1370786",
    "3280275",
    "3287619",
    "3328770",
    "546771",
    "1370775",
    "1370779",
    "2756051",
    "2624192",
    "3276760",
    "2289127",
    "547172",
    "2289129",
    "3971748",
    "2627507",
    "3793477",
    "1105252",
    "3286419",
    "1877879",
    "972806",
    "2601264",
    "3307208",
    "1970246",
    "1386778",
    "2764281",
    "3286376",
    "4211000",
    "1388952",
    "4010484",
    "1386510",
    "3295866",
    "542886",
    "3286418",
    "3279176",
    "1387336",
    "2829825",
    "544064",
    "2021213",
    "3285892",
    "3192095",
    "2073986",
    "834745",
    "1644096",
    "544056",
    "3279107",
    "2960548",
    "3467380",
    "3353019",
    "542882",
    "542987",
    "918205",
    "542931",
    "1836698",
    "3500802",
    "1033704",
    "2955293",
    "1044819",
    "3052517",
    "2807776",
    "3515600",
    "2601261",
    "2867628",
    "547974",
    "1899457",
    "1537863",
    "3463318",
    "635631",
    "547330",
    "547285",
    "2757001",
    "2728188",
    "1047945",
    "547098",
    "1371351",
    "3798812",
    "2185918",
    "3464778",
    "3738562",
    "3465970",
    "1102316",
    "2412058",
    "3279524",
    "3051881",
    "3293099",
    "3289442",
    "3289445",
    "2336229",
    "3275386",
    "2917440",
    "3289446",
    "2895521",
    "3289707",
    "3289443",
    "4065286",
    "784887",
    "542989",
    "972843",
    "2913746",
    "1407544",
    "1043533",
    "3281118",
    "2913761",
    "3282127",
    "2755870",
    "1045940",
    "784889",
    "568548",
    "3501704",
    "1105270",
    "3556495",
    "2913817",
    "2956180",
    "3793480",
    "3395177",
    "3411376",
    "3339412",
    "3339410",
    "3989791",
    "3523062",
    "3556498",
    "544116",
    "677495",
    "2891291",
    "547325",
    "542880",
    "542949",
    "542946",
    "568549",
    "543019",
    "3051975",
    "1728188",
    "2956182",
    "1024060",
    "3293026",
    "543895",
    "3355208",
    "3293541",
    "3291803",
    "2534238",
    "3149568",
    "547169",
    "2756063",
    "959164",
    "2534234",
    "972799",
    "2989191",
    "543010",
    "3501706",
    "2956186",
    "782328",
    "1728187",
    "730832",
    "1033703",
    "3362197",
    "3798809",
    "3798806",
    "3798814",
    "3798813",
    "3051976",
    "2309208",
    "2913822",
    "543020",
    "544113",
    "547340",
    "542947",
    "3639716",
    "1566707",
    "1009111",
    "1371328",
    "1370279",
    "1105268",
    "3286375",
    "3286461",
    "3355245",
    "3280274",
    "3771240",
    "3450352",
    "3971943",
    "1481976",
    "3591950",
    "2556589",
    "568559",
    "2534240",
    "547193",
    "1537862",
    "547989",
    "547995",
    "2962380",
    "546791",
    "3052535",
    "1428998",
    "1429693",
    "2333389",
    "547988",
    "2764284",
    "1371636",
    "1024061",
    "1370938",
    "1033672",
    "2601262",
    "3292675",
    "3334986",
    "3971940",
    "3460790",
    "3329835",
    "3971936",
    "3793476",
    "3283630",
    "3279172",
    "3277866",
    "3286367",
    "3291767",
    "3467356",
    "3464777",
    "3339883",
    "3288391",
    "3972011",
    "3971935",
    "3973389",
    "2745188",
    "2534241",
    "2556582",
    "2558269",
    "2556586",
    "2784180",
    "1387084",
    "547983",
    "547994",
    "568567",
    "546778",
    "2601263",
    "546794",
    "1421138",
    "1370941",
    "916571",
    "1043534",
    "1862026",
    "2534231",
    "1387010",
    "547887",
    "1409926",
    "547992",
    "547982",
    "2517848",
    "547996",
    "547991",
    "2640590",
    "547990",
    "3149582",
    "1047944",
    "1345601",
    "1371394",
    "2294934",
    "3528395",
    "1566708",
    "1371260",
    "3599814",
    "853959",
    "1371298",
    "1775170",
    "1696594",
    "1681792",
    "1387239",
    "3285888",
    "3285573",
    "547078",
    "3972015",
    "3466188",
    "3280269",
    "3468078",
    "3494210",
    "3286374",
    "3286744",
    "3293100",
    "3279109",
    "3286369",
    "3460912",
    "3357508",
    "3280278",
    "3781208",
    "3355319",
    "3465957",
    "3461803",
    "3278598",
    "3959277",
    "3971836",
    "547084",
    "3972016",
    "2328412",
    "3333080",
    "2944641",
    "542913",
    "545742",
    "3545653",
    "2556588",
    "543944",
    "543947",
    "547978",
    "547178",
    "3550145",
    "547337",
    "2298239",
    "1422962",
    "1996761",
    "1996762",
    "547880",
    "1689069",
    "2534236",
    "2601254",
    "2583471",
    "2402591",
    "1959935",
    "2264191",
    "568553",
    "545720",
    "546781",
    "547879",
    "1429383",
    "547985",
    "547987",
    "547973",
    "1102315",
    "1996730",
    "2551995",
    "1429707",
    "547902",
    "1429704",
    "547986",
    "2655422",
    "547968",
    "548003",
    "547984",
    "2862942",
    "2994125",
    "547086",
    "3098318",
    "2658517",
    "547126",
    "1033695",
    "1689070",
    "2988937",
    "3528396",
    "1387950",
    "3528391",
    "1112541",
    "3528392",
    "3528393",
    "1775082",
    "3550173",
    "3500801",
    "1386646",
    "3805018",
    "3805022",
    "3001197",
    "543016",
    "1370309",
    "988802",
    "547110",
    "2960514",
    "2601236",
    "2494631",
    "1642255",
    "834790",
    "4009623",
    "3291395",
    "3280319",
    "2274737",
    "3278992",
    "3347778",
    "3278253",
    "3216808",
    "3294914",
    "3327039",
    "3279290",
    "3279174",
    "3438351",
    "3279177",
    "3282693",
    "3279514",
    "3286421",
    "3285887",
    "1449565",
    "547967",
    "3282541",
    "3286400",
    "3285923",
    "3286370",
    "3289057",
    "2991017",
    "3295748",
    "3347775",
    "3458298",
    "3328698",
    "3279880",
    "3329540",
    "3362150",
    "3286396",
    "3347702",
    "3626230",
    "2622241",
    "3348449",
    "1959934",
    "547965",
    "3280279",
    "3280342",
    "3288711",
    "2965810",
    "3463092",
    "3280343",
    "3288732",
    "3314792",
    "543907",
    "3957086",
    "3278287",
    "3278328",
    "3280341",
    "2108348",
    "1345606",
    "547979",
    "4042450",
    "1371359",
    "2544743",
    "2438992",
    "2085633",
    "1970248",
    "548213",
    "1689071",
    "2821104",
    "1426942",
    "547006",
    "547338",
    "1996685",
    "834755",
    "918182",
    "2851983",
    "1996765",
    "547020",
    "2692984",
    "547970",
    "547867",
    "2601235",
    "1996732",
    "1345600",
    "2250891",
    "1548750",
    "2851972",
    "2878241",
    "916557",
    "2975795",
    "2878227",
    "1421137",
    "916438",
    "548002",
    "2085632",
    "1459656",
    "1387263",
    "547268",
    "1959936",
    "2076025",
    "2381125",
    "1996766",
    "1996763",
    "548011",
    "1996700",
    "2556590",
    "547883",
    "547886",
    "547999",
    "547882",
    "2259928",
    "547998",
    "547976",
    "548000",
    "548004",
    "1370291",
    "547980",
    "2250893",
    "2438985",
    "2884072",
    "2946426",
    "1370877",
    "547082",
    "2968837",
    "547115",
    "546997",
    "547001",
    "547013",
    "834792",
    "546991",
    "547007",
    "2583254",
    "1370419",
    "2259936",
    "547064",
    "853914",
    "2431665",
    "2204609",
    "1689072",
    "1836815",
    "3287403",
    "2683915",
    "2453102",
    "3051952",
    "547101",
    "916548",
    "2956183",
    "3805024",
    "3805020",
    "3805021",
    "3805023",
    "2385249",
    "3639715",
    "3149584",
    "1371416",
    "3285527",
    "3285572",
    "2204698",
    "1905241",
    "3285520",
    "654537",
    "547125",
    "979324",
    "1527039",
    "1370287",
    "2534239",
    "548144",
    "1386767",
    "3348620",
    "546988",
    "543647",
    "3286414",
    "547116",
    "3279465",
    "547267",
    "3077640",
    "3285873",
    "548109",
    "3286368",
    "3468354",
    "548093",
    "3288456",
    "3279291",
    "3285874",
    "3279289",
    "3329450",
    "3285921",
    "3347772",
    "3286397",
    "3309041",
    "3329882",
    "3550093",
    "1429400",
    "548007",
    "548113",
    "2622242",
    "2757006",
    "547972",
    "2769769",
    "2568643",
    "2042936",
    "692905",
    "1134580",
    "1370939",
    "1370838",
    "1370836",
    "2440599",
    "2308823",
    "2259953",
    "547264",
    "2819410",
    "900714",
    "3588189",
    "1371638",
    "1371055",
    "2428214",
    "2821110",
    "2764274",
    "3279101",
    "635632",
    "3280580",
    "3282692",
    "2438988",
    "3282598",
    "1644109",
    "3285606",
    "3286740",
    "3286458",
    "3286420",
    "3289071",
    "546993",
    "3321189",
    "1388464",
    "548111",
    "917751",
    "3355326",
    "543939",
    "2143326",
    "1345615",
    "970610",
    "2655674",
    "1724065",
    "916623",
    "547284",
    "548145",
    "676806",
    "1775046",
    "2756996",
    "548010",
    "916615",
    "3281233",
    "543941",
    "2288807",
    "3480434",
    "1387124",
    "1579747",
    "548076",
    "545755",
    "2261912",
    "547093",
    "2270107",
    "2756997",
    "1386807",
    "2715917",
    "2756999",
    "3347777",
    "3460919",
    "3279846",
    "2624239",
    "2866537",
    "547885",
    "2811768",
    "2862819",
    "2250897",
    "1604600",
    "545754",
    "546996",
    "547161",
    "548135",
    "2757003",
    "2343588",
    "1370904",
    "2764277",
    "1370916",
    "916626",
    "2281628",
    "3464694",
    "916566",
    "3438312",
    "1370829",
    "548250",
    "545758",
    "916574",
    "916606",
    "916577",
    "916617",
    "1644137",
    "1371356",
    "1386805",
    "2026270",
    "2191712",
    "784890",
    "1386830",
    "3288733",
    "1386939",
    "3309035",
    "2308815",
    "3309036",
    "2453096",
    "548006",
    "3463315",
    "2551993",
    "1370875",
    "2640591",
    "2250895",
    "3295433",
    "547966",
    "2254645",
    "854033",
    "2728189",
    "2728190",
    "2728191",
    "2728180",
    "2440598",
    "2764275",
    "547286",
    "548212",
    "2440588",
    "2757004",
    "2811772",
    "853902",
    "2956188",
    "1387390",
    "3438267",
    "1370351",
    "547113",
    "916590",
    "3000750",
    "547010",
    "546998",
    "1388257",
    "547011",
    "3016632",
    "547003",
    "547014",
    "546992",
    "547005",
    "916647",
    "834791",
    "3329897",
    "3098319",
    "3355608",
    "1389169",
    "1387016",
    "1387639",
    "1371326",
    "892236",
    "1409681",
    "2895473",
    "2518568",
    "2627510",
    "547071",
    "1899458",
    "3280270",
    "3307273",
    "3989799",
    "2913739",
    "3277506",
    "547182",
    "4043050",
    "4047963",
    "1370942",
    "1775048",
    "1724064",
    "3286415",
    "3286438",
    "547969",
    "548001",
    "548134",
    "2965982",
    "3054885",
    "3588188",
    "3588192",
    "3516825",
    "3008944",
    "3503594",
    "543784",
    "2191711",
    "2259968",
    "2622221",
    "543026",
    "916604",
    "3805017",
    "2811767",
    "959160",
    "1371355",
    "2965800",
    "3856176",
    "2191663",
    "2965961",
    "1371338",
    "545678",
    "1644150",
    "3470880",
    "545854",
    "2708747",
    "3550092",
    "3285525",
    "3285570",
    "3285571",
    "3285518",
    "3285574",
    "3285521",
    "3470881",
    "3470893",
    "3470883",
    "3470894",
    "3470956",
    "3470957",
    "3523141",
    "3943370",
    "3588199",
    "2801688",
    "2967963",
    "3461363",
    "2694639",
    "3279695",
    "2756952",
    "3288392",
    "1115408",
    "1370898",
    "548075",
    "3286413",
    "3285922",
    "3460940",
    "3293391",
    "3366998",
    "3334966",
    "3149566",
    "547343",
    "3451536",
    "544070",
    "546774",
    "2897485",
    "3560216",
    "3283342",
    "692907",
    "544055",
    "1370828",
    "2021210",
    "3141057",
    "2242251",
    "2042935",
    "546762",
    "3451187",
    "1371300",
    "2045332",
    "2821109",
    "2867815",
    "544104",
    "3285928",
    "1429679",
    "854053",
    "1370831",
    "1370784",
    "3280173",
    "1619896",
    "3316699",
    "3333072",
    "614889",
    "1388463",
    "2811775",
    "1370833",
    "2960522",
    "3149581",
    "2625856",
    "3141089",
    "1370780",
    "1387391",
    "1537865",
    "3051501",
    "1370817",
    "2204441",
    "544058",
    "1370865",
    "1371251",
    "1370906",
    "870062",
    "1388461",
    "2438989",
    "2819425",
    "853987",
    "654539",
    "545999",
    "2625551",
    "878498",
    "1371521",
    "3588196",
    "1371574",
    "1411166",
    "2121561",
    "2294963",
    "2811773",
    "3516835",
    "1390721",
    "1407576",
    "545995",
    "548152",
    "1593892",
    "3279098",
    "3280201",
    "3280202",
    "3281238",
    "3282638",
    "3285930",
    "3286741",
    "3286742",
    "3286422",
    "1386800",
    "654544",
    "3287699",
    "870732",
    "3292085",
    "3292091",
    "1370910",
    "916609",
    "3288296",
    "3288390",
    "3293559",
    "2862794",
    "2267805",
    "3000749",
    "1387842",
    "892759",
    "3336293",
    "3192098",
    "3342614",
    "2764276",
    "1370782",
    "1388378",
    "2890107",
    "2805485",
    "916612",
    "3346372",
    "1370839",
    "3346373",
    "1370777",
    "548797",
    "1370776",
    "3353017",
    "1387439",
    "1371060",
    "3362618",
    "916644",
    "3288400",
    "3317329",
    "545763",
    "546950",
    "916588",
    "916605",
    "544039",
    "853986",
    "546798",
    "916580",
    "916573",
    "1386825",
    "916603",
    "918138",
    "1429392",
    "778840",
    "1527037",
    "1365754",
    "3288457",
    "1370834",
    "1977343",
    "1461535",
    "1386827",
    "3450345",
    "3450346",
    "2308818",
    "3450355",
    "3450348",
    "3450350",
    "1429713",
    "2309158",
    "2658233",
    "1370292",
    "2518550",
    "1105253",
    "2191704",
    "1115413",
    "2411094",
    "2767466",
    "2811770",
    "870331",
    "1388147",
    "2811778",
    "2756998",
    "2878228",
    "2878229",
    "1388435",
    "2702667",
    "2586242",
    "2801695",
    "2890106",
    "1370785",
    "546990",
    "547102",
    "3288403",
    "1388462",
    "1386810",
    "1371331",
    "3192096",
    "1859097",
    "3192097",
    "3467651",
    "3467656",
    "1386824",
    "3470020",
    "3470994",
    "3470989",
    "3470990",
    "3470991",
    "3470992",
    "3470993",
    "3468517",
    "2572077",
    "3451541",
    "3462221",
    "1809601",
    "3438286",
    "1386980",
    "1371575",
    "1859095",
    "654543",
    "544045",
    "970300",
    "623409",
    "654545",
    "654535",
    "547188",
    "3347708",
    "544060",
    "1407553",
    "547160",
    "3294816",
    "3462678",
    "547184",
    "3293551",
    "3329930",
    "3467366",
    "3347773",
    "547865",
    "2991371",
    "889999",
    "3348640",
    "3328735",
    "854056",
    "1370781",
    "791855",
    "1370819",
    "1390689",
    "1370820",
    "1390718",
    "1387396",
    "1387397",
    "1387400",
    "1872117",
    "1371362",
    "1161610",
    "2552719",
    "3321321",
    "3463319",
    "3463317",
    "3280346",
    "3318488",
    "3507634",
    "3461839",
    "3507635",
    "3507632",
    "3507633",
    "3309028",
    "3463101",
    "3464696",
    "3558930",
    "3588187",
    "3588195",
    "3588197",
    "3588198",
    "3588200",
    "3588193",
    "3588201",
    "2852055",
    "3288396",
    "2819415",
    "3328623",
    "3450354",
    "3470523",
    "3463660",
    "3470522",
    "3328624",
    "3347721",
    "3357495",
    "542881",
    "3285927",
    "3639727",
    "1609958",
    "1609949",
    "1370308",
    "1370282",
    "3469774",
    "2933010",
    "3454947",
    "2385244",
    "3286412",
    "1115418",
    "1644145",
    "3461361",
    "3293392",
    "3293390",
    "3293586",
    "3309029",
    "900718",
    "3598015",
    "2270156",
    "1461534",
    "2191702",
    "2904504",
    "2622232",
    "2622233",
    "3468794",
    "1409921",
    "1409920",
    "2622236",
    "916610",
    "2878237",
    "2716948",
    "3450349",
    "3347720",
    "3352640",
    "3351639",
    "3942470",
    "1371067",
    "1017631",
    "916589",
    "3307274",
    "3307276",
    "3959288",
    "3959293",
    "3959268",
    "1370813",
    "3295549",
    "3450347",
    "3461090",
    "1387645",
    "1387254",
    "3550171",
    "3870235",
    "3870259",
    "3870267",
    "3870268",
    "3870253",
    "3870220",
    "3290001",
    "3870255",
    "3870174",
    "3870223",
    "3870233",
    "3870265",
    "3870234",
    "3870250",
    "3288710",
    "3870266",
    "3861455",
    "3861471",
    "1409091",
    "1409072",
    "3870261",
    "2784011",
    "3149586",
    "3288923",
    "4030216",
    "4030217",
    "3870256",
    "4043958",
    "4042460",
    "3738259",
    "3738262",
    "870375",
    "3450351",
    "3608120",
    "4047959",
    "2302333",
    "3307275",
    "3307277",
    "2862902",
    "3288395",
    "4061746",
    "1113421",
    "1113432",
    "3323533",
    "1113430",
    "3738261",
    "3318489",
    "548105",
    "3870222",
    "3077645",
    "692908",
    "3639722",
    "3639725",
    "3870251",
    "3870252",
    "3870257",
    "692911",
    "692912",
    "1386753",
    "543908",
    "2644532",
    "548051",
    "548129",
    "3823586",
    "3314814",
    "2328462",
    "3327029",
    "3560214",
    "3344662",
    "2073991",
    "4047954",
    "548039",
    "3354516",
    "1609233",
    "3016617",
    "3292118",
    "3345907",
    "3520846",
    "3288394",
    "3462219",
    "3959605",
    "3959609",
    "3907645",
    "2073990",
    "3959616",
    "3450359",
    "3328622",
    "548200",
    "3461088",
    "3288404",
    "3463658",
    "3288384",
    "3288388",
    "3288389",
    "3288383",
    "3450357",
    "2946194",
    "3601673",
    "1644118",
    "3550190",
    "1617311",
    "1386734",
    "854051",
    "2073987",
    "2191709",
    "4196616",
    "3870249",
    "3870248",
    "2124036",
    "2708746",
    "2993196",
    "3470959",
    "3523140",
    "3804945",
    "3804947",
    "3804948",
    "3804949",
    "2967962",
    "2967961",
    "547107",
    "4210977",
    "4211070",
    "3468445",
    "918196",
    "4210999",
    "4211001",
    "4211008",
    "4210978",
    "4211083",
    "4210989",
    "2722003",
    "3292788",
    "2956185",
    "2819444",
    "3805016",
    "2819445",
    "2627508",
    "547061",
    "548005",
    "959163",
    "3798811",
    "1411159",
    "1411158",
    "1411176",
    "2279803",
    "2274701",
    "3319669",
    "3639717",
    "3798834",
    "3470891",
    "3470867",
    "3470892",
    "3470868",
    "3470869",
    "3470870",
    "3470885",
    "3470887",
    "3470874",
    "3470889",
    "3470876",
    "3470890",
    "3470872",
    "3461802",
    "3461095",
    "3450344",
    "3347719",
    "3351638",
    "4314424",
    "4314427",
    "4314433",
    "4314470",
    "4314477",
    "548205",
    "3355240",
    "3361993",
    "972850",
    "3279845",
    "3470895",
    "1598346",
    "957143",
    "544088",
    "2191708",
    "926272",
    "643473",
    "1681702",
    "2822519",
    "3457981",
    "3457982",
    "3287569",
    "3599815",
    "3314761",
    "3598017",
    "2822521",
    "2944644",
    "548090",
    "2108390",
    "1644139",
    "1371339",
    "548157",
    "553655",
    "1371357",
    "2819413",
    "547272",
    "1371423",
    "1371421",
    "1684457",
    "3470878",
    "1371307",
    "3291804",
    "3452750",
    "3355756",
    "3288402",
    "3637821",
    "3514603",
    "3149562",
    "3356124",
    "4352224",
    "543970",
    "2624240",
    "3280191",
    "2822518",
    "2946198",
    "1491841",
    "2852041",
    "3932691",
    "3292674",
    "3280177",
    "4211026",
    "548083",
    "3989822",
    "2700667",
    "543886",
    "4338972",
    "3291415",
    "1370908",
    "1371057",
    "1371056",
    "1388894",
    "3149571",
    "544059",
    "1609963",
    "1370892",
    "1371058",
    "1371015",
    "1370940",
    "1370896",
    "1386843",
    "1388901",
    "1390720",
    "1370914",
    "792074",
    "1080537",
    "1371016",
    "1371059",
    "1388949",
    "1371023",
    "1388258",
    "1407582",
    "995335",
    "1370880",
    "1390719",
    "3327038",
    "624869",
    "2287890",
    "553650",
    "553653",
    "544057",
    "970274",
    "925162",
    "2518553",
    "2191707",
    "1506305",
    "2965960",
    "3465483",
    "3503548",
    "3282515",
    "2071256",
    "3754644",
    "1390825",
    "2997475",
    "4314437",
    "3289405",
    "2935258",
    "957103",
    "3639730",
    "3639729",
    "3292944",
    "3312118",
    "4314473",
    "547155",
    "4048940",
    "853915",
    "3639731",
    "2946424",
    "547279",
    "1520543",
    "3876539",
    "3822336",
    "3989752",
    "568557",
    "3466930",
    "2702666",
    "3329519",
    "548089",
    "2702670",
    "1388174",
    "546776",
    "3292133",
    "2108389",
    "548173",
    "2946196",
    "4312415",
    "4314444",
    "3307297",
    "4009276",
    "4357417",
    "4357794",
    "4357795",
    "4357796",
    "3291426",
    "3869995",
    "2956184",
    "2438991",
    "4440559",
    "4440565",
    "972805",
    "1409663",
    "1386950",
    "2700677",
    "2819412",
    "3339417",
    "4360639",
    "547243",
    "1409075",
    "2956102",
    "2601243",
    "2700663",
    "3345714",
    "2558273",
    "2428212",
    "896911",
    "4312448",
    "1371430",
    "4457163",
    "4417311",
    "3894127",
    "1387894",
    "1105271",
    "2702668",
    "547262",
    "2694640",
    "2710608",
    "1545502",
    "2694641",
    "2191703",
    "2924104",
    "2585501",
    "3292119",
    "548791",
    "1547367",
    "841563",
    "3149561",
    "3288294",
    "3051503",
    "3321282",
    "1538095",
    "1793936",
    "4314472",
    "3318487",
    "2927781",
    "1386691",
    "1345608",
    "547022",
    "4014736",
    "3971855",
    "900559",
    "900560",
    "1429680",
    "2481922",
    "546987",
    "546994",
    "2096449",
    "3460793",
    "1371391",
    "2397212",
    "3543018",
    "548848",
    "1644105",
    "3457985",
    "3516832",
    "3285569",
    "3285512",
    "3285514",
    "3285516",
    "3285568",
    "3363993",
    "4314465",
    "942192",
    "544115",
    "547199",
    "959167",
    "1720765",
    "547196",
    "694675",
    "544118",
    "1024527",
    "878491",
    "870315",
    "544220",
    "547198",
    "1370922",
    "1407689",
    "1388950",
    "1087591",
    "546052",
    "4484220",
    "3285523",
    "1387495",
    "2504980",
    "1409669",
    "961386",
    "2791283",
    "3348599",
    "3639733",
    "1515094",
    "3595507",
    "3737934",
    "2298243",
    "3319692",
    "1648724",
    "4506982",
    "4355791",
    "3359806",
    "3738260",
    "4512096",
    "543623",
    "3503555",
    "3870271",
    "4513222",
    "4513223",
    "4513224",
    "4513225",
    "4472422",
    "4516054",
    "4472376",
    "4515491",
    "4515949",
    "4515914",
    "4515945",
    "4515954",
    "3285065",
    "2700612",
    "3328644",
    "3314819",
    "2518551",
    "3475626",
    "548038",
    "3989796",
    "3008869",
    "4314448",
    "3639724",
    "3287482",
    "1387437",
    "4518868",
    "4312453",
    "3336294",
    "3194102",
    "2995473",
    "3293668",
    "3287414",
    "3336295",
    "2644521",
    "4512471",
    "4314461",
    "545857",
    "3466147",
    "544161",
    "4312456",
    "3463093",
    "548637",
    "4314466",
    "4312441",
    "1370290",
    "3598016",
    "4312442",
    "3301641",
    "4515948",
    "4515953",
    "1386851",
    "3637822",
    "4312460",
    "4512470",
    "1371353",
    "3281553",
    "4314476",
    "3054159",
    "3463095",
    "3149585",
    "1386915",
    "2700668",
    "4314463",
    "4312417",
    "4314471",
    "3008868",
    "3870270",
    "3462895",
    "4314450",
    "4314455",
    "3500929",
    "4314446",
    "4314452",
    "4048952",
    "4529206",
    "3466366",
    "3639734",
    "3870254",
    "2829394",
    "3458294",
    "4060492",
    "553641",
    "1967597",
    "4483955",
    "4515889",
    "4515891",
    "4515951",
    "4484085",
    "2946201",
    "4312414",
    "2700656",
    "2822522",
    "3639735",
    "548156",
    "3870269",
    "544162",
    "4515489",
    "3051518",
    "3278600",
    "4312466",
    "3348452",
    "2946139",
    "4314447",
    "4312447",
    "3291288",
    "916546",
    "3450026",
    "4312452",
    "548792",
    "543806",
    "4312446",
    "2874013",
    "3450358",
    "3149567",
    "1371340",
    "2518552",
    "3593913",
    "2428215",
    "3575647",
    "3077648",
    "781294",
    "3051513",
    "3149569",
    "3335942",
    "2828587",
    "3494382",
    "2388882",
    "4314478",
    "2124035",
    "1390830",
    "3348451",
    "3194116",
    "4314451",
    "3450028",
    "548108",
    "2315260",
    "544122",
    "4513220",
    "4472398",
    "4550130",
    "4550131",
    "4550134",
    "3942452",
    "1644116",
    "3288399",
    "3599833",
    "3281231",
    "3348454",
    "4314474",
    "2700669",
    "3819670",
    "4550141",
    "4550142",
    "4513218",
    "3286372",
    "2819432",
    "3293002",
    "3500803",
    "3338466",
    "3352989",
    "4562462",
    "4562463",
    "3008874",
    "4562467",
    "3598014",
    "1386594",
    "2801696",
    "4312455",
    "4312457",
    "2315271",
    "3305243",
    "3328643",
    "3466435",
    "4312433",
    "2494633",
    "4312410",
    "1033673",
    "1386799",
    "1538089",
    "543691",
    "4314435",
    "3287547",
    "879808",
    "1371330",
    "1371329",
    "4314449",
    "2781633",
    "3286460",
    "3355383",
    "3284778",
    "1370907",
    "4009275",
    "4349091",
    "917472",
    "4316440",
    "3359522",
    "4581713",
    "545764",
    "3519615",
    "3287115",
    "3054164",
    "4312416",
    "3051974",
    "3469721",
    "2622231",
    "2622234",
    "2622235",
    "3450013",
    "2801693",
    "2644533",
    "3450360",
    "4334048",
    "3289265",
    "3288385",
    "3351636",
    "3639718",
    "3288387",
    "4314426",
    "3639719",
    "2607988",
    "1371388",
    "853908",
    "1775078",
    "3347839",
    "2913693",
    "3335943",
    "3289262",
    "4070536",
    "2716952",
    "2756700",
    "3355669",
    "2756705",
    "2756702"
]