[
    "3230008",
    "718178",
    "1976397",
    "1157197",
    "79591",
    "4326110",
    "2799609",
    "3724713",
    "314591",
    "2760508",
    "2956074",
    "3479701",
    "3225499",
    "825174",
    "2723426",
    "2183544",
    "3673413",
    "4277708",
    "419108",
    "2599027",
    "3141030",
    "3673432",
    "1784711",
    "1642204",
    "4316309",
    "4426775",
    "2899639",
    "4422971",
    "2624919",
    "1641888",
    "2780304",
    "3004507",
    "2799610",
    "4410107",
    "4282543",
    "2541424",
    "1641734",
    "2238579",
    "4277790",
    "4384390",
    "2775383",
    "2956075",
    "3045123",
    "4283970",
    "1495291",
    "1642070",
    "3556866",
    "4277659",
    "3371590",
    "4394402",
    "1641494",
    "732751",
    "612993",
    "1645795",
    "1645874",
    "1645759",
    "1237799",
    "2212414",
    "3198958",
    "4394406",
    "1641775",
    "3497603",
    "3345633",
    "3479747",
    "841031",
    "79592",
    "2775381",
    "2541425",
    "4283991",
    "4394395",
    "2707135",
    "2502153",
    "1962206",
    "3790454",
    "79670",
    "1412602",
    "2802774",
    "732748",
    "353480",
    "1495289",
    "3225494",
    "2238602",
    "732754",
    "2916548",
    "3198972",
    "4276630",
    "4283969",
    "2502152",
    "4326108",
    "841032",
    "1642207",
    "1495284",
    "3328877",
    "3002569",
    "732755",
    "3225495",
    "4282542",
    "3323292",
    "1940575",
    "2723425",
    "4283978",
    "2810031",
    "1495288",
    "2304607",
    "3957274",
    "1495290",
    "2566870",
    "3319187",
    "3000443",
    "4409077",
    "79692",
    "865318",
    "3673416",
    "2775389",
    "4274758",
    "4272166",
    "4417087",
    "1641538",
    "3371589",
    "2212411",
    "2541430",
    "1545478",
    "3045124",
    "160111",
    "2810034",
    "2174117",
    "2108600",
    "876847",
    "1379750",
    "141048",
    "2625959",
    "4283972",
    "2304608",
    "3673415",
    "1495286",
    "1641493",
    "2810035",
    "2585436",
    "2622058",
    "732747",
    "1483942",
    "1639639",
    "2810029",
    "3045345",
    "2810030",
    "157868",
    "3734349",
    "109151",
    "122886",
    "2640545",
    "3045344",
    "2884027",
    "732758",
    "1641939",
    "2911261",
    "223608",
    "3948531",
    "612997",
    "2658167",
    "1639373",
    "732760",
    "2108230",
    "79596",
    "460604",
    "1996682",
    "2916549",
    "2819114",
    "766331",
    "3497604",
    "4247246",
    "732757",
    "3198974",
    "933847",
    "4231350",
    "3948535",
    "4211199",
    "79669",
    "323113",
    "3948533",
    "1495283",
    "698245",
    "3497602",
    "3001589",
    "732749",
    "3319240",
    "79580",
    "68555",
    "2541428",
    "732759",
    "732763",
    "958141",
    "733396",
    "612996",
    "3359944",
    "79582",
    "3497600",
    "1483939",
    "3497606",
    "3497601",
    "2723429",
    "2174115",
    "160110",
    "1495292",
    "2723427",
    "733395",
    "3948532",
    "3948530",
    "2723428",
    "732762",
    "733397",
    "79595",
    "3734347",
    "876848",
    "208740",
    "3734348",
    "612990",
    "825175",
    "3948534",
    "2640544",
    "84211",
    "3673414",
    "3734346",
    "3734351",
    "3734345",
    "2108229",
    "733398",
    "79583",
    "1639372",
    "732764",
    "3860593",
    "3323290",
    "1996681",
    "612994",
    "732742",
    "79671",
    "876857",
    "109150",
    "296974",
    "79677",
    "79585",
    "380504",
    "2778195",
    "2960148",
    "393593",
    "315032",
    "393592",
    "2212413",
    "732753",
    "1670818",
    "3556867",
    "2775379",
    "2905585",
    "3325249",
    "3045341",
    "170930",
    "2745935",
    "1655064",
    "612995",
    "732750",
    "1639640",
    "3323272",
    "1642653",
    "1639638",
    "1645754",
    "3045342",
    "1651391",
    "3141029",
    "3141028",
    "3323273",
    "2810033",
    "306375",
    "1646048",
    "3198978",
    "698248",
    "1644924",
    "142514",
    "380507",
    "306374",
    "2212412",
    "3323270",
    "2622059",
    "2622056",
    "2622057",
    "876855",
    "3135806",
    "3323271",
    "3141026",
    "1773459",
    "1773484",
    "3860715",
    "3860716",
    "3860717",
    "3860713",
    "3860714",
    "1645765",
    "3328876",
    "3045357",
    "170932",
    "1373549",
    "1877868",
    "2074402",
    "79673",
    "1648937",
    "1641903",
    "915171",
    "2566334",
    "4211201",
    "3359961",
    "3366978",
    "2183535",
    "4275241",
    "4285514",
    "4285611",
    "4283975",
    "4285513",
    "3198975",
    "4282559",
    "4318191",
    "4293852",
    "2927695",
    "2960151",
    "3225525",
    "2955651",
    "1642307",
    "1996683",
    "4340193",
    "3334908",
    "3319186",
    "4394445",
    "4394496",
    "3359946",
    "4395747",
    "4391428",
    "4409079",
    "4409080",
    "4391430",
    "3225498",
    "312542",
    "3323289",
    "3479724",
    "4285566",
    "1373548",
    "990097",
    "2920922",
    "4275251",
    "3339099",
    "3198956",
    "1645791",
    "1645756",
    "1645753",
    "2944445",
    "1645767",
    "4431052",
    "3225501",
    "1645871",
    "3019989",
    "1645873",
    "2477803",
    "1645872",
    "2443055",
    "698252",
    "223609",
    "1641726",
    "4394492",
    "4391427",
    "1639637",
    "1642655",
    "469016",
    "1645771",
    "215407",
    "3479748",
    "3141027",
    "3339111",
    "1641712",
    "2183536",
    "4394500",
    "4516663",
    "2993095",
    "4523027",
    "4523028",
    "4523030",
    "4523031",
    "4523020",
    "4523021",
    "4523022",
    "4523023",
    "4523024",
    "4523025",
    "4282590",
    "223602",
    "4523026",
    "1645884",
    "1646954",
    "2634480",
    "1645760",
    "1645674",
    "3170928",
    "79605",
    "4433015",
    "612981",
    "1877869",
    "2640552",
    "4282589",
    "4277666",
    "4316310",
    "4466825",
    "144694",
    "3359965",
    "280363",
    "96656",
    "223606",
    "1643733",
    "79594",
    "698251",
    "2049120",
    "215402",
    "79590",
    "144697",
    "860463",
    "2775339",
    "2547971",
    "1157196",
    "733399",
    "1645758",
    "215408",
    "258651",
    "1641500",
    "68554",
    "4580159",
    "4580160",
    "144696",
    "79581",
    "79598",
    "2457906",
    "1791816",
    "1643713",
    "876856",
    "1643712",
    "79579",
    "1483941"
]