[
    "3965043",
    "3327792",
    "4530822",
    "3499717",
    "3773114",
    "4198541",
    "3932573",
    "2432038",
    "3327783",
    "4020035",
    "3123197",
    "4541880",
    "4534737",
    "2998819",
    "3917699",
    "282135",
    "1544720",
    "3402763",
    "2736275",
    "1545432",
    "3245659",
    "3773074",
    "1125013",
    "44948",
    "4173218",
    "44863"
]