[
    "1629170",
    "4349898",
    "1779203",
    "2892324",
    "3509291",
    "4349899",
    "2655862",
    "786984",
    "4036252",
    "412615",
    "1189894",
    "777137",
    "2556709",
    "4370727",
    "1669284",
    "3462531",
    "1189964",
    "2026446",
    "777094",
    "2595657",
    "2331626",
    "1047063",
    "4113560",
    "879415",
    "3761665",
    "3594834",
    "3655856",
    "1188139",
    "2331715",
    "1646967",
    "3169564",
    "3558028",
    "3295074",
    "1191670",
    "1211319",
    "1671290",
    "4128512",
    "678713",
    "3989797",
    "1364678",
    "3604105",
    "674507",
    "777111",
    "220230",
    "3631878",
    "887726",
    "2147502",
    "3349757",
    "1671360",
    "3594720",
    "1888872",
    "3594765",
    "3677723",
    "978111",
    "3492169",
    "3679740",
    "3295941",
    "2655784",
    "3103306",
    "3615007",
    "3603906",
    "4049559",
    "1223666",
    "225072",
    "1670997",
    "3139398",
    "3658610",
    "1227989",
    "974336",
    "3678900",
    "3789804",
    "1265924",
    "2655831",
    "1634742",
    "3191350",
    "3238338",
    "3594673",
    "3676345",
    "1433300",
    "1678027",
    "4330863",
    "3731428",
    "4438991",
    "3712294",
    "3662424",
    "3619890",
    "3658976",
    "220229",
    "3799533",
    "1191681",
    "4367633",
    "4319346",
    "1313941",
    "1667909",
    "3594818",
    "3594999",
    "418925",
    "1009809",
    "3295964",
    "476292",
    "3594773",
    "1643752",
    "3301109",
    "1191671",
    "854756",
    "969148",
    "1034633",
    "2697866",
    "3746967",
    "3757341",
    "4333468",
    "4379711",
    "1224357",
    "3159275",
    "777106",
    "777115",
    "1280863",
    "446832",
    "2125056",
    "1790935",
    "1246367",
    "3046815",
    "1667914",
    "3670974",
    "558615",
    "3201200",
    "4341836",
    "650877",
    "1225551",
    "1873406",
    "2730778",
    "1005610",
    "3575983",
    "3821537",
    "3977546",
    "777118",
    "3681997",
    "2892321",
    "2160881",
    "220231",
    "1120945",
    "2655846",
    "3664434",
    "2948206",
    "3743471",
    "777131",
    "3828797",
    "1189891",
    "1265993",
    "1211352",
    "1643811",
    "2684740",
    "1188137",
    "781321",
    "3199079",
    "3679738",
    "1711591",
    "3789807",
    "3432423",
    "3594827",
    "3594729",
    "1159260",
    "2595656",
    "1211330",
    "1711592",
    "3135787",
    "3665671",
    "1647711",
    "1433277",
    "3679737",
    "3670185",
    "993148",
    "1112954",
    "3631655",
    "2655762",
    "3789796",
    "1351953",
    "3681919",
    "3664954",
    "1326039",
    "1525750",
    "1665340",
    "3445133",
    "3657746",
    "2262022",
    "3923134",
    "1680682",
    "3445134",
    "3594949",
    "940632",
    "447974",
    "3133235",
    "3156640",
    "3658727",
    "1852429",
    "2945869",
    "3595570",
    "4188402",
    "459889",
    "1047069",
    "1647704",
    "3977117",
    "1626197",
    "3677725",
    "1188138",
    "1072115",
    "1888873",
    "496328",
    "2695644",
    "4194024",
    "1434796",
    "771342",
    "3551311",
    "1005623",
    "3662426",
    "1647718",
    "1643734",
    "2025569",
    "2517652",
    "2994711",
    "3434068",
    "253541",
    "1230013",
    "2929518",
    "3590752",
    "2665110",
    "1326043",
    "1867014",
    "1296092",
    "1226076",
    "2408274",
    "2124088",
    "1066896",
    "4013768",
    "1852464",
    "2944768",
    "2929517",
    "2445708",
    "2655756",
    "984860",
    "3551643",
    "3614996",
    "1626194",
    "1852427",
    "838970",
    "2929508",
    "3544267",
    "716395",
    "1005624",
    "1412364",
    "3140016",
    "1647706",
    "1225563",
    "527944",
    "3594704",
    "3535921",
    "1647707",
    "3296491",
    "2262023",
    "1230168",
    "2602317",
    "777133",
    "1224786",
    "1225021",
    "2655865",
    "1626187",
    "1680675",
    "558245",
    "1626196",
    "2331708",
    "1296090",
    "2124994",
    "1296091",
    "3660941",
    "3296490",
    "3665460",
    "1678028",
    "1653836",
    "1653833",
    "1852454",
    "3688217",
    "3603596",
    "1291406",
    "3019478",
    "662728",
    "3603957",
    "3435481",
    "2156632",
    "3063254",
    "3543071",
    "3626974",
    "4069601",
    "2697880",
    "3678875",
    "3594746",
    "2262109",
    "3035997",
    "1237315",
    "1295991",
    "3575985",
    "3593314",
    "1005618",
    "3594695",
    "2445590",
    "3434092",
    "2929528",
    "2816320",
    "3679125",
    "3703916",
    "3295090",
    "4188407",
    "3468365",
    "2939418",
    "3584309",
    "3923129",
    "1009807",
    "1225076",
    "2794084",
    "312051",
    "777130",
    "1669285",
    "1947573",
    "1351566",
    "3593332",
    "3046813",
    "3490572",
    "3544619",
    "3140569",
    "3670621",
    "2695673",
    "890961",
    "1852428",
    "1370317",
    "969145",
    "2203987",
    "1189892",
    "877012",
    "2026464",
    "2115295",
    "1859943",
    "1189965",
    "1175861",
    "3655862",
    "3652738",
    "3686665",
    "1807985",
    "220273",
    "1199145",
    "1398365",
    "1351955",
    "1791502",
    "3535907",
    "1225023",
    "1226078",
    "2124078",
    "2602318",
    "1291843",
    "2658847",
    "1141072",
    "1671443",
    "2556703",
    "777096",
    "2929512",
    "370006",
    "2929514",
    "1647709",
    "1671442",
    "1120878",
    "1107441",
    "1626195",
    "1225674",
    "1680680",
    "1670998",
    "1189966",
    "1224784",
    "1225035",
    "2025743",
    "1680676",
    "2655839",
    "2124073",
    "1667915",
    "2929511",
    "1223657",
    "1867013",
    "1647716",
    "1647708",
    "3542952",
    "3133239",
    "3658613",
    "3685338",
    "3685365",
    "3619430",
    "3593255",
    "3736013",
    "3698214",
    "3664451",
    "3679739",
    "3655665",
    "3296489",
    "3781069",
    "2929547",
    "3140014",
    "3156642",
    "3766129",
    "1647710",
    "2124651",
    "3688303",
    "3544255",
    "1646948",
    "3593367",
    "3789772",
    "527942",
    "527965",
    "527962",
    "777121",
    "2655834",
    "4099087",
    "3868323",
    "448162",
    "4193307",
    "3648427",
    "4108315",
    "3468372",
    "3949699",
    "3923160",
    "3603119",
    "3603159",
    "391444",
    "3614792",
    "726385",
    "3713595",
    "3300209",
    "4085160",
    "1867030",
    "3295089",
    "3694331",
    "3295001",
    "3759030",
    "220239",
    "2279879",
    "1671410",
    "2655823",
    "4310696",
    "3789703",
    "3743294",
    "4327030",
    "4330704",
    "4333632",
    "3551623",
    "2026458",
    "1722568",
    "4330726",
    "4330388",
    "3159451",
    "4344167",
    "1667908",
    "1191630",
    "4343911",
    "3626978",
    "3662002",
    "3821585",
    "1435041",
    "3736044",
    "1867012",
    "4357781",
    "3594825",
    "2527418",
    "877011",
    "2528960",
    "4362929",
    "2655867",
    "3791747",
    "4365216",
    "3593594",
    "4367634",
    "4367601",
    "1225613",
    "3924741",
    "3665673",
    "2584593",
    "3661644",
    "1731282",
    "3699975",
    "706688",
    "4333459",
    "4333430",
    "4333469",
    "4333476",
    "3989802",
    "4397535",
    "4333464",
    "4333465",
    "3624352",
    "3743270",
    "2655822",
    "3159471",
    "3924727",
    "4017103",
    "2948121",
    "777119",
    "3744329",
    "2408268",
    "3593143",
    "3491018",
    "3677063",
    "3434085",
    "4397523",
    "777136",
    "4361847",
    "4327029",
    "4327032",
    "3490500",
    "777132",
    "3741410",
    "4397250",
    "3593628",
    "3593804",
    "1231940",
    "4439702",
    "4439713",
    "2697900",
    "3743289",
    "3730740",
    "4397539",
    "1716668",
    "4449989",
    "4428349",
    "4463799",
    "4463801",
    "4463768",
    "3672912",
    "4367616",
    "3743657",
    "4330535",
    "4470753",
    "3167849",
    "2948118",
    "1351563",
    "2124643",
    "1791556",
    "4435131",
    "969154",
    "3640274",
    "4416922",
    "3927374",
    "223092",
    "3688281",
    "4312529",
    "2665104",
    "2160644",
    "2556758",
    "3687503",
    "2124645",
    "2124646",
    "3551651",
    "1651740",
    "4201604",
    "3652596",
    "3679741",
    "4333513",
    "4469923",
    "3695750",
    "3725619",
    "3800503",
    "4406147",
    "370007",
    "3678878",
    "3547416",
    "2147504",
    "2655838",
    "3629416",
    "4002547",
    "3603771",
    "736482",
    "2463798",
    "1646828",
    "1211332",
    "3694431",
    "3295091",
    "3623701",
    "3603908",
    "3159449",
    "3556209",
    "3678938",
    "4148704",
    "3688157",
    "3672693",
    "1626189",
    "3631676",
    "1643689",
    "4526647",
    "4085972",
    "3657134",
    "4536046",
    "3657143",
    "1678783",
    "3923253",
    "3490560",
    "3989859",
    "4539465",
    "4539466",
    "4188341",
    "4541057",
    "3688253",
    "4327675",
    "4188358",
    "3941095",
    "2948008",
    "4013798",
    "4003445",
    "3544407",
    "3544168",
    "3544138",
    "3544170",
    "4003456",
    "3544368",
    "3544432",
    "4096598",
    "3603782",
    "3556202",
    "3556177",
    "3556188",
    "4039847",
    "446831",
    "4188335",
    "4308058",
    "4292802",
    "4304164",
    "4312526",
    "4312527",
    "4188326",
    "4188379",
    "4292762",
    "4308055",
    "4308053",
    "4292763",
    "4188378",
    "4333554",
    "3594821",
    "4188367",
    "1223143",
    "3665662",
    "4188352",
    "3789760",
    "3854873",
    "4014075",
    "2160635",
    "3688238",
    "3603189",
    "3685743",
    "3990074",
    "4180366",
    "3688141",
    "3688309",
    "3781166",
    "4581177",
    "4581201",
    "4581518",
    "4579804",
    "527964",
    "3687327",
    "4085012",
    "2929510",
    "3484019",
    "3484011",
    "3679561",
    "3690441",
    "4428393",
    "416761",
    "718188",
    "4495143",
    "4586924",
    "4188357",
    "4188360",
    "4312363",
    "4616294",
    "4616332",
    "4011243",
    "4616093",
    "1270574",
    "4306406"
]