[
    "337261",
    "1735538",
    "1176277",
    "2067774",
    "3693975",
    "457908",
    "463190",
    "1549137",
    "259871",
    "3001518",
    "3553259",
    "468106",
    "3841266",
    "3746430",
    "3060343",
    "1042470",
    "616651",
    "291622",
    "465937",
    "3466085",
    "1291121",
    "463185",
    "2813722",
    "486280",
    "425080",
    "4256023",
    "465787",
    "3053173",
    "1243781",
    "2799998",
    "1679938",
    "1114747",
    "2164428",
    "432389",
    "466092",
    "1422248",
    "1251198",
    "2946425",
    "463336",
    "3284887",
    "4446135",
    "3867274",
    "3691665",
    "3554904",
    "1249277",
    "1797222",
    "1112755",
    "411566",
    "388583",
    "1797090",
    "1112290",
    "697255",
    "463125",
    "3651172",
    "445216",
    "395514",
    "3843158",
    "891791",
    "747853",
    "1844808",
    "697251",
    "469793",
    "1198901",
    "2045926",
    "2930432",
    "1106105",
    "2838097",
    "1172403",
    "1721234",
    "430547",
    "1852561",
    "2907154",
    "277533",
    "3383712",
    "2431418",
    "3553972",
    "643384",
    "1251756",
    "3482795",
    "2254554",
    "2547236",
    "1435491",
    "1415366",
    "3508324",
    "3776282",
    "372930",
    "860058",
    "3481928",
    "4409724",
    "1134397",
    "1943791",
    "2102037",
    "3559739",
    "1199071",
    "4404992",
    "4514038",
    "1211121",
    "458404",
    "2814728",
    "4428338",
    "3306631",
    "4490964",
    "713316",
    "3300001",
    "3419899",
    "2436218",
    "3303858",
    "1673959",
    "3857116",
    "4486636",
    "1269935",
    "1249336",
    "2944100",
    "3179885",
    "1112665",
    "434760",
    "4498680",
    "3864449",
    "3003907",
    "1269933",
    "3305836",
    "4358395",
    "340329",
    "729802",
    "4220539",
    "1631314",
    "1619210",
    "702975",
    "583475",
    "2543183",
    "1277700",
    "4320094",
    "3857162",
    "4428342",
    "1405936",
    "356175",
    "4422431",
    "4428339",
    "2039332",
    "2913363",
    "539937",
    "463559",
    "3860419",
    "3855451",
    "2416861",
    "3872798",
    "3286425",
    "952721",
    "2478606",
    "3804563",
    "337263",
    "414123",
    "1111367",
    "464918",
    "1060022",
    "1030419",
    "1674041",
    "3282986",
    "2141990",
    "439543",
    "1853973",
    "1199119",
    "1568832",
    "3902063",
    "2123657",
    "1853961",
    "337262",
    "1723020",
    "3011288",
    "1112527",
    "423166",
    "2808364",
    "1723171",
    "3581167",
    "1243068",
    "465788",
    "2981553",
    "950657",
    "454089",
    "846044",
    "539941",
    "1366345",
    "492930",
    "3950988",
    "958856",
    "3283638",
    "1209291",
    "476437",
    "1941290",
    "4243451",
    "4319482",
    "3932054",
    "1524055",
    "434763",
    "4154510",
    "2737813",
    "1941289",
    "765216",
    "1739901",
    "1177895",
    "1803396",
    "3855814",
    "1227474",
    "3715861",
    "3220896",
    "3289620",
    "2623630",
    "799750",
    "525839",
    "4116680",
    "2463828",
    "315794",
    "4116468",
    "1108938",
    "4032473",
    "697252",
    "1209196",
    "3927616",
    "4267753",
    "1108596",
    "3650139",
    "3835115",
    "3490250",
    "2836600",
    "561686",
    "465935",
    "3653287",
    "1108466",
    "463877",
    "697262",
    "973459",
    "1101563",
    "1865970",
    "4034227",
    "4032470",
    "2564050",
    "1233530",
    "2140286",
    "2813700",
    "707477",
    "1824826",
    "2784777",
    "2828725",
    "356178",
    "2023754",
    "3927221",
    "390266",
    "3035318",
    "958882",
    "3345163",
    "3630678",
    "2803186",
    "2460392",
    "355830",
    "2367658",
    "2112607",
    "1390764",
    "445219",
    "4020122",
    "3348849",
    "3217563",
    "1254514",
    "463038",
    "463906",
    "1888539",
    "3560692",
    "2264129",
    "1775583",
    "1192273",
    "1843748",
    "1843758",
    "1094368",
    "1108714",
    "3299567",
    "3778104",
    "2938965",
    "2084686",
    "344026",
    "3867534",
    "391869",
    "1803313",
    "1209293",
    "3388546",
    "3472961",
    "1244216",
    "463040",
    "2428309",
    "3220476",
    "1232938",
    "257674",
    "2551356",
    "395052",
    "2504588",
    "696898",
    "3899878",
    "2362882",
    "1933379",
    "1114592",
    "3288635",
    "1709394",
    "3946214",
    "3933746",
    "3994756",
    "1942624",
    "1740762",
    "2803341",
    "1959234",
    "1302551",
    "1885411",
    "3817844",
    "3829064",
    "3861679",
    "3898311",
    "2077931",
    "391786",
    "504768",
    "3865993",
    "3347869",
    "424728",
    "1251858",
    "428181",
    "423064",
    "3371661",
    "3767858",
    "2973585",
    "3767875",
    "2460284",
    "3198340",
    "1251480",
    "2803396",
    "1291182",
    "2581873",
    "3868225",
    "2806028",
    "2806022",
    "926022",
    "2851213",
    "992904",
    "2912948",
    "1620340",
    "1849650",
    "2832768",
    "2831146",
    "542549",
    "1033582",
    "1535904",
    "3456874",
    "2543421",
    "355721",
    "1147499",
    "1106365",
    "3643089",
    "708334",
    "1111272",
    "696850",
    "1695048",
    "1192437",
    "1740138",
    "1040298",
    "3288895",
    "3014045",
    "3305953",
    "1226749",
    "3291794",
    "2106188",
    "1805178",
    "1717433",
    "1108598",
    "2570799",
    "2163299",
    "737020",
    "1357398",
    "2549256",
    "1291145",
    "1608276",
    "1847870",
    "1128958",
    "3071574",
    "3305605",
    "1885640",
    "1356344",
    "2878016",
    "1822071",
    "2563723",
    "2276429",
    "3804078",
    "3825163",
    "1049122",
    "3812225",
    "3867888",
    "3897957",
    "3867438",
    "3870823",
    "3861677",
    "3841253",
    "4002793",
    "4032146",
    "4032476",
    "445218",
    "1827995",
    "3804551",
    "3635487",
    "3282987",
    "1960631",
    "3721856",
    "958848",
    "4131722",
    "2102038",
    "693754",
    "1291107",
    "3693977",
    "310171",
    "1959236",
    "3824675",
    "1291109",
    "2431207",
    "3291191",
    "2433057",
    "3286390",
    "3944431",
    "1198153",
    "3095577",
    "1249340",
    "3650611",
    "982981",
    "591266",
    "3287110",
    "2145952",
    "1101194",
    "1740268",
    "2565131",
    "1243767",
    "2007870",
    "3868816",
    "3299551",
    "3750559",
    "887792",
    "1879870",
    "573237",
    "2072451",
    "2022842",
    "434799",
    "2154975",
    "3358756",
    "965684",
    "2209574",
    "3306485",
    "1111192",
    "1711754",
    "1106459",
    "1825987",
    "853893",
    "2988698",
    "1254364",
    "2921483",
    "2881947",
    "463049",
    "1109379",
    "464191",
    "1566942",
    "1178059",
    "1691356",
    "1254138",
    "3812226",
    "3774231",
    "534472",
    "453388",
    "735475",
    "1270081",
    "2930926",
    "958640",
    "3077395",
    "1838292",
    "696878",
    "1111403",
    "3216216",
    "829060",
    "799753",
    "799202",
    "1794507",
    "2076538",
    "474669",
    "2849438",
    "2468513",
    "3915694",
    "1709712",
    "1114193",
    "2431434",
    "462876",
    "507138",
    "1106451",
    "3299512",
    "3425814",
    "1841348",
    "2165470",
    "1768112",
    "417551",
    "2552543",
    "2589888",
    "1618609",
    "1442360",
    "1767180",
    "1815994",
    "1740749",
    "1853640",
    "1291159",
    "1959235",
    "1841290",
    "842631",
    "2501301",
    "1845585",
    "1767181",
    "1291161",
    "1277715",
    "1114282",
    "1885641",
    "1103766",
    "1713462",
    "1798403",
    "2333063",
    "1967795",
    "1344020",
    "958888",
    "1815738",
    "1959459",
    "2909626",
    "1291138",
    "1727566",
    "2986103",
    "2821569",
    "2581828",
    "463699",
    "1094472",
    "1296250",
    "1838686",
    "1803395",
    "3288729",
    "2106186",
    "3316572",
    "2275802",
    "3357234",
    "2388091",
    "1250142",
    "2878045",
    "2878026",
    "1827996",
    "3333522",
    "3557032",
    "1827166",
    "470671",
    "1291116",
    "3648510",
    "3796847",
    "846135",
    "2067948",
    "1111385",
    "2551357",
    "3333454",
    "3839365",
    "3841918",
    "3873152",
    "3886802",
    "1286952",
    "3216217",
    "3857005",
    "3870825",
    "854938",
    "3676561",
    "1753125",
    "3927182",
    "3927084",
    "3879953",
    "3882514",
    "2154598",
    "1825784",
    "3979215",
    "4008459",
    "4038153",
    "4032670",
    "1960151",
    "4008451",
    "2416948",
    "2102039",
    "3291255",
    "2930447",
    "2086220",
    "2384518",
    "3374600",
    "4117091",
    "4130784",
    "2360174",
    "4163287",
    "3839277",
    "1942021",
    "3302226",
    "3829004",
    "3835118",
    "3217550",
    "2439758",
    "4115045",
    "1734117",
    "2185457",
    "4200344",
    "1251812",
    "2545918",
    "698914",
    "4167702",
    "1040290",
    "1341106",
    "4259773",
    "1199368",
    "1865959",
    "4267681",
    "4267700",
    "4267131",
    "4267148",
    "1819090",
    "1732315",
    "383282",
    "3774247",
    "3352761",
    "3400277",
    "3350597",
    "2264127",
    "3970167",
    "1743196",
    "1309084",
    "4130789",
    "2828741",
    "2480929",
    "2023751",
    "1296397",
    "2981728",
    "3205772",
    "1864089",
    "3751077",
    "2813707",
    "1977951",
    "1732314",
    "1616670",
    "1616658",
    "4311863",
    "3922069",
    "2106189",
    "3333509",
    "3333555",
    "3333556",
    "4169120",
    "4279277",
    "4321755",
    "2553283",
    "3216221",
    "2815832",
    "4326007",
    "2107774",
    "4341158",
    "1251866",
    "2804139",
    "482338",
    "1103783",
    "3232365",
    "3546666",
    "3230187",
    "3752129",
    "2466928",
    "4008486",
    "3218032",
    "4361263",
    "1250168",
    "3944094",
    "4363734",
    "1849649",
    "3800587",
    "658612",
    "4391122",
    "4390943",
    "2997167",
    "3306174",
    "3352950",
    "1551968",
    "3931489",
    "4402603",
    "4103807",
    "4363712",
    "3881983",
    "4194965",
    "4420738",
    "4430098",
    "2440188",
    "3556451",
    "4430729",
    "4285155",
    "2539548",
    "3556446",
    "463808",
    "1536141",
    "4421128",
    "3979207",
    "1717454",
    "3912432",
    "3002769",
    "3122966",
    "2821566",
    "3545274",
    "949898",
    "783796",
    "1619261",
    "1794508",
    "4402649",
    "4402668",
    "3399714",
    "4461129",
    "4433341",
    "4136743",
    "3303721",
    "2813784",
    "1959237",
    "842973",
    "4473884",
    "4190325",
    "2439754",
    "1831264",
    "1798408",
    "4474349",
    "2439755",
    "4481758",
    "4470970",
    "827856",
    "3812240",
    "1847906",
    "1539895",
    "4498603",
    "3232340",
    "2581868",
    "466118",
    "2023753",
    "4478828",
    "4411288",
    "4515700",
    "4515677",
    "4513990",
    "4515639",
    "3374906",
    "4032217",
    "849785",
    "4524202",
    "4524212",
    "4524244",
    "4524225",
    "4526441",
    "4529199",
    "2167236",
    "440609",
    "4476040",
    "3918167",
    "3349737",
    "1116300",
    "2027483",
    "4224329",
    "2821572",
    "1302577",
    "2852108",
    "2070557",
    "3557276",
    "1104693",
    "4549024",
    "4548738",
    "1609145",
    "929189",
    "3927057",
    "3233639",
    "697004",
    "3556494",
    "958854",
    "4561110",
    "764742",
    "1798404",
    "1216447",
    "1725946",
    "4544654",
    "3192391",
    "1322565",
    "3058057",
    "4585142",
    "4585144",
    "4543734",
    "4585093",
    "769321",
    "4585882",
    "1714158",
    "1714160",
    "3635615",
    "218924",
    "4576620",
    "990026",
    "3310145",
    "1251583",
    "2070556",
    "1286781",
    "3460098",
    "1940868",
    "2435952",
    "4594732",
    "3753401",
    "3796067",
    "3302131",
    "355722",
    "1112832",
    "414160"
]