[
    "2077999",
    "3574979",
    "1656970",
    "3574982",
    "3358968",
    "530808",
    "2926756",
    "2042678",
    "595232",
    "3574980",
    "1192788",
    "2673191",
    "2092806",
    "3283165",
    "4312400",
    "3382323",
    "3037824",
    "1191701",
    "3412722",
    "1580199",
    "1117977",
    "1656938",
    "3789326",
    "2067917",
    "2445764",
    "3545047",
    "4349904",
    "4456579",
    "4155510",
    "2791791",
    "3053490",
    "3999576",
    "2948046",
    "3122358",
    "3564305",
    "3052931",
    "4470106",
    "2730748",
    "4383438",
    "4156463",
    "1224311",
    "3741298",
    "4188525",
    "1723852",
    "831266",
    "3789361",
    "1656939",
    "3545690",
    "4295456",
    "1613392",
    "2985031",
    "1769226",
    "4349911",
    "4418556",
    "3062824",
    "3999407",
    "2434109",
    "1117945",
    "2461886",
    "1769217",
    "3737193",
    "3741301",
    "143958",
    "1132610",
    "2929487",
    "1222634",
    "3167856",
    "3052936",
    "4070770",
    "3426404",
    "3564296",
    "2546307",
    "3229819",
    "1224364",
    "4312397",
    "444032",
    "1553474",
    "2445767",
    "4358884",
    "3470595",
    "1117898",
    "2926762",
    "2934497",
    "2461974",
    "1656974",
    "3854648",
    "4061073",
    "2791793",
    "3142445",
    "2445769",
    "3108208",
    "2843212",
    "3566606",
    "3789349",
    "3191347",
    "2203930",
    "4207607",
    "3430718",
    "734944",
    "2789058",
    "3574981",
    "135591",
    "2730824",
    "3971342",
    "3470598",
    "3140036",
    "961633",
    "2730701",
    "3566601",
    "3568345",
    "1719428",
    "1230104",
    "1646884",
    "426578",
    "2042680",
    "1653455",
    "4433792",
    "764809",
    "2021289",
    "2434234",
    "2398111",
    "566231",
    "4437718",
    "1230078",
    "2646880",
    "4451870",
    "4062406",
    "3545598",
    "854926",
    "2658866",
    "990238",
    "1112960",
    "2948063",
    "1661680",
    "4349903",
    "1228003",
    "215454",
    "2791729",
    "887733",
    "357253",
    "1576576",
    "3882106",
    "4075465",
    "2926760",
    "1230096",
    "2180998",
    "2789048",
    "3585014",
    "2657487",
    "1315136",
    "3559560",
    "3092982",
    "161333",
    "3605748",
    "973498",
    "1647165",
    "1222627",
    "3608563",
    "3696789",
    "2791804",
    "1189963",
    "4438990",
    "1230010",
    "1117973",
    "3053445",
    "2730751",
    "251012",
    "1117897",
    "3587375",
    "3108370",
    "1189904",
    "1359870",
    "1230304",
    "3821904",
    "4439056",
    "1723850",
    "2948047",
    "1641694",
    "2460068",
    "2779090",
    "2445773",
    "1231205",
    "3358948",
    "2574067",
    "1225084",
    "4287850",
    "706677",
    "2031908",
    "1225083",
    "1224363",
    "1656971",
    "733405",
    "1656969",
    "3741403",
    "844329",
    "3218640",
    "3585030",
    "2791837",
    "4349914",
    "1120673",
    "1230153",
    "4010548",
    "1296089",
    "2675443",
    "1671619",
    "2483084",
    "3108319",
    "3585179",
    "4364246",
    "4398119",
    "3601253",
    "887716",
    "3605248",
    "4460418",
    "3741399",
    "4194964",
    "3140370",
    "1191669",
    "2624536",
    "4193368",
    "3138950",
    "2730726",
    "1723849",
    "175283",
    "603091",
    "584500",
    "4327465",
    "1656975",
    "3566617",
    "4512376",
    "3608833",
    "1230235",
    "1360249",
    "1189906",
    "3601146",
    "4535648",
    "1224378",
    "1225110",
    "1228014",
    "1230053",
    "533726",
    "1769224",
    "982373",
    "3585026",
    "4349913",
    "215453",
    "3741295",
    "887714",
    "2928984",
    "1117941",
    "2150238",
    "3608474",
    "4335838",
    "2681582",
    "1228001",
    "1769080",
    "2035440",
    "2190863",
    "3430819",
    "4344141",
    "1279150",
    "3358961",
    "3137724",
    "2791797",
    "4512596",
    "3585010",
    "2509031",
    "1117976",
    "3970724",
    "3587369",
    "4471775",
    "4205034",
    "4349912",
    "2078026",
    "3601201",
    "3758942",
    "4451869",
    "3687511",
    "1612645",
    "1225640",
    "1769079",
    "4174802",
    "3601164",
    "1716013",
    "3470592",
    "2692114",
    "2664719",
    "1120698",
    "2411434",
    "4364851",
    "3023084",
    "1189902",
    "1613209",
    "2411420",
    "2929062",
    "2090457",
    "2078010",
    "921256",
    "1237399",
    "4364841",
    "3789322",
    "3738746",
    "4344142",
    "338982",
    "1120674",
    "3977535",
    "1189944",
    "3450923",
    "1224877",
    "3542958",
    "1225109",
    "1661678",
    "3358959",
    "969141",
    "738698",
    "1646871",
    "917997",
    "603099",
    "2730817",
    "1326083",
    "4175797",
    "3605746",
    "1230302",
    "3430955",
    "3107457",
    "3685560",
    "4364144",
    "4472926",
    "4266259",
    "921258",
    "1847521",
    "755600",
    "1117944",
    "1116743",
    "2483006",
    "4364744",
    "2791726",
    "1116716",
    "195199",
    "2653224",
    "4516598",
    "2656794",
    "1231829",
    "2730700",
    "2929761",
    "3660524",
    "1646867",
    "2111656",
    "4428315",
    "3623986",
    "3605788",
    "3608741",
    "1646877",
    "2067916",
    "4312399",
    "758285",
    "3669640",
    "4527706",
    "3605205",
    "2035439",
    "3126408",
    "240840",
    "3444984",
    "1223145",
    "3430711",
    "1230055",
    "3585170",
    "738699",
    "1230182",
    "3585248",
    "1194332",
    "1671690",
    "1190007",
    "3685544",
    "3298918",
    "3942798",
    "3601169",
    "1435149",
    "3050708",
    "961634",
    "3470667",
    "98475",
    "1118955",
    "4344138",
    "2659115",
    "1134144",
    "3619909",
    "3682234",
    "3687881",
    "2791682",
    "1120383",
    "1279148",
    "2267264",
    "3557535",
    "596250",
    "3430685",
    "3841259",
    "3147543",
    "3689495",
    "757216",
    "3596216",
    "3538628",
    "1117988",
    "1190021",
    "1228000",
    "1580207",
    "2791751",
    "2694456",
    "3587703",
    "3631393",
    "1667873",
    "3587693",
    "3660504",
    "1237458",
    "2658873",
    "3108212",
    "3822620",
    "999029",
    "3789298",
    "760286",
    "3474799",
    "2078272",
    "1230225",
    "3679428",
    "1273179",
    "3741401",
    "1619059",
    "2692113",
    "2527358",
    "1190009",
    "3642741",
    "3958580",
    "2663948",
    "3559020",
    "1772296",
    "2525454",
    "1120682",
    "2367100",
    "4084981",
    "4188603",
    "4086129",
    "564649",
    "4344144",
    "2136093",
    "4364813",
    "3789343",
    "226684",
    "418935",
    "2758173",
    "2730813",
    "1619061",
    "1647127",
    "1856253",
    "3678670",
    "4364238",
    "4471413",
    "1646899",
    "413390",
    "1233056",
    "2929179",
    "2929544",
    "4172445",
    "3600523",
    "3444961",
    "3587667",
    "3573942",
    "3601328",
    "1117900",
    "1723851",
    "1576586",
    "1116725",
    "921257",
    "2791699",
    "3122337",
    "1656967",
    "3623991",
    "3569972",
    "3600125",
    "3592537",
    "2279889",
    "706452",
    "920922",
    "1117943",
    "4012192",
    "4085460",
    "1671689",
    "3941388",
    "3592568",
    "3696786",
    "3062920",
    "3150035",
    "1656923",
    "3536241",
    "4344140",
    "3841315",
    "2482761",
    "3672753",
    "3785708",
    "1653465",
    "3202492",
    "1638481",
    "3538573",
    "2985030",
    "1230234",
    "1950196",
    "1231931",
    "4009642",
    "1230278",
    "2662590",
    "3155801",
    "623294",
    "3608798",
    "3685483",
    "554170",
    "534956",
    "4333819",
    "4208206",
    "2078240",
    "2929524",
    "1671691",
    "2296279",
    "1656931",
    "2079764",
    "2437499",
    "1117902",
    "3160331",
    "3576189",
    "1671711",
    "3182222",
    "4106645",
    "3605101",
    "1711621",
    "848886",
    "1237369",
    "476275",
    "1576585",
    "3682240",
    "3702595",
    "2791705",
    "1656966",
    "1415527",
    "1647161",
    "2673448",
    "3678258",
    "3140348",
    "3599269",
    "3677412",
    "3141081",
    "1233045",
    "1646881",
    "3677356",
    "862935",
    "2665148",
    "3229341",
    "1350807",
    "2929456",
    "3655622",
    "3474805",
    "1525827",
    "2435419",
    "1629276",
    "4180227",
    "534764",
    "4001077",
    "1651544",
    "3187532",
    "470003",
    "2274850",
    "3679570",
    "2124762",
    "418934",
    "3704385",
    "2663943",
    "2562317",
    "3139425",
    "2657490",
    "2730696",
    "2929137",
    "3556164",
    "1398366",
    "3608803",
    "3656563",
    "493203",
    "3599248",
    "3664407",
    "3669696",
    "3691608",
    "3544048",
    "3970879",
    "2658883",
    "3167883",
    "3544510",
    "3754243",
    "3544349",
    "3765605",
    "1580250",
    "3627489",
    "3141001",
    "4200622",
    "3682231",
    "3856472",
    "3544504",
    "850749",
    "3590617",
    "1047072",
    "3608823",
    "3608716",
    "3669557",
    "2262446",
    "3724137",
    "903959",
    "2823986",
    "3573198",
    "3829840",
    "1649087",
    "2999523",
    "2124832",
    "1422863",
    "1793309",
    "840594",
    "3122471",
    "2999529",
    "3702599",
    "715314",
    "220782",
    "2306653",
    "3608842",
    "1860202",
    "1240318",
    "476279",
    "1669474",
    "742720",
    "3363828",
    "3688118",
    "2272784",
    "2666674",
    "3823731",
    "3830324",
    "3092990",
    "2929522",
    "3676082",
    "3679604",
    "3556353",
    "3556329",
    "1435155",
    "3544018",
    "3544040",
    "3544275",
    "3685835",
    "3611933",
    "3554068",
    "3553993",
    "3652474",
    "2006750",
    "1647125",
    "3598950",
    "4085121",
    "3927354",
    "3192380",
    "3637053",
    "3636887",
    "3697907",
    "3841336",
    "3585210",
    "3474794",
    "3694417",
    "3430706",
    "561696",
    "1591330",
    "3640245",
    "1635598",
    "3661707",
    "3723168",
    "3668828",
    "3598996",
    "3080163",
    "3944647",
    "3396291",
    "3981572",
    "4114023",
    "4180369",
    "3821916",
    "3614977",
    "4208207",
    "3751451",
    "1649102",
    "3611751",
    "4311073",
    "4319575",
    "4319592",
    "3676640",
    "3167853",
    "4344143",
    "4187927",
    "3544053",
    "3544544",
    "3547458",
    "3544332",
    "3544473",
    "3544405",
    "3676202",
    "3678036",
    "4344139",
    "3757713",
    "3655877",
    "1293280",
    "4374594",
    "2483085",
    "4180217",
    "3757722",
    "3624254",
    "1635541",
    "2928809",
    "3167852",
    "1719427",
    "511057",
    "3585195",
    "3601205",
    "3601174",
    "3660497",
    "2151031",
    "2411649",
    "3741016",
    "3004181",
    "3608726",
    "4439644",
    "4439645",
    "3639666",
    "4439647",
    "4439595",
    "4439630",
    "4439596",
    "4439597",
    "4439697",
    "3677375",
    "4339228",
    "534101",
    "4440022",
    "1117986",
    "3687515",
    "3679607",
    "3694236",
    "3574987",
    "98338",
    "4093422",
    "4088348",
    "3829463",
    "4471772",
    "3952035",
    "1274029",
    "3703927",
    "4139291",
    "4375026",
    "4383413",
    "3240477",
    "3227905",
    "3920395",
    "921279",
    "3568514",
    "489533",
    "3821675",
    "3776892",
    "3587433",
    "2562321",
    "3474804",
    "1231997",
    "2124761",
    "2929122",
    "1580216",
    "3601326",
    "3336959",
    "4512496",
    "4512670",
    "4512688",
    "3819149",
    "3608825",
    "3608685",
    "3761453",
    "4309769",
    "4516637",
    "4516549",
    "4405790",
    "4092298",
    "3585219",
    "3657689",
    "4527701",
    "4527703",
    "4527704",
    "3545550",
    "3544470",
    "1231994",
    "1968237",
    "4535653",
    "4539321",
    "4541592",
    "2189137",
    "593102",
    "3591368",
    "4533621",
    "3430746",
    "3430708",
    "4455624",
    "3580317",
    "4274206",
    "4524630",
    "1274030",
    "4331473",
    "4337102",
    "3677407",
    "3678256",
    "3592527",
    "4577042",
    "3738457",
    "1656972",
    "3761774",
    "3687508",
    "3143744",
    "4590317",
    "4590660",
    "4590663",
    "4590331",
    "3927356",
    "1116772",
    "2188968",
    "3004183",
    "3004179",
    "561707",
    "4141392",
    "4564062",
    "4577539",
    "3600862",
    "4190033",
    "3566596",
    "2261762",
    "3441097",
    "3395517",
    "3395522",
    "3063849",
    "3721965",
    "3600873",
    "2664223",
    "521108",
    "4287854",
    "2926761",
    "4460379",
    "4470417",
    "4506281",
    "2261754",
    "3702597",
    "3720472",
    "3884289",
    "3780828",
    "4349353",
    "4349330",
    "3430836",
    "3659753",
    "4219558",
    "4613632",
    "4587063",
    "2527320",
    "3611460",
    "3565292",
    "3559034",
    "3295107",
    "3598943",
    "3295101",
    "4266236",
    "4086159",
    "3788707",
    "4507897",
    "4266258",
    "4517704",
    "4358444",
    "4116619",
    "4266262",
    "4057303",
    "4577672",
    "4508000",
    "4116613",
    "2934490",
    "4346530",
    "3761586",
    "3600270",
    "3601257",
    "3310676",
    "3295102",
    "3585173",
    "3474797"
]