[
    "619058",
    "110549",
    "1374018",
    "110547",
    "823262",
    "2896583",
    "768107",
    "3383911",
    "1742703",
    "1412895",
    "4181485",
    "391152",
    "391154",
    "4181498",
    "3284058",
    "2574606",
    "3284055",
    "3792759",
    "4180793",
    "1710286",
    "1886937",
    "775640",
    "4181482",
    "3128731",
    "1822809",
    "4181497",
    "4180781",
    "3286388",
    "2695029",
    "391153",
    "557590",
    "152346",
    "3015427",
    "1786746",
    "1822846",
    "487102",
    "2551843",
    "4180779",
    "3313279",
    "896751",
    "1742651",
    "4181487",
    "2625286",
    "3302633",
    "4180764",
    "4181525",
    "2767346",
    "2414907",
    "2251366",
    "2560689",
    "2252616",
    "1832045",
    "550648",
    "1421873",
    "1707178",
    "2037410",
    "1656663",
    "1786794",
    "3789885",
    "3798546",
    "557589",
    "1841099",
    "507850",
    "1842826",
    "725389",
    "4181514",
    "1842823",
    "3383906",
    "1842827",
    "1077352",
    "3340970",
    "400584",
    "1691806",
    "204454",
    "1707177",
    "3143719",
    "3143720",
    "3143721",
    "321080",
    "4181483",
    "1700188",
    "499685",
    "3023827",
    "3960070",
    "1742709",
    "1700192",
    "3401292",
    "3797873",
    "3798559",
    "3798598",
    "1818550",
    "437675",
    "840600",
    "721512",
    "315768",
    "1707167",
    "1707165",
    "1707166",
    "2947881",
    "237829",
    "63212",
    "254452",
    "204455",
    "204416",
    "80928",
    "2728258",
    "2641656",
    "732882",
    "499242",
    "168114",
    "4181425",
    "2057068",
    "204462",
    "522944",
    "2960135",
    "4180826",
    "110530",
    "3411055",
    "1932929",
    "3712827",
    "3712826",
    "3283072",
    "4180799",
    "281416",
    "425916",
    "2253280",
    "303867",
    "4277089",
    "4274356",
    "3334766",
    "3283648",
    "4181526"
]