[
    "1441751",
    "1140336",
    "1353658",
    "923334",
    "29056",
    "238467",
    "363844",
    "1060784",
    "159690",
    "562908",
    "1017290",
    "1001925",
    "2434651",
    "1505802",
    "1017289"
]