[
    "2673265",
    "2511150",
    "1311623",
    "2762720",
    "2279048",
    "3086433",
    "3174125",
    "3208627",
    "3595749",
    "3209686",
    "2173085",
    "3595746",
    "2166222",
    "1816985",
    "3313869",
    "2511123",
    "3205545",
    "3314097",
    "938934",
    "3594718",
    "1816986",
    "1854777",
    "1407034",
    "3314238",
    "2507223",
    "430845",
    "3223828",
    "3209688",
    "3153327",
    "3634305",
    "3205568",
    "1090682",
    "3248601",
    "3445752",
    "2982208",
    "2583064",
    "2992237",
    "1860413",
    "3045941",
    "1818175",
    "2173083",
    "1193511",
    "305720",
    "2166232",
    "1226631",
    "1368012",
    "2992235",
    "3078093",
    "1847194",
    "3208720",
    "1497187",
    "2191529",
    "1579031",
    "930603",
    "1856874",
    "3198470",
    "3594419",
    "3301408",
    "3172495",
    "2511191",
    "2571163",
    "1406331",
    "1367946",
    "2926771",
    "930420",
    "1500977",
    "3222570",
    "2926783",
    "3301399",
    "1001802",
    "3209687",
    "1905347",
    "1856873",
    "1001597",
    "3229192",
    "3172049",
    "3192437",
    "1863251",
    "1847972",
    "3828066",
    "3209685",
    "1932505",
    "3657916",
    "3185062",
    "1856841",
    "2615227",
    "3314244",
    "2024252",
    "3348652",
    "2207920",
    "3185063",
    "1856865",
    "2507317",
    "3594366",
    "2293445",
    "388265",
    "3314082",
    "3314245",
    "2293106",
    "3208719",
    "3301461",
    "2507305",
    "2955689",
    "3185059",
    "3314085",
    "1668585",
    "3314095",
    "3205181",
    "570873",
    "3179866",
    "3205537",
    "3400731",
    "3582480",
    "1830117",
    "1856506",
    "1830118",
    "2265816",
    "1905408",
    "2279019",
    "1680847",
    "3348418",
    "1843283",
    "1456828",
    "1367219",
    "1856670",
    "1786517",
    "2534058",
    "2277007",
    "3171389",
    "3185060",
    "1856208",
    "1368030",
    "3594361",
    "2766465",
    "2510619",
    "1351125",
    "2762742",
    "1311658",
    "1224773",
    "3342479",
    "1816565",
    "1932543",
    "211065",
    "1894284",
    "2583018",
    "2173084",
    "1860700",
    "1239055",
    "2159459",
    "3177973",
    "2759476",
    "3400893",
    "1861019",
    "2437540",
    "3205546",
    "1337010",
    "1635402",
    "1860999",
    "3153329",
    "2955688",
    "3205569",
    "2990458",
    "3348419",
    "3210572",
    "1311664",
    "1311837",
    "2507335",
    "2586677",
    "2604101",
    "1311841",
    "2757734",
    "1018664",
    "3205159",
    "930118",
    "3171369",
    "3185042",
    "1854584",
    "2615226",
    "1847382",
    "1613467",
    "2166480",
    "1816607",
    "1854953",
    "1932623",
    "1635419",
    "1406285",
    "1902138",
    "1847604",
    "1019411",
    "1645608",
    "1645623",
    "1644995",
    "1645536",
    "1856414",
    "1001588",
    "2404630",
    "2038465",
    "2992238",
    "3045897",
    "3078086",
    "938986",
    "1854598",
    "2926784",
    "2166476",
    "1226632",
    "2281152",
    "3172162",
    "2955690",
    "3172158",
    "3172210",
    "3172159",
    "3172214",
    "2511134",
    "3177971",
    "1311839",
    "1019660",
    "1932580",
    "3185004",
    "3153328",
    "1367773",
    "3191747",
    "1863243",
    "2583019",
    "2583020",
    "3205105",
    "3205538",
    "3205099",
    "3206237",
    "3206238",
    "3210409",
    "3221070",
    "3222569",
    "3222572",
    "3225849",
    "3225818",
    "2609435",
    "3223913",
    "3249261",
    "2583052",
    "2926789",
    "3230594",
    "3288433",
    "2955696",
    "3345652",
    "3348417",
    "3349496",
    "1854503",
    "3185045",
    "3185061",
    "3348422",
    "3169541",
    "3271241",
    "3169542",
    "3179482",
    "3221094",
    "3342721",
    "3379878",
    "3383197",
    "3249262",
    "3400895",
    "3400599",
    "3348407",
    "3314087",
    "1371775",
    "2638559",
    "3400892",
    "629518",
    "617568",
    "3172160",
    "2620474",
    "2583072",
    "2207906",
    "2507334",
    "3469432",
    "3223652",
    "3552744",
    "2990461",
    "3556435",
    "3205540",
    "3205541",
    "3237799",
    "3439820",
    "3594362",
    "3594363",
    "3595270",
    "3594364",
    "3595035",
    "3594365",
    "3532358",
    "3595060",
    "3594420",
    "3594717",
    "3348403",
    "3314243",
    "3348405",
    "3401737",
    "3595685",
    "3681533",
    "3209957",
    "3153330",
    "3205652",
    "3724874",
    "3223919",
    "3724875",
    "3230401",
    "3223714",
    "618535",
    "2172916",
    "3342468",
    "629519",
    "3724873",
    "3402208",
    "2952822",
    "3402212",
    "3402209",
    "3402207",
    "3174126",
    "3137561",
    "3137562",
    "2762224",
    "3582481",
    "3205152",
    "3345721",
    "3345775",
    "3345733",
    "3345756",
    "3223725",
    "3345773",
    "3828058",
    "3828059",
    "3828071",
    "3828072",
    "3828045",
    "3828061",
    "3828062",
    "3828064",
    "3828065",
    "930453",
    "3828074",
    "2544302",
    "3595761",
    "3595743",
    "3595762",
    "3241203",
    "3348686",
    "3348687",
    "3402210",
    "3402211",
    "3223830",
    "3348412",
    "3695335",
    "3345758",
    "3223724",
    "3201939",
    "3544175",
    "1001811",
    "2294149",
    "3594368",
    "3171400",
    "3411327",
    "2504820",
    "1847606",
    "2527827",
    "2507450",
    "1818235",
    "3544930",
    "2294085",
    "3695334",
    "3496263",
    "3724872",
    "3595745",
    "2982207",
    "3223829",
    "3241006",
    "2265339",
    "2265344",
    "3282409",
    "3185044",
    "3185888",
    "3345755",
    "4326936",
    "4326399",
    "4327284",
    "4324318",
    "3223715",
    "3271086",
    "3241004",
    "3223659"
]