[
    "2443793",
    "2633767",
    "1224976",
    "938426",
    "3318604",
    "4327695",
    "312279",
    "2964703",
    "1030867",
    "1391653",
    "4600785",
    "3115047",
    "4408556",
    "1622635",
    "2398445",
    "3419301",
    "3419302",
    "3623384",
    "2443789",
    "483984",
    "383090",
    "1018286",
    "3419303",
    "938620",
    "1967981",
    "969262",
    "678677",
    "2452024",
    "969260",
    "1736603",
    "360784",
    "1393113",
    "1538725",
    "241323",
    "416954",
    "2236039",
    "214497",
    "228281",
    "237777",
    "214498",
    "214502",
    "553992",
    "484463",
    "3110886",
    "606171",
    "332608",
    "174895",
    "425543",
    "399583",
    "407098",
    "595656",
    "228219",
    "441852",
    "441187",
    "308808",
    "595657",
    "2443791",
    "619028",
    "543421",
    "214499",
    "319375",
    "2478721",
    "484464",
    "4408555",
    "224840",
    "1622524",
    "229183",
    "530969",
    "3110995",
    "1622605",
    "372137",
    "4502565"
]