[
    "4484380",
    "4480825",
    "2713506",
    "3564664",
    "4502807",
    "3430270",
    "3318705",
    "3325891",
    "3741619",
    "2259322",
    "2878236",
    "2259323",
    "3430266",
    "4289101",
    "4545891",
    "2259324",
    "3318703",
    "4518675",
    "3564675",
    "4545890",
    "3564674",
    "4252175",
    "4459588",
    "4437872",
    "3663130",
    "4545892",
    "2778976",
    "4252173",
    "3430269",
    "2545183",
    "4289100",
    "1983201",
    "2727272",
    "4480823",
    "3318706",
    "3333394",
    "4153414",
    "2484759",
    "3747945",
    "3747950",
    "2968669",
    "4284950",
    "4098549",
    "4289112",
    "4548454",
    "4153415",
    "3363948",
    "3718102",
    "4369437",
    "4385722",
    "3830997",
    "3053977",
    "3695525",
    "3363976",
    "4385723",
    "1983202",
    "4007522",
    "3447691",
    "4506798",
    "4252174",
    "2878235",
    "4189145",
    "3325885",
    "4459593",
    "4249724",
    "4459594",
    "4459592",
    "3633427",
    "2968675",
    "3831006",
    "2545185",
    "3564668",
    "1653944",
    "3633421",
    "3747951",
    "4293451",
    "2545182",
    "3564676",
    "4007517",
    "2704100",
    "3333393",
    "2965026",
    "4561459",
    "4459590",
    "3677805",
    "3587874",
    "3564673",
    "3325901",
    "4459595",
    "3514030",
    "2117306",
    "3333411",
    "2902149",
    "2285025",
    "3987480",
    "3633431",
    "3987478",
    "1331526",
    "4284951",
    "2026854",
    "2968672",
    "2497673",
    "3660243",
    "4548450",
    "3181254",
    "2975157",
    "819340",
    "2968676",
    "3447515",
    "2117308",
    "3587875",
    "4007523",
    "3393540",
    "3824694",
    "2975159",
    "3318704",
    "3339580",
    "4098297",
    "4098300",
    "3633433",
    "168699",
    "3309773",
    "3633428",
    "3633429",
    "3987148",
    "3911597",
    "4339557",
    "4393257",
    "3633430",
    "4249723",
    "4548452",
    "3747947",
    "3876095",
    "4548449",
    "4459589",
    "3053969",
    "4336958",
    "4252176",
    "4393440",
    "3430272",
    "2836614",
    "3304546",
    "2968671",
    "4401640",
    "1697348",
    "3628038",
    "3582517",
    "3173345",
    "4459587",
    "172285",
    "1696975",
    "4393408",
    "2545184",
    "2889390",
    "3747949",
    "3053871",
    "3173344",
    "4384156",
    "2117302",
    "3426253",
    "1253156",
    "2545181",
    "2343083",
    "2975158",
    "2878238",
    "2832946",
    "3987479",
    "3789830",
    "3430271",
    "4007515",
    "3539450",
    "3333395",
    "3173343",
    "3384239",
    "1707517",
    "4007518",
    "1697236",
    "3785512",
    "2608352",
    "4077659",
    "4336957",
    "3628037",
    "2608353",
    "2965027",
    "913345",
    "4369443",
    "3747946",
    "3919332",
    "2809664",
    "3633424",
    "3333412",
    "1035596",
    "2394819",
    "1182993",
    "1373640",
    "2484760",
    "4369422",
    "2723685",
    "4392453",
    "4157147",
    "2975154",
    "2968674",
    "2968657",
    "4472480",
    "423648",
    "3862231",
    "3862224",
    "3633432",
    "3712596",
    "2888614",
    "3633423",
    "4126214",
    "1707520",
    "4069750",
    "4339565",
    "2195019",
    "4289110",
    "2119475",
    "4249633",
    "3987476",
    "3175907",
    "3539261",
    "4393239",
    "4369439",
    "2669548",
    "4098288",
    "320225",
    "3053976",
    "2648459",
    "3021779",
    "2184512",
    "4007516",
    "3817303",
    "825456",
    "3747954",
    "4384151",
    "3989980",
    "3771266",
    "3430273",
    "4344084",
    "3872004",
    "1786854",
    "2800266",
    "2394196",
    "1689182",
    "3289488",
    "3633420",
    "3660245",
    "4098293",
    "2809663",
    "3339581",
    "846286",
    "2742195",
    "3695526",
    "2888957",
    "3449864",
    "3175908",
    "4337029",
    "2424987",
    "4249634",
    "2888951",
    "3185293",
    "1606614",
    "3987147",
    "2791496",
    "3898995",
    "4548451",
    "1876633",
    "4548453",
    "3564677",
    "3633422",
    "4126213",
    "3325529",
    "3430265",
    "3430267",
    "4459586",
    "2888953",
    "3430274",
    "2912441",
    "3430268",
    "3654462",
    "726105",
    "3021596",
    "4508354",
    "4382809",
    "2195016",
    "4339564",
    "2345414",
    "3430275",
    "1379752",
    "4153413",
    "1697352",
    "3911600",
    "1876632",
    "1399080",
    "3840933",
    "3747952",
    "4391771",
    "3021889",
    "2982963",
    "4337031",
    "3633426",
    "3707832",
    "3771474",
    "3257585",
    "3818123",
    "1485439",
    "3633402",
    "2490107",
    "3633413",
    "2348878",
    "4103140",
    "2634993",
    "3989984",
    "3790302",
    "1697339",
    "3309775",
    "3309776",
    "3053998",
    "3633397",
    "2889388",
    "3053952",
    "4153417",
    "4249630",
    "2048418",
    "3099224",
    "3173342",
    "2836613",
    "3930001",
    "2880293",
    "3060644",
    "4153416",
    "2832947",
    "3053975",
    "4344087",
    "1496894",
    "3633398",
    "4389598",
    "3185248",
    "2249056",
    "4393256",
    "965999",
    "3840935",
    "3296335",
    "3430276",
    "2982847",
    "3053966",
    "2968665",
    "3633407",
    "3633404",
    "4392432",
    "2195017",
    "3633405",
    "2706152",
    "196486",
    "3309777",
    "3633411",
    "2761583",
    "3830996",
    "3747953",
    "3409225",
    "4391766",
    "1876631",
    "975713",
    "755434",
    "1773005",
    "2782661",
    "1146570",
    "2970293",
    "672654",
    "4393258",
    "2273829",
    "2117304",
    "3448149",
    "448528",
    "4249627",
    "2354514",
    "2968704",
    "1876626",
    "3633425",
    "3169596",
    "3795728",
    "266364",
    "2888952",
    "2968656",
    "3647732",
    "2850414",
    "3830994",
    "3987153",
    "3294249",
    "1714706",
    "2968662",
    "4385715",
    "3653118",
    "4249623",
    "3099215",
    "2968663",
    "4385717",
    "4385720",
    "1367247",
    "2923145",
    "4391765",
    "2539078",
    "2452180",
    "3053971",
    "4249625",
    "1876627",
    "2281567",
    "2049026",
    "4337030",
    "3131033",
    "2362054",
    "921934",
    "3099222",
    "2912444",
    "3053970",
    "3875665",
    "3099211",
    "4344089",
    "2984524",
    "2740819",
    "1295313",
    "3184060",
    "2975155",
    "998955",
    "1876634",
    "2761587",
    "4284949",
    "2761547",
    "2079286",
    "1030193",
    "1666121",
    "4391780",
    "2539079",
    "2608354",
    "1754159",
    "3408736",
    "3408737",
    "3053973",
    "4098302",
    "3053981",
    "3747948",
    "2889389",
    "4389268",
    "4183946",
    "3309774",
    "2269777",
    "2832945",
    "3409226",
    "3876285",
    "1242512",
    "4391779",
    "3289489",
    "3449866",
    "3653117",
    "3987388",
    "3799744",
    "3830998",
    "1146569",
    "2742169",
    "2074096",
    "2902433",
    "2706154",
    "2912442",
    "519482",
    "2740785",
    "2926905",
    "2740830",
    "2791503",
    "2761589",
    "1697385",
    "964483",
    "2272520",
    "4249621",
    "2740829",
    "3131341",
    "3437662",
    "3304545",
    "1485441",
    "936628",
    "3053979",
    "2761584",
    "733242",
    "3797684",
    "2968661",
    "3712594",
    "2521247",
    "3099207",
    "3053967",
    "2726303",
    "3345936",
    "1413249",
    "2195018",
    "3805148",
    "3186072",
    "3430288",
    "821257",
    "3876282",
    "2786679",
    "3345942",
    "3345943",
    "2926904",
    "2836615",
    "1805644",
    "821259",
    "2284788",
    "1295332",
    "1146571",
    "3930751",
    "3789829",
    "3794133",
    "948240",
    "2141379",
    "3277907",
    "1377703",
    "3130026",
    "3989985",
    "1801079",
    "1342516",
    "3053907",
    "1209521",
    "1547208",
    "1385014",
    "1613530",
    "2436519",
    "1697001",
    "2975156",
    "499851",
    "3430289",
    "1495781",
    "1393175",
    "3053963",
    "3987383",
    "2044686",
    "3569424",
    "2968660",
    "2908743",
    "3633409",
    "1697388",
    "3099218",
    "3989987",
    "2968659",
    "3074081",
    "3178373",
    "975709",
    "579171",
    "948248",
    "3053978",
    "2791497",
    "543035",
    "2074097",
    "4153412",
    "754024",
    "3647730",
    "2740817",
    "1242514",
    "1697396",
    "2539081",
    "4007520",
    "748070",
    "3653119",
    "3353229",
    "3987390",
    "3353231",
    "3633399",
    "3130027",
    "562080",
    "3987144",
    "3987384",
    "3987389",
    "3130025",
    "2888615",
    "3053872",
    "3569422",
    "3569423",
    "1697247",
    "2912443",
    "3707834",
    "3794134",
    "3987149",
    "3130028",
    "2836616",
    "3130031",
    "3309772",
    "3987391",
    "3325927",
    "3789833",
    "3982272",
    "2968666",
    "2112136",
    "3099217",
    "3021890",
    "2117314",
    "2135660",
    "3130029",
    "1381418",
    "3175671",
    "1697392",
    "3170510",
    "1876628",
    "3633410",
    "1666829",
    "3233065",
    "3987387",
    "3406416",
    "1209522",
    "3157224",
    "1935714",
    "3277900",
    "3099219",
    "3430297",
    "2968667",
    "3794132",
    "3795783",
    "2067057",
    "1491053",
    "3982271",
    "3982267",
    "3982268",
    "3987143",
    "3987145",
    "3987154",
    "3053951",
    "2181472",
    "2348879",
    "3099209",
    "2922119",
    "1697241",
    "2184750",
    "1666851",
    "2902444",
    "3099221",
    "2117312",
    "1697249",
    "2435898",
    "1772615",
    "2135664",
    "2184749",
    "3099220",
    "1606615",
    "1697375",
    "1714721",
    "3539277",
    "3539275",
    "3569421",
    "3569417",
    "3633406",
    "3053968",
    "3633408",
    "3353230",
    "1464352",
    "3633400",
    "3982270",
    "752501",
    "2348880",
    "3448754",
    "3060647",
    "1469590",
    "2284790",
    "579173",
    "3262666",
    "947503",
    "2740821",
    "2741300",
    "646775",
    "2619407",
    "1295326",
    "2112133",
    "2912452",
    "2181457",
    "1697344",
    "2619418",
    "2619409",
    "2436515",
    "1697242",
    "2791498",
    "2791499",
    "2616342",
    "3255032",
    "1606611",
    "3430292",
    "1754154",
    "2112134",
    "3465152",
    "2616956",
    "2616825",
    "2740828",
    "2791501",
    "1697397",
    "2740745",
    "2902446",
    "3130030",
    "3132920",
    "3157225",
    "3157227",
    "3790030",
    "3794135",
    "3797634",
    "3982266",
    "2970119",
    "3987385",
    "3987396",
    "3569419",
    "3569416",
    "3633412",
    "1876629",
    "2706171",
    "3110568",
    "692665",
    "3789834",
    "3099208",
    "2741301",
    "3099212",
    "3225049",
    "2726313",
    "3277898",
    "3099213",
    "3131062",
    "821258",
    "1342526",
    "3789638",
    "3053974",
    "1971251",
    "1806412",
    "3930002",
    "1295329",
    "2850412",
    "3262661",
    "131482",
    "3430298",
    "3184694",
    "1716019",
    "3262663",
    "2740831",
    "2619408",
    "1705902",
    "1242513",
    "2135658",
    "975708",
    "1805645",
    "2742141",
    "3131342",
    "2860450",
    "2436516",
    "3178375",
    "2902445",
    "3184379",
    "1697000",
    "2902447",
    "2902436",
    "1643249",
    "3131343",
    "2956805",
    "2519000",
    "672899",
    "886659",
    "2436514",
    "866001",
    "1666106",
    "1295327",
    "1367248",
    "2616818",
    "2117310",
    "1032066",
    "1449695",
    "543031",
    "915434",
    "1696978",
    "1398926",
    "1754157",
    "677718",
    "654190",
    "679250",
    "1719897",
    "1666865",
    "1367250",
    "1606613",
    "1606616",
    "1949574",
    "2112052",
    "2112135",
    "1624248",
    "2436517",
    "1697354",
    "2616817",
    "2616826",
    "2630943",
    "1697401",
    "1714710",
    "1714705",
    "2908747",
    "2908748",
    "2908750",
    "1491054",
    "3099223",
    "3132922",
    "3157226",
    "3184368",
    "3183538",
    "3184365",
    "3184377",
    "3184699",
    "3184374",
    "3099214",
    "1530748",
    "1342517",
    "2902439",
    "3277901",
    "1209441",
    "964484",
    "1666090",
    "819349",
    "3437660",
    "3569420",
    "3569418",
    "3184375",
    "3633401",
    "3633403",
    "3789828",
    "3789831",
    "3789832",
    "3133102",
    "538740",
    "3876289",
    "3987397",
    "3987477",
    "3987150",
    "3987151",
    "3987152",
    "3987394",
    "2902751",
    "4007521",
    "3805154",
    "3861672",
    "1696988",
    "849750",
    "596501",
    "4130791",
    "964493",
    "2049017",
    "1877108",
    "1104714",
    "2348881",
    "1399023",
    "1352816",
    "3184369",
    "1485440",
    "2928491",
    "954380",
    "4007519",
    "2968714",
    "1707522",
    "3277899",
    "672645",
    "354087",
    "2761597",
    "3060651",
    "2726294",
    "1367241",
    "1398995",
    "3053972",
    "672650",
    "975714",
    "1480634",
    "1666857",
    "2791500",
    "1825396",
    "1032067",
    "975711",
    "3876295",
    "2964536",
    "1253155",
    "1352814",
    "767991",
    "2914580",
    "770955",
    "3830991",
    "1295331",
    "494345",
    "2740782",
    "519481",
    "2386307",
    "3830989",
    "763416",
    "2902434",
    "2902440",
    "2968664",
    "2362125",
    "1253153",
    "3178376",
    "3053980",
    "2497600",
    "2616820",
    "3299483",
    "915433",
    "2964535",
    "975712",
    "1352813",
    "1696981",
    "189017",
    "1696986",
    "2209712",
    "1134877",
    "1496904",
    "1697403",
    "1496890",
    "2284789",
    "2740827",
    "2616821",
    "1666082",
    "2902435",
    "2704335",
    "518073",
    "1666086",
    "1367259",
    "1666113",
    "2378824",
    "1645715",
    "2902437",
    "1754160",
    "947502",
    "570075",
    "1648144",
    "2281564",
    "3178374",
    "2616819",
    "1000925",
    "2740741",
    "1367245",
    "915432",
    "2119474",
    "2378823",
    "3184372",
    "3184382",
    "2908746",
    "1295310",
    "975710",
    "770952",
    "1697383",
    "1697239",
    "2378822",
    "580641",
    "866000",
    "2616957",
    "2426193",
    "145654",
    "1666092",
    "1697003",
    "2965041",
    "1714719",
    "2426196",
    "1697228",
    "2135665",
    "1648146",
    "1399021",
    "1754156",
    "1697393",
    "2135663",
    "1352815",
    "2616823",
    "770948",
    "2436513",
    "1000924",
    "767989",
    "543032",
    "462214",
    "570072",
    "1697243",
    "1449693",
    "1032065",
    "936629",
    "1754155",
    "1000927",
    "1209437",
    "1000926",
    "770958",
    "1209421",
    "770957",
    "770960",
    "479683",
    "1033644",
    "677714",
    "770947",
    "770951",
    "1666111",
    "1666112",
    "1666842",
    "1666872",
    "770950",
    "654195",
    "654186",
    "654188",
    "672902",
    "654196",
    "654189",
    "654187",
    "676752",
    "679251",
    "145655",
    "1666927",
    "151688",
    "1714704",
    "1714711",
    "1705890",
    "1697402",
    "1754158",
    "1793538",
    "1793541",
    "1825849",
    "1832829",
    "2112051",
    "2112132",
    "2112131",
    "2135662",
    "2135661",
    "2281583",
    "2436518",
    "2616958",
    "2616822",
    "2616959",
    "2616824",
    "2630941",
    "2630942",
    "1786809",
    "2740744",
    "2740786",
    "2908745",
    "2908751",
    "2908744",
    "1705898",
    "899522",
    "890161",
    "2902443",
    "2902438",
    "930769",
    "3132921",
    "3132919",
    "3157184",
    "3184366",
    "3184371",
    "3184378",
    "3184380",
    "3184695",
    "3184381",
    "3184696",
    "3184370",
    "3184697",
    "3184373",
    "3184698",
    "3099206",
    "2426194",
    "3099210",
    "443971",
    "2902448",
    "2902441",
    "2902442",
    "1134879",
    "3337354",
    "513231",
    "3430291",
    "3437659",
    "308442",
    "189019",
    "167340",
    "201196",
    "654192",
    "3184700",
    "3184701",
    "3184376",
    "518070",
    "1134878",
    "1399027",
    "1491842",
    "2902746",
    "2902748",
    "2902752",
    "3184367",
    "3790028",
    "3796141",
    "3796140",
    "3830995",
    "2616955",
    "538739",
    "590343",
    "590345",
    "684903",
    "684904",
    "830703",
    "1825400",
    "2740820",
    "3789671",
    "3789637",
    "3647731",
    "3891991",
    "680158",
    "3074083",
    "1173071",
    "3437661",
    "3647729",
    "2865851",
    "3437663",
    "1019258",
    "1019259",
    "1714718",
    "280356",
    "3789670",
    "3789636",
    "3987395",
    "3987392",
    "3987393",
    "3987386",
    "579172",
    "3805152",
    "680136",
    "680139",
    "1697215",
    "2740784",
    "2049560",
    "4014623",
    "2257403",
    "4014622",
    "4134412",
    "4249624",
    "4249628",
    "34936",
    "4266317",
    "4266318",
    "4266320",
    "4266321",
    "4266322",
    "2678386",
    "1530619",
    "1530690",
    "1004957",
    "1399308",
    "1530620",
    "1530692",
    "1004956",
    "2048417",
    "2049028",
    "680138",
    "680140",
    "680137",
    "2049559",
    "2049561",
    "3185241",
    "770959",
    "770949",
    "4098304",
    "4098306",
    "4103145",
    "1705892",
    "1606610",
    "1295408",
    "4103142",
    "4344171",
    "4344085",
    "4344086",
    "4344088",
    "4103146",
    "4344090",
    "4344091",
    "4344163",
    "4353086",
    "1643197",
    "4354744",
    "4354745",
    "172311",
    "4337027",
    "4337028",
    "2452179",
    "4098298",
    "4098299",
    "2965036",
    "570073",
    "680135",
    "4391754",
    "4391764",
    "4391770",
    "4385716",
    "4391752",
    "4391753",
    "4391769",
    "4392454",
    "4391778",
    "4385719",
    "4392434",
    "4385721",
    "4393246",
    "4393247",
    "4392451",
    "4392455",
    "4385718",
    "3762667",
    "921933",
    "1876630",
    "142373",
    "142372",
    "4401641",
    "1028625",
    "3830993",
    "1554160",
    "2111807",
    "3116091",
    "4411637",
    "4411634",
    "4411635",
    "4411636",
    "1225292",
    "4401645",
    "4401646",
    "2740818",
    "3233070",
    "4437876",
    "4437877",
    "4437868",
    "3360005",
    "1295330",
    "1393174",
    "2968838",
    "1295325",
    "2968703",
    "4134413",
    "4164217",
    "1367246",
    "1000933",
    "2761593",
    "2761577",
    "2706274",
    "2742142",
    "2209714",
    "2539080",
    "4464267",
    "4464252",
    "4464254",
    "1148325",
    "1148324",
    "948254",
    "1716971",
    "2426375",
    "2741204",
    "513234",
    "521738",
    "2620979",
    "411004",
    "1295328",
    "412997",
    "1367249",
    "1367244",
    "2370479",
    "2370480",
    "3053997",
    "2354910",
    "3260360",
    "2670833",
    "2968702",
    "1853731",
    "2452175",
    "2141359",
    "2669501",
    "2914980",
    "2551111",
    "2378821",
    "2726307",
    "2726301",
    "2809667",
    "3262665",
    "3262664",
    "3225050",
    "2968707",
    "2426192",
    "1367242",
    "2726322",
    "1032064",
    "2284786",
    "2284787",
    "1949575",
    "2420446",
    "2375911",
    "2375914",
    "2375907",
    "1949573",
    "2375909",
    "2420447",
    "2375908",
    "2375915",
    "752500",
    "4508356",
    "4508157",
    "4508353",
    "612760",
    "4508355",
    "1225303",
    "266365",
    "948251",
    "763097",
    "4508338",
    "443439",
    "1714709",
    "770954",
    "422854",
    "672658",
    "557742",
    "615585",
    "3480376",
    "497470",
    "424636",
    "159311",
    "3233057",
    "2902150",
    "1786856",
    "159313",
    "770956",
    "964496",
    "3184387",
    "1456410",
    "2740742",
    "2902151",
    "2551112",
    "1527145",
    "2850408",
    "2761611",
    "2740783",
    "2741302",
    "2362179",
    "604299",
    "2551110",
    "1643193",
    "1367251",
    "1643241",
    "819341",
    "2742216",
    "1209523",
    "1209524",
    "1554158",
    "1602070",
    "2551480",
    "2111844",
    "1416437",
    "1414412",
    "2048457",
    "1229728",
    "1547204",
    "2493964",
    "1010533",
    "4561062",
    "4561094",
    "4568860",
    "4568861",
    "4568862",
    "4568863",
    "4568864",
    "4568865",
    "4568877",
    "4568878",
    "4568879",
    "4568881",
    "4568882",
    "4569243",
    "4568883",
    "4568884",
    "4569255",
    "4568859",
    "4571081",
    "4569234",
    "1373646",
    "3189165",
    "3189163",
    "3189167",
    "3189166",
    "3188380",
    "373395",
    "1019256",
    "4568845",
    "4014619",
    "4578571",
    "4587095",
    "1606609",
    "3844035",
    "3844032",
    "2372198",
    "860368",
    "1379753",
    "754022",
    "1080270",
    "1849004",
    "3070784",
    "832395",
    "1721265",
    "4533320",
    "4533321",
    "3193671",
    "2889391",
    "323838",
    "767988",
    "131303",
    "2889392",
    "1825399",
    "1825395",
    "393494",
    "1070588",
    "819343",
    "768088",
    "448521"
]