[
    "3007818",
    "4056718",
    "3016231",
    "3294387",
    "3999544",
    "3999543",
    "4032593",
    "3808071",
    "4370107",
    "3007819",
    "4462638",
    "3352708",
    "3999542",
    "1508947",
    "3483552",
    "3252970",
    "3007817",
    "3440675",
    "4361476",
    "3670430",
    "3347948",
    "4549394",
    "2798358",
    "3781539",
    "4542502",
    "3315174",
    "4531753",
    "2935025",
    "4157251",
    "4375850",
    "1958867",
    "4065439",
    "3647746",
    "3340066",
    "3999541",
    "3755896",
    "4370124",
    "1066190",
    "2786953",
    "3403941",
    "3315188",
    "3186928",
    "3807115",
    "3997526",
    "4164682",
    "3201962",
    "3396283",
    "3321016",
    "4026847",
    "3347750",
    "2588542",
    "3291920",
    "1702230",
    "3347766",
    "3644128",
    "1328880",
    "1488663",
    "3659354",
    "3480057",
    "882465",
    "2892994",
    "3908253",
    "3781473",
    "3283682",
    "4014329",
    "4268007",
    "4570433",
    "4002900",
    "3140007",
    "2885474",
    "1453897",
    "4515708",
    "2786951",
    "3439203",
    "3347747",
    "2885462",
    "4542505",
    "1646717",
    "3706005",
    "4248977",
    "3773297",
    "4015063",
    "3908201",
    "4380309",
    "4014323",
    "3508425",
    "3427165",
    "3902751",
    "1578064",
    "3394456",
    "3188163",
    "3659026",
    "4570846",
    "4361468",
    "2628449",
    "3411828",
    "4026116",
    "3718255",
    "4020920",
    "2892995",
    "3774495",
    "2761293",
    "3781542",
    "3394457",
    "3881280",
    "3763875",
    "1589380",
    "3319051",
    "4515789",
    "2567814",
    "1733803",
    "1432255",
    "3984992",
    "4127794",
    "1368388",
    "1453923",
    "1188147",
    "3441104",
    "2785038",
    "3812287",
    "3439191",
    "4515718",
    "3902541",
    "2974684",
    "3773975",
    "2718470",
    "3315099",
    "3776052",
    "2761996",
    "3502123",
    "4542504",
    "3363501",
    "4375860",
    "882466",
    "2889930",
    "2785176",
    "2291180",
    "3440108",
    "3188066",
    "1324873",
    "3963736",
    "2895643",
    "3124090",
    "4020048",
    "4188986",
    "2279602",
    "2354185",
    "4037155",
    "3773305",
    "3437879",
    "4287790",
    "2433589",
    "3670506",
    "2641218",
    "1368162",
    "3186929",
    "644821",
    "4251059",
    "568132",
    "4133736",
    "3992357",
    "3143643",
    "3433118",
    "2013090",
    "1250594",
    "3781543",
    "3937890",
    "3755602",
    "3501992",
    "3328169",
    "3140048",
    "3140052",
    "4164564",
    "2956251",
    "2493527",
    "1367325",
    "3395763",
    "336194",
    "3776054",
    "3188067",
    "3342754",
    "3776051",
    "926473",
    "2185250",
    "3058742",
    "3910997",
    "1461922",
    "4026055",
    "2036846",
    "2793624",
    "711116",
    "4515715",
    "2038679",
    "353296",
    "3907251",
    "4099542",
    "4134666",
    "3962260",
    "1368080",
    "3591341",
    "1326720",
    "1982443",
    "3346631",
    "3347768",
    "3328113",
    "1461410",
    "3315230",
    "3319058",
    "3478950",
    "4515787",
    "3725133",
    "2900967",
    "2126136",
    "3590567",
    "2760056",
    "4542503",
    "4207507",
    "2601950",
    "2695108",
    "2759443",
    "2625908",
    "3024987",
    "3672137",
    "4200797",
    "2761228",
    "4015973",
    "2572374",
    "2493525",
    "3140049",
    "2265019",
    "2604201",
    "3143642",
    "4287789",
    "3318995",
    "4064410",
    "1321793",
    "3514157",
    "2769674",
    "3293310",
    "2493520",
    "3818690",
    "677232",
    "2761152",
    "3292156",
    "4124822",
    "3140008",
    "4375861",
    "3810284",
    "4200870",
    "3426991",
    "3484591",
    "3698091",
    "1393305",
    "2359649",
    "3024986",
    "4515797",
    "3140096",
    "3773296",
    "3949764",
    "3291402",
    "3433110",
    "3604033",
    "3404818",
    "1368649",
    "413217",
    "4013983",
    "2882033",
    "2769673",
    "2053740",
    "2279712",
    "3302479",
    "1411887",
    "2543462",
    "2515632",
    "3394432",
    "3140046",
    "4127786",
    "2985933",
    "3310560",
    "2549891",
    "3138716",
    "2884125",
    "3576108",
    "3188168",
    "1689031",
    "3703630",
    "2900969",
    "2394850",
    "3305202",
    "3775978",
    "3140043",
    "2451178",
    "851673",
    "3478951",
    "3140005",
    "3338942",
    "3347739",
    "3394933",
    "2878365",
    "3480059",
    "3667525",
    "2549876",
    "2572373",
    "3672133",
    "1368646",
    "3667520",
    "3576100",
    "2889931",
    "2786896",
    "3965032",
    "1625982",
    "3395023",
    "3394650",
    "3139536",
    "1019240",
    "2298973",
    "2703948",
    "3049286",
    "2868547",
    "3294607",
    "3676533",
    "1553303",
    "1996851",
    "3937158",
    "2403844",
    "2568789",
    "2715848",
    "3676245",
    "3968161",
    "2094484",
    "3291480",
    "3582647",
    "2793622",
    "2343393",
    "2746131",
    "2759223",
    "4200729",
    "3937148",
    "2353332",
    "2671631",
    "2868560",
    "3140000",
    "2913553",
    "3348257",
    "2703932",
    "3347615",
    "3588096",
    "3025016",
    "607242",
    "2187322",
    "2718471",
    "3348659",
    "2947042",
    "759228",
    "1368079",
    "3781972",
    "2622462",
    "2312190",
    "2935050",
    "1368378",
    "3347483",
    "2848500",
    "3902285",
    "2291191",
    "1462216",
    "2785177",
    "3308805",
    "3796090",
    "1578080",
    "2761207",
    "3150232",
    "3773949",
    "2403841",
    "3325003",
    "3138821",
    "2298712",
    "3667524",
    "2259834",
    "2867282",
    "3291473",
    "1508977",
    "2703921",
    "2874718",
    "1802315",
    "3948457",
    "2768302",
    "1453937",
    "3432957",
    "568130",
    "3347624",
    "3474731",
    "3437876",
    "2095686",
    "3140006",
    "2095684",
    "1644994",
    "1616216",
    "2363164",
    "3439597",
    "1453935",
    "3712186",
    "1454613",
    "3306824",
    "1024454",
    "3755924",
    "2703935",
    "1368412",
    "2543448",
    "2265009",
    "2382539",
    "3363500",
    "1866106",
    "3702364",
    "3502122",
    "1416667",
    "1029460",
    "1535914",
    "1527278",
    "2185251",
    "3683095",
    "465427",
    "3259294",
    "3140047",
    "4078928",
    "2769589",
    "3984993",
    "2249023",
    "3440549",
    "4078926",
    "3310902",
    "2458016",
    "3476159",
    "2786907",
    "2361831",
    "1602952",
    "2363167",
    "932252",
    "2361834",
    "3023042",
    "2548507",
    "3188065",
    "2793623",
    "1648973",
    "3186685",
    "2511086",
    "3338800",
    "3388082",
    "4078927",
    "3669208",
    "1517099",
    "2648230",
    "3138742",
    "2116004",
    "2759433",
    "2759234",
    "2238757",
    "2549878",
    "3805319",
    "3347446",
    "3707082",
    "4006237",
    "3683223",
    "2860056",
    "3140050",
    "3397503",
    "3292049",
    "3902549",
    "3353273",
    "2759445",
    "72049",
    "2391798",
    "3667523",
    "2265015",
    "2353754",
    "1367311",
    "3683221",
    "2522027",
    "3301447",
    "3773304",
    "3486412",
    "3140832",
    "3796057",
    "3020463",
    "2768303",
    "3140037",
    "3293268",
    "3138747",
    "3768816",
    "3049293",
    "3025017",
    "2038669",
    "2303188",
    "3999702",
    "2926086",
    "3703655",
    "3152029",
    "964311",
    "3387904",
    "3893047",
    "3394704",
    "1368000",
    "3670800",
    "3937162",
    "4065402",
    "4017132",
    "3601637",
    "3773299",
    "3347742",
    "4043892",
    "3313554",
    "3667521",
    "3434621",
    "2884134",
    "2363166",
    "3311277",
    "4018094",
    "2202936",
    "3959894",
    "2361837",
    "2433621",
    "2868558",
    "2769581",
    "3638559",
    "3702363",
    "3346752",
    "2511089",
    "1536392",
    "604905",
    "3902638",
    "3439602",
    "2493522",
    "2704758",
    "2769678",
    "819330",
    "3002203",
    "1446276",
    "2290896",
    "3140065",
    "3000008",
    "2786520",
    "2884123",
    "2376774",
    "2354371",
    "1734369",
    "1324199",
    "2700390",
    "2468726",
    "1685550",
    "2361822",
    "3186647",
    "1563052",
    "2760057",
    "2298695",
    "1592838",
    "3139212",
    "1368272",
    "3588097",
    "1649987",
    "991389",
    "964312",
    "2549870",
    "450109",
    "3138819",
    "913191",
    "2767496",
    "1866109",
    "2724361",
    "3773298",
    "3902746",
    "3902753",
    "2866723",
    "2876531",
    "2548571",
    "3601840",
    "3604035",
    "619452",
    "2359293",
    "2763900",
    "932264",
    "2702429",
    "1368381",
    "1368361",
    "2265002",
    "2767495",
    "3348660",
    "3937140",
    "3902747",
    "3902748",
    "3902750",
    "2350254",
    "3560531",
    "1446275",
    "3556048",
    "2463882",
    "2353580",
    "2562921",
    "2786997",
    "1446298",
    "4117334",
    "2478833",
    "2769591",
    "531566",
    "2029249",
    "1553307",
    "1324770",
    "1555958",
    "1323863",
    "1689015",
    "1324872",
    "1689373",
    "2493541",
    "2342159",
    "2493521",
    "2866720",
    "1368411",
    "3907738",
    "2185785",
    "3138706",
    "3556050",
    "1323862",
    "1462024",
    "3301468",
    "4003024",
    "4006319",
    "3486408",
    "3332706",
    "3309878",
    "3304215",
    "3338805",
    "3307579",
    "3907539",
    "3431489",
    "3347505",
    "3397465",
    "3304250",
    "3431494",
    "3307580",
    "3701300",
    "3350341",
    "3907494",
    "3314581",
    "3139349",
    "2493523",
    "2723064",
    "1418737",
    "2763896",
    "2359341",
    "1418734",
    "2038658",
    "1959018",
    "2187395",
    "1412032",
    "926891",
    "1473146",
    "2759220",
    "2463884",
    "2300087",
    "2549882",
    "2956279",
    "2915998",
    "2279601",
    "2300221",
    "2769586",
    "2769672",
    "3667522",
    "1959015",
    "2761935",
    "2930983",
    "2769671",
    "3049285",
    "3683091",
    "1461411",
    "2874186",
    "3058562",
    "2767494",
    "2288199",
    "3140066",
    "2858139",
    "3591322",
    "1707678",
    "2702439",
    "3138813",
    "1791840",
    "1325558",
    "2866588",
    "1368376",
    "3887931",
    "2116006",
    "2156997",
    "2786989",
    "1368377",
    "1368367",
    "3503065",
    "2931004",
    "851677",
    "1368392",
    "2239935",
    "2931026",
    "1019241",
    "3340069",
    "2767487",
    "2932994",
    "1324769",
    "3313291",
    "3352992",
    "4111573",
    "2885456",
    "2549874",
    "2361847",
    "3140051",
    "2763898",
    "962732",
    "2866585",
    "2995392",
    "2956290",
    "1368363",
    "1401597",
    "1192533",
    "1578252",
    "3604036",
    "2743975",
    "2931009",
    "4016242",
    "3432960",
    "3902569",
    "3302942",
    "3486403",
    "3775977",
    "3902749",
    "3361682",
    "3963972",
    "3949763",
    "3310563",
    "3351277",
    "3348657",
    "3431492",
    "3431493",
    "3773301",
    "3712177",
    "2474013",
    "3310562",
    "3723819",
    "2867279",
    "3433149",
    "3406628",
    "3902523",
    "3712175",
    "3392171",
    "3431487",
    "3315826",
    "2874377",
    "3431495",
    "3304208",
    "3311913",
    "3726352",
    "1367635",
    "3907964",
    "2300210",
    "3999703",
    "2767492",
    "955577",
    "556767",
    "2187393",
    "2884124",
    "3764621",
    "1019250",
    "3138822",
    "984846",
    "2900968",
    "2361841",
    "3140055",
    "1403494",
    "1473148",
    "1418736",
    "2693084",
    "2767489",
    "2763895",
    "3314678",
    "3306713",
    "2884121",
    "3424735",
    "2700393",
    "2095475",
    "2552886",
    "1964910",
    "2298923",
    "2298924",
    "3983719",
    "3992342",
    "2353884",
    "4003020",
    "3395993",
    "3559459",
    "4133737",
    "3683222",
    "1412354",
    "975607",
    "2803731",
    "3395396",
    "3394454",
    "2761759",
    "1454616",
    "2761749",
    "2984973",
    "2761758",
    "2761752",
    "2761753",
    "3124047",
    "3306779",
    "2866717",
    "2769682",
    "3773300",
    "2788008",
    "3188069",
    "2761750",
    "1325554",
    "3140069",
    "2767491",
    "2767493",
    "3556049",
    "3806141",
    "3140061",
    "1670583",
    "3893048",
    "3893046",
    "1368364",
    "3591367",
    "1691372",
    "2785040",
    "2956281",
    "1555960",
    "3020467",
    "2769680",
    "1325560",
    "3140053",
    "1368371",
    "1553305",
    "1368379",
    "3294507",
    "851670",
    "371723",
    "1367302",
    "3140067",
    "3140064",
    "2867286",
    "3591327",
    "1602954",
    "2208612",
    "2860492",
    "2791120",
    "2390711",
    "1360171",
    "3676328",
    "1640745",
    "3591320",
    "3591321",
    "3591324",
    "4111590",
    "3346259",
    "2186893",
    "2390708",
    "2702445",
    "1360205",
    "2185779",
    "3394915",
    "789846",
    "3315745",
    "1446274",
    "2931023",
    "2964634",
    "2807393",
    "3437888",
    "3773902",
    "3503066",
    "2290924",
    "3616379",
    "3424788",
    "3000011",
    "4031263",
    "3138709",
    "3314598",
    "3702355",
    "3186640",
    "2572376",
    "1689308",
    "4015062",
    "443846",
    "2891306",
    "2701549",
    "3139353",
    "3893049",
    "3139070",
    "851683",
    "1748130",
    "1367283",
    "1367284",
    "1547128",
    "1367281",
    "1735522",
    "1121809",
    "2995386",
    "3058737",
    "2478756",
    "3138760",
    "904022",
    "2608047",
    "1418710",
    "2299426",
    "2703920",
    "1850961",
    "1490749",
    "2622439",
    "2303194",
    "1324220",
    "2935038",
    "2559834",
    "3320053",
    "2702430",
    "1326146",
    "747954",
    "1733805",
    "3515921",
    "2724359",
    "2460431",
    "1066187",
    "2974679",
    "1324192",
    "1736010",
    "2914425",
    "2724717",
    "3186654",
    "2702436",
    "912806",
    "1416657",
    "2551240",
    "3313573",
    "3316270",
    "3424786",
    "3702167",
    "2744181",
    "469310",
    "3912054",
    "3406487",
    "2671542",
    "4123783",
    "4123310",
    "4098930",
    "4098933",
    "3497089",
    "4059111",
    "4059121",
    "4059071",
    "4059113",
    "4059098",
    "1602953",
    "1360206",
    "1516999",
    "1328143",
    "1326344",
    "2302298",
    "2208578",
    "2303163",
    "2761552",
    "2702442",
    "2793158",
    "2350201",
    "2302417",
    "2303178",
    "534522",
    "2883005",
    "2703916",
    "3139331",
    "4127881",
    "1367288",
    "1003214",
    "1009158",
    "1005779",
    "1009162",
    "1047891",
    "1701390",
    "1609404",
    "3308705",
    "2505253",
    "2868543",
    "4005968",
    "2671598",
    "3001159",
    "2511004",
    "2767488",
    "4111600",
    "944380",
    "3315747",
    "3741050",
    "2932980",
    "1536387",
    "2769582",
    "3291406",
    "3712174",
    "3310920",
    "1489883",
    "2763901",
    "1959021",
    "2290931",
    "2695110",
    "1418741",
    "2769670",
    "2361852",
    "2703943",
    "2353883",
    "3020466",
    "3965330",
    "4013987",
    "1826294",
    "3139277",
    "851676",
    "1368407",
    "665577",
    "2715873",
    "1320845",
    "4133729",
    "3347527",
    "2915970",
    "4117333",
    "2549900",
    "1446273",
    "2700414",
    "1367310",
    "3043615",
    "2622438",
    "1324880",
    "2403837",
    "1661258",
    "2890112",
    "3140068",
    "1323811",
    "3427164",
    "2367862",
    "3139989",
    "2185765",
    "2187392",
    "3310450",
    "2759217",
    "3138820",
    "4003007",
    "2519070",
    "2356626",
    "3139983",
    "3768949",
    "3319205",
    "2655343",
    "3295338",
    "2655345",
    "3140054",
    "3907960",
    "2761923",
    "3293013",
    "2885454",
    "2763899",
    "2693082",
    "3888670",
    "3888671",
    "1368389",
    "1446271",
    "2511133",
    "1325564",
    "2910466",
    "3590295",
    "1536381",
    "1368368",
    "1602951",
    "3438965",
    "2521064",
    "2454609",
    "2700397",
    "3353775",
    "2786963",
    "804465",
    "2693086",
    "3712176",
    "1368380",
    "1576790",
    "704054",
    "3701299",
    "3426993",
    "3591343",
    "1717746",
    "2724659",
    "3397507",
    "3315852",
    "3591325",
    "3773303",
    "1402051",
    "1453928",
    "3139988",
    "2894703",
    "2761756",
    "2761757",
    "2761760",
    "2761754",
    "2761755",
    "2867284",
    "3514158",
    "3806140",
    "2769668",
    "2769653",
    "2761994",
    "3431488",
    "2511006",
    "3587997",
    "2931028",
    "3902752",
    "2767490",
    "2769578",
    "2300999",
    "3315736",
    "3140063",
    "2690282",
    "4003023",
    "1360169",
    "3433139",
    "1982441",
    "3703656",
    "3514162",
    "3600786",
    "1398682",
    "2884128",
    "2769685",
    "1959019",
    "3310555",
    "2786990",
    "1453920",
    "1419830",
    "3138741",
    "3345884",
    "3313294",
    "3437872",
    "3431496",
    "3431490",
    "3431491",
    "3347746",
    "3348704",
    "3588095",
    "3477171",
    "3591342",
    "2769669",
    "3140062",
    "2867291",
    "3907959",
    "3514160",
    "3514161",
    "3949988",
    "2478755",
    "2422200",
    "3304680",
    "2744208",
    "2363165",
    "1419824",
    "2395011",
    "918841",
    "2791122",
    "3314680",
    "3294686",
    "3907963",
    "3902810",
    "3959953",
    "3588094",
    "3591323",
    "3591326",
    "4111609",
    "4111620",
    "1689371",
    "1804512",
    "1735797",
    "2793925",
    "3553865",
    "3315155",
    "4003021",
    "2883824",
    "3967884",
    "2963118",
    "2094485",
    "2280830",
    "2763876",
    "3314659",
    "1446281",
    "1412109",
    "1096671",
    "2793205",
    "1453899",
    "2931025",
    "2239931",
    "1802294",
    "2116089",
    "2744211",
    "2720327",
    "2763890",
    "1368359",
    "2905859",
    "2882034",
    "3139293",
    "3058629",
    "1047892",
    "1748133",
    "1330109",
    "3404334",
    "3306694",
    "1367282",
    "1685540",
    "825109",
    "1326281",
    "1367280",
    "1329588",
    "3348705",
    "1804502",
    "1625978",
    "3140071",
    "3022046",
    "3293014",
    "3773302",
    "3602397",
    "2904672",
    "3022090",
    "3591299",
    "3310558",
    "3346770",
    "3992331",
    "4013995",
    "4014320",
    "2512185",
    "4014322",
    "3433124",
    "3794050",
    "4062845",
    "4062908",
    "3433120",
    "3338795",
    "3396232",
    "2548572",
    "3124076",
    "2885453",
    "2759216",
    "2702432",
    "2987666",
    "3484576",
    "2403833",
    "2788001",
    "964314",
    "2294159",
    "1330111",
    "1490781",
    "2439327",
    "2454619",
    "2744174",
    "2403846",
    "2924224",
    "1325229",
    "2702431",
    "1717542",
    "1550179",
    "1324877",
    "1324197",
    "2995393",
    "1323836",
    "3314668",
    "3138816",
    "3186638",
    "2997899",
    "1685547",
    "3504717",
    "3314592",
    "1324195",
    "3347429",
    "3683092",
    "3396256",
    "3395422",
    "3631632",
    "3672134",
    "3701736",
    "2671606",
    "1323789",
    "1403495",
    "4013992",
    "1453933",
    "2433620",
    "2878345",
    "1578066",
    "3141937",
    "604906",
    "1453996",
    "2883004",
    "381088",
    "2759215",
    "521784",
    "3306527",
    "2759235",
    "3478946",
    "3138818",
    "2935043",
    "2785243",
    "2761187",
    "607237",
    "1519631",
    "3141935",
    "3342755",
    "2450054",
    "2761636",
    "1504854",
    "2439326",
    "640099",
    "923681",
    "2302296",
    "625357",
    "2303196",
    "1418718",
    "167482",
    "2088717",
    "2229228",
    "1006311",
    "2474050",
    "2303202",
    "2302294",
    "1599709",
    "2303197",
    "1599771",
    "2038666",
    "1367296",
    "3058220",
    "3143607",
    "2761751",
    "3049292",
    "2999912",
    "2999915",
    "2999916",
    "3350363",
    "3306743",
    "1322480",
    "3347743",
    "564098",
    "3515920",
    "3424896",
    "3340052",
    "3319109",
    "2786803",
    "2786857",
    "2914426",
    "3140098",
    "3186806",
    "2947022",
    "1453916",
    "2786873",
    "3022091",
    "3337909",
    "3559463",
    "1453934",
    "3646953",
    "3559501",
    "381070",
    "2868720",
    "3424895",
    "3353329",
    "3591012",
    "3314979",
    "3697912",
    "3697913",
    "3307844",
    "3702356",
    "3702358",
    "3702168",
    "3703653",
    "3314400",
    "3320967",
    "799274",
    "1625949",
    "2888579",
    "3750972",
    "1501027",
    "3397535",
    "3602367",
    "3740353",
    "3602364",
    "3805996",
    "2300088",
    "2999978",
    "3347741",
    "2636548",
    "2886086",
    "1453922",
    "3153103",
    "3153105",
    "3796055",
    "2291176",
    "736237",
    "3139354",
    "3672132",
    "3314584",
    "3319102",
    "3796056",
    "1748134",
    "3672135",
    "3124102",
    "2322366",
    "3296299",
    "3959956",
    "4006214",
    "534516",
    "4008962",
    "4013991",
    "4013993",
    "2715869",
    "4013994",
    "4013997",
    "3314610",
    "3140074",
    "2700417",
    "2859999",
    "2301001",
    "2671493",
    "4031262",
    "3433114",
    "3307619",
    "3395990",
    "3353333",
    "1748136",
    "2785055",
    "2761557",
    "4140844",
    "4140845",
    "3058740",
    "3306789",
    "4037122",
    "4059072",
    "2761770",
    "2744203",
    "4018096",
    "4018100",
    "4063033",
    "1689367",
    "529433",
    "2680014",
    "3313555",
    "2707994",
    "3342837",
    "3306271",
    "2793196",
    "1599693",
    "3006485",
    "2759225",
    "3685166",
    "2478720",
    "1432315",
    "2793147",
    "2793146",
    "799096",
    "781279",
    "2396068",
    "2744176",
    "3305092",
    "2403877",
    "2302297",
    "2303169",
    "2935039",
    "2935041",
    "2931018",
    "1006410",
    "1323828",
    "2454411",
    "1323831",
    "1330103",
    "1323806",
    "2744177",
    "1390410",
    "1190917",
    "2239812",
    "2622437",
    "1697530",
    "923682",
    "1005788",
    "1005781",
    "1009163",
    "1009157",
    "468431",
    "468432",
    "1006395",
    "1550173",
    "1367279",
    "1006422",
    "1040399",
    "1605373",
    "1605374",
    "1599716",
    "1599698",
    "1599703",
    "2625537",
    "2390703",
    "2053721",
    "1419146",
    "2229060",
    "2303162",
    "2303173",
    "2302295",
    "2303161",
    "2302299",
    "2303177",
    "1330158",
    "2302300",
    "2303189",
    "2715852",
    "2744042",
    "2744175",
    "2744178",
    "2744209",
    "2744210",
    "2744037",
    "2744038",
    "2761551",
    "2761553",
    "2761549",
    "1119762",
    "2793171",
    "1005791",
    "1323787",
    "1688914",
    "1367318",
    "1689310",
    "1689205",
    "1689309",
    "2793191",
    "1697531",
    "1685544",
    "2935042",
    "2935037",
    "2935045",
    "2935048",
    "3008648",
    "3008646",
    "349735",
    "2534587",
    "677437",
    "1325553",
    "2912601",
    "2302429",
    "2302425",
    "2350169",
    "2350161",
    "2350162",
    "1432138",
    "2302428",
    "2302419",
    "2302420",
    "2302430",
    "2761705",
    "2302421",
    "2302431",
    "2302424",
    "2302426",
    "2303179",
    "2302427",
    "2303186",
    "3484614",
    "3342838",
    "1626062",
    "1689305",
    "2671546",
    "2947019",
    "3186603",
    "2935029",
    "2935040",
    "3424738",
    "3313558",
    "3313589",
    "3703705",
    "3721535",
    "3721536",
    "1006379",
    "1005782",
    "1548512",
    "2947048",
    "3427044",
    "3348266",
    "882460",
    "2625514",
    "3347659",
    "1527275",
    "2883003",
    "2883006",
    "3701737",
    "3186846",
    "3394420",
    "4036836",
    "1412535",
    "4078929",
    "4078930",
    "4078932",
    "4078925",
    "2625538",
    "3427043",
    "2671588",
    "2671553",
    "3743089",
    "3313588",
    "3142036",
    "4098934",
    "4098935",
    "4098490",
    "4098936",
    "4098937",
    "4098938",
    "4098929",
    "4098931",
    "4098932",
    "3138908",
    "3965079",
    "2254417",
    "4127882",
    "2433993",
    "3347744",
    "2904798",
    "3749574",
    "3933796",
    "2888593",
    "2956078",
    "3124074",
    "1412946",
    "2715872",
    "2859996",
    "3677972",
    "3683093",
    "3683094",
    "2702433",
    "2702447",
    "2702440",
    "2702441",
    "2702434",
    "2702443",
    "3764617",
    "3496197",
    "2702444",
    "2702437",
    "2702438",
    "2702446",
    "2703953",
    "3306823",
    "2549883",
    "3697757",
    "3989789",
    "3989748",
    "4071711",
    "4059077",
    "4059085",
    "4059110",
    "4059094",
    "4059102",
    "4059120",
    "4059112",
    "4059080",
    "4059088",
    "4059104",
    "4059105",
    "4059114",
    "4059073",
    "4059090",
    "4059115",
    "4059074",
    "4059084",
    "4059117",
    "4059093",
    "4059101",
    "4059078",
    "4059070",
    "4059079",
    "4059087",
    "4059095",
    "4059103",
    "4059096",
    "4059081",
    "4059089",
    "4059097",
    "4059082",
    "4059106",
    "4059091",
    "4059099",
    "4059108",
    "4059116",
    "4059076",
    "4059100",
    "1490752",
    "754073",
    "1609414",
    "1609375",
    "3669464",
    "2956250",
    "303972",
    "2505252",
    "2671538",
    "2354416",
    "3314783",
    "3576252",
    "2671624",
    "2671484",
    "3669265",
    "3314794",
    "3902598",
    "2658396",
    "2658390",
    "2671541",
    "2468706",
    "2658400",
    "2658401",
    "2680016",
    "2946433",
    "2671467",
    "2658394",
    "4200874",
    "4200875",
    "1453926",
    "3559458",
    "3058218",
    "3058221",
    "2825303",
    "1367293",
    "3674478",
    "3714529",
    "3293031",
    "4072674",
    "3342883",
    "3714528",
    "4042433",
    "3933167",
    "2671494",
    "3591426",
    "3748568",
    "2298810",
    "3559483",
    "4292912",
    "4292913",
    "4176992",
    "2433992",
    "4304040",
    "3698088",
    "3576243",
    "450120",
    "4043192",
    "3827508",
    "3806002",
    "2859994",
    "3379541",
    "3806001",
    "3477166",
    "3559456",
    "3559457",
    "3559450",
    "4253050",
    "4235954",
    "4253062",
    "4340324",
    "4172908",
    "3140073",
    "2433991",
    "3595633",
    "1462026",
    "773096",
    "1509621",
    "2872755",
    "3022119",
    "81993",
    "4070872",
    "3944941",
    "3776055",
    "3984994",
    "2358570",
    "1320924",
    "1322491",
    "1329537",
    "787350",
    "1418739",
    "1419831",
    "3518255",
    "3551672",
    "4375858",
    "4375859",
    "4014327",
    "4014328",
    "4030620",
    "3348683",
    "1527314",
    "3394726",
    "1189416",
    "1412123",
    "2552905",
    "3437877",
    "3396263",
    "3740701",
    "3380993",
    "4096932",
    "4096934",
    "4013906",
    "3743078",
    "2661817",
    "1453936",
    "3146196",
    "3502894",
    "3304243",
    "2433576",
    "3701748",
    "1412110",
    "2205761",
    "1461960",
    "1412251",
    "3432962",
    "1461914",
    "3703628",
    "1501054",
    "1453924",
    "1412244",
    "3140045",
    "3394954",
    "3674472",
    "1029459",
    "1419846",
    "1500641",
    "1453918",
    "1625958",
    "1455555",
    "1473173",
    "1443337",
    "1412247",
    "1328095",
    "1412126",
    "1327282",
    "1327599",
    "1327285",
    "557177",
    "2703933",
    "3642579",
    "4376872",
    "502049",
    "3477172",
    "2397630",
    "87686",
    "1401613",
    "4251061",
    "2994504",
    "4393313",
    "4393309",
    "1473171",
    "4041317",
    "4082583",
    "2298401",
    "2342150",
    "2342146",
    "2342086",
    "1003212",
    "2910450",
    "2342085",
    "926485",
    "736257",
    "3347456",
    "2744199",
    "3942952",
    "3823919",
    "3725142",
    "3749585",
    "4380295",
    "3491801",
    "3980221",
    "2719949",
    "3740361",
    "1736403",
    "3309915",
    "3358106",
    "4393317",
    "4074902",
    "3967867",
    "2935049",
    "3315472",
    "2935034",
    "2935036",
    "2935051",
    "3395421",
    "3703632",
    "1500458",
    "2761422",
    "2786982",
    "1453917",
    "1500460",
    "2912600",
    "2744200",
    "1473172",
    "1368395",
    "2515628",
    "2625909",
    "2622450",
    "2408857",
    "2718538",
    "2744204",
    "1462027",
    "2622453",
    "1500543",
    "1432139",
    "1084899",
    "932489",
    "2769663",
    "2769664",
    "2769588",
    "1488256",
    "2468709",
    "2343833",
    "1490754",
    "4026092",
    "968096",
    "3442503",
    "3440142",
    "3697296",
    "4123334",
    "2397802",
    "835882",
    "3394716",
    "3022089",
    "607244",
    "1325555",
    "1325551",
    "1552547",
    "3006486",
    "3773821",
    "3773823",
    "3292153",
    "3338798",
    "4070423",
    "4380854",
    "3433126",
    "3315075",
    "4304042",
    "3397506",
    "3705485",
    "2763923",
    "4361469",
    "4345097",
    "4345098",
    "2884135",
    "4361461",
    "4361466",
    "4099541",
    "2761927",
    "3432796",
    "3304389",
    "3140108",
    "3146194",
    "4304043",
    "2788007",
    "3296942",
    "4176278",
    "2788011",
    "963082",
    "3361440",
    "4424095",
    "3354023",
    "3433113",
    "3433143",
    "3433141",
    "3433221",
    "3315240",
    "2548462",
    "2548457",
    "2763870",
    "2763874",
    "3433225",
    "2548461",
    "2548455",
    "2548459",
    "3295363",
    "2859995",
    "3601508",
    "1411829",
    "3907748",
    "1644999",
    "1256067",
    "3395271",
    "1368638",
    "2515647",
    "943168",
    "3170848",
    "4262270",
    "1248895",
    "1684460",
    "2769712",
    "3002472",
    "4070450",
    "3957836",
    "3590909",
    "4477334",
    "3350008",
    "1809029",
    "1367327",
    "4006537",
    "3942944",
    "4376626",
    "1419748",
    "3318990",
    "3806000",
    "4424094",
    "3773967",
    "2769710",
    "756301",
    "2763871",
    "4361467",
    "4464625",
    "4464626",
    "3646950",
    "3685077",
    "3340058",
    "1418689",
    "2186895",
    "2186894",
    "2353466",
    "2511210",
    "2353461",
    "1454614",
    "2353469",
    "2860260",
    "2715878",
    "1412347",
    "1322532",
    "2815331",
    "3338801",
    "2759447",
    "1463391",
    "3312971",
    "3350010",
    "886071",
    "3348911",
    "926481",
    "4515720",
    "4515699",
    "4515784",
    "4515711",
    "4515713",
    "4515714",
    "4515793",
    "4515716",
    "4515777",
    "2719941",
    "3477165",
    "3315164",
    "698126",
    "1419562",
    "3433142",
    "3575019",
    "3353277",
    "3348986",
    "3141952",
    "850734",
    "502050",
    "2860369",
    "90955",
    "3433334",
    "3672146",
    "3022087",
    "3022096",
    "3558588",
    "541069",
    "1360214",
    "1367714",
    "1511302",
    "1324569",
    "964313",
    "979444",
    "502048",
    "255238",
    "339776",
    "349734",
    "625356",
    "912719",
    "3677919",
    "1794832",
    "3022085",
    "2468734",
    "3314779",
    "1474871",
    "958076",
    "1190918",
    "4282318",
    "4268071",
    "2682807",
    "3761593",
    "1550085",
    "1367652",
    "3006491",
    "2860371",
    "3306265",
    "2395725",
    "2435816",
    "918393",
    "1609419",
    "679753",
    "1190885",
    "4523269",
    "4523279",
    "4304041",
    "3907984",
    "450122",
    "3022080",
    "3721134",
    "3314762",
    "3301724",
    "4287776",
    "2281718",
    "3395394",
    "4523346",
    "2748351",
    "2622065",
    "679752",
    "3433340",
    "1432314",
    "4154258",
    "3433342",
    "385053",
    "3022083",
    "318192",
    "3022092",
    "3335248",
    "4300861",
    "4285857",
    "4133606",
    "4123703",
    "4303983",
    "4142490",
    "4134700",
    "4303985",
    "4072639",
    "4303989",
    "4133617",
    "4134654",
    "4134660",
    "4134662",
    "3476375",
    "4300851",
    "4134665",
    "4148663",
    "4148664",
    "3476379",
    "4062813",
    "4134667",
    "4128912",
    "4134668",
    "4134376",
    "4527632",
    "4300860",
    "4374305",
    "3439899",
    "450173",
    "1446329",
    "3551683",
    "4154256",
    "1067184",
    "3020434",
    "1581913",
    "540637",
    "4032919",
    "2671478",
    "2707987",
    "4006640",
    "4531759",
    "2070430",
    "1325227",
    "635393",
    "736256",
    "2885446",
    "3352923",
    "4533285",
    "3685278",
    "4433821",
    "4132175",
    "4026856",
    "3799352",
    "3636740",
    "3439192",
    "3433335",
    "4154263",
    "4154262",
    "4531814",
    "3433313",
    "2914509",
    "1360280",
    "1670497",
    "2763903",
    "2924339",
    "2353441",
    "2932977",
    "3022082",
    "4531809",
    "2707995",
    "2468760",
    "3332704",
    "1432313",
    "2466901",
    "3980055",
    "3973009",
    "4200730",
    "2403830",
    "4043153",
    "805145",
    "465426",
    "724743",
    "3433298",
    "1402028",
    "825110",
    "3433081",
    "3301210",
    "2495373",
    "3455847",
    "724742",
    "931565",
    "839185",
    "1329590",
    "3363222",
    "3433337",
    "3433333",
    "612443",
    "756635",
    "4123322",
    "4464652",
    "3947059",
    "4043154",
    "144443",
    "2932978",
    "4527638",
    "4523400",
    "3395764",
    "3503171",
    "1432137",
    "958069",
    "4102391",
    "882467",
    "2433990",
    "918396",
    "1795010",
    "3492258",
    "2999911",
    "582185",
    "4424212",
    "3395329",
    "3395431",
    "4361459",
    "4361463",
    "4464653",
    "4464651",
    "4201715",
    "4003008",
    "3674486",
    "4570780",
    "4393624",
    "2987410",
    "4570849",
    "4570283",
    "4033266",
    "4098552",
    "4570284",
    "4570884",
    "4570286",
    "4570141",
    "4570288",
    "4570407",
    "3674484",
    "3347740",
    "4570315",
    "4570317",
    "3685273",
    "3347670",
    "3941014",
    "4133718",
    "3433339",
    "3433343",
    "3439911",
    "3476158",
    "2460719",
    "2625907",
    "1500441",
    "2707993",
    "4570443",
    "4570445",
    "4570405",
    "3942953",
    "4570472",
    "3959923",
    "4570473",
    "4570435",
    "4570479",
    "4570319",
    "3314616",
    "4459744",
    "3947901",
    "4570436",
    "4376573",
    "4041846",
    "3576240",
    "2359654",
    "4548226",
    "4531751",
    "540633",
    "469285",
    "4287786",
    "4287778",
    "4459742",
    "4459745",
    "3907985",
    "4531854",
    "3685274",
    "1632713",
    "4570439",
    "4251052",
    "4570387",
    "4195262",
    "4570333",
    "4570444",
    "4570404",
    "4570413",
    "4570311",
    "4570417",
    "646445",
    "505394",
    "2655344",
    "3518225",
    "962735",
    "3721128",
    "2140884",
    "4393676",
    "3319479",
    "4253068",
    "1610939",
    "4014324",
    "3702296",
    "3774352",
    "4393446",
    "3148602",
    "4580333",
    "3293267",
    "4584557",
    "4584533",
    "3697295",
    "3538208",
    "4464612",
    "4570555",
    "4598368",
    "3818738",
    "3773903",
    "944378",
    "4581273",
    "4603039",
    "3362625",
    "3508427",
    "3433108",
    "3394710",
    "4380304",
    "4288126",
    "3944931",
    "4376422",
    "3388088",
    "3508424",
    "3394724",
    "3944966",
    "4081856",
    "4003010",
    "3396282",
    "3774190",
    "3755715",
    "4178890",
    "2460426",
    "2997197",
    "4406516",
    "1413143",
    "1871065",
    "2805723",
    "856798",
    "4177042",
    "3697751",
    "1534246",
    "2013099",
    "1446272",
    "1411950",
    "3714512",
    "3433119",
    "1025215",
    "3702351",
    "3142034",
    "3797671",
    "3805305",
    "3347442",
    "3348220",
    "3395267",
    "3394408",
    "3433115",
    "3396285",
    "3304544",
    "3683053",
    "534505",
    "3348201",
    "4598362",
    "3479643",
    "4043212",
    "4043214",
    "413218",
    "567148",
    "1504656",
    "1326108",
    "1487275",
    "1321103"
]