[
    "4426715",
    "3039946",
    "2849627",
    "4085971",
    "4024238",
    "4182147",
    "4088665",
    "4087178",
    "4504805",
    "3908660",
    "4481797",
    "3148143",
    "3677935",
    "4224027",
    "4163554",
    "4326984",
    "3853115",
    "3474060",
    "4485843",
    "4211216",
    "3979139",
    "4481784",
    "3724669",
    "3677939",
    "3979151",
    "4017194",
    "4481817",
    "4426708",
    "4386356",
    "4211203",
    "4386917",
    "4482154",
    "4024202",
    "606256",
    "4406410",
    "4565044",
    "4392439",
    "4387170",
    "4224334",
    "4355175",
    "3039942",
    "4465258",
    "4166595",
    "2390891",
    "4114620",
    "4386342",
    "3961332",
    "3792049",
    "4481872",
    "3474082",
    "4266964",
    "4365818",
    "4085964",
    "3961043",
    "4181072",
    "4278447",
    "4386381",
    "3979135",
    "4474493",
    "4477292",
    "4518628",
    "4386795",
    "4388456",
    "3789337",
    "3871979",
    "4474507",
    "4501349",
    "3474153",
    "4405271",
    "4431176",
    "4400923",
    "4180812",
    "4506258",
    "4373584",
    "4386390",
    "3908752",
    "4386814",
    "1283593",
    "4182944",
    "3402911",
    "4387344",
    "4210277",
    "4225354",
    "4166573",
    "4386246",
    "4497114",
    "4386500",
    "4370917",
    "4163852",
    "4400610",
    "4426598",
    "4378145",
    "4408387",
    "4018072",
    "4223093",
    "4474499",
    "4246380",
    "4383936",
    "4530785",
    "4182910",
    "4405359",
    "3194561",
    "3039940",
    "3678007",
    "4181144",
    "4497161",
    "3833768",
    "3477810",
    "3014245",
    "4225224",
    "4378150",
    "4431170",
    "3898909",
    "4016191",
    "4225080",
    "3075642",
    "4171933",
    "3979147",
    "4114149",
    "4418169",
    "4166506",
    "4163570",
    "3800126",
    "4555634",
    "3678003",
    "4527522",
    "3635164",
    "4497153",
    "3865725",
    "4087180",
    "3679623",
    "4491056",
    "4164930",
    "4504808",
    "3959891",
    "1670371",
    "3280213",
    "4046160",
    "4405194",
    "4387094",
    "4371010",
    "4180784",
    "515313",
    "3895812",
    "4479482",
    "4036583",
    "4182226",
    "2441760",
    "4268270",
    "2300368",
    "4466197",
    "4487018",
    "3041768",
    "4427628",
    "3935883",
    "4406950",
    "3054990",
    "4275504",
    "4530781",
    "4556988",
    "3992067",
    "4171946",
    "3056400",
    "4405129",
    "4375568",
    "4041537",
    "4180820",
    "4475458",
    "4386506",
    "4523281",
    "3056401",
    "3789426",
    "4262410",
    "3981522",
    "4497166",
    "4492134",
    "4156159",
    "3474162",
    "4295620",
    "4418196",
    "4386772",
    "3540787",
    "4479465",
    "4392652",
    "4523237",
    "4297212",
    "4491482",
    "4181039",
    "3865223",
    "4024352",
    "4310245",
    "4166858",
    "4376257",
    "4497138",
    "4559598",
    "4549424",
    "3981486",
    "4262409",
    "4024012",
    "3725072",
    "3880088",
    "4481968",
    "4211738",
    "4419176",
    "4144030",
    "4405278",
    "4555600",
    "4114414",
    "4330191",
    "3855110",
    "3492127",
    "4479381",
    "4167650",
    "3412515",
    "3888399",
    "4139431",
    "4184054",
    "4166930",
    "3724789",
    "4321395",
    "3852576",
    "4139347",
    "4479260",
    "3894654",
    "4496807",
    "4118761",
    "3814283",
    "4268239",
    "3039950",
    "3234486",
    "4180901",
    "3272932",
    "4114036",
    "4210867",
    "4465222",
    "3694402",
    "4486975",
    "4388450",
    "3504940",
    "4181759",
    "4181255",
    "3767548",
    "4523335",
    "4375658",
    "4164027",
    "4278206",
    "4368899",
    "1379735",
    "4025989",
    "3792055",
    "3410618",
    "4114074",
    "3855138",
    "3894749",
    "4210731",
    "4180242",
    "3981327",
    "2803857",
    "3416334",
    "4219405",
    "4400934",
    "4168928",
    "4182169",
    "4180800",
    "4223751",
    "4576406",
    "3565837",
    "4181001",
    "3398574",
    "4085762",
    "4180833",
    "4180892",
    "4375630",
    "4393414",
    "3865742",
    "4030754",
    "3799742",
    "4373605",
    "4475470",
    "3148317",
    "4565081",
    "4172026",
    "3854203",
    "3840238",
    "4386872",
    "4075816",
    "4098411",
    "4181771",
    "4223509",
    "4180200",
    "3877233",
    "4405161",
    "4482182",
    "3801885",
    "4019368",
    "4373792",
    "4479457",
    "3961335",
    "3758757",
    "3685654",
    "4262314",
    "2635038",
    "4317707",
    "4268272",
    "4493560",
    "4182140",
    "3410649",
    "4466204",
    "4349299",
    "2936717",
    "4262363",
    "4330245",
    "4407021",
    "3052580",
    "4388236",
    "4182313",
    "4124394",
    "3451439",
    "4164037",
    "3229543",
    "2752766",
    "3979143",
    "4390072",
    "4431198",
    "3148315",
    "3871753",
    "4325781",
    "4164911",
    "4481822",
    "3873902",
    "4373797",
    "3965569",
    "4214937",
    "4181009",
    "1555326",
    "3480187",
    "4014385",
    "3665828",
    "4182216",
    "4295803",
    "4565626",
    "3724702",
    "4183352",
    "4373853",
    "4180906",
    "4225219",
    "4504803",
    "3983812",
    "4523194",
    "4605883",
    "3565666",
    "3880411",
    "4491226",
    "3470965",
    "4167337",
    "3052054",
    "4181099",
    "4167248",
    "4295659",
    "4042986",
    "4278462",
    "4388446",
    "3822340",
    "4366907",
    "4374807",
    "3838665",
    "4373804",
    "4321713",
    "4138915",
    "4213828",
    "4126951",
    "4408311",
    "4497576",
    "3749619",
    "3764867",
    "2021926",
    "4555649",
    "4408727",
    "3283014",
    "3898831",
    "3950563",
    "2617841",
    "4268257",
    "3789497",
    "1542229",
    "4124296",
    "4577065",
    "3699755",
    "4114100",
    "4016613",
    "4016678",
    "4565307",
    "3397751",
    "4387215",
    "4613017",
    "4181042",
    "3267880",
    "4345126",
    "3897386",
    "2901269",
    "4180961",
    "4181149",
    "4386832",
    "4399233",
    "4214247",
    "4180951",
    "4288856",
    "4140867",
    "4182591",
    "3442981",
    "3410688",
    "4181062",
    "3587999",
    "4354816",
    "4496788",
    "3457859",
    "4471954",
    "3410732",
    "4167774",
    "2758229",
    "4166820",
    "3800207",
    "3035289",
    "4405287",
    "3725269",
    "4491269",
    "3069078",
    "4091143",
    "3898433",
    "4262303",
    "4115785",
    "4182065",
    "4114175",
    "2531409",
    "4375640",
    "3282386",
    "3913466",
    "2914149",
    "3051560",
    "4181088",
    "4268271",
    "4411730",
    "4114698",
    "4180577",
    "4310697",
    "4180589",
    "4480627",
    "4114612",
    "4555554",
    "4181109",
    "3724672",
    "4559674",
    "4295667",
    "4266608",
    "3106436",
    "4472031",
    "3724648",
    "3358374",
    "3758555",
    "4180595",
    "1570956",
    "4165084",
    "3854501",
    "4085814",
    "3784405",
    "4225228",
    "3873125",
    "4411727",
    "4183593",
    "3175707",
    "4493595",
    "4462837",
    "3232794",
    "4114407",
    "4289541",
    "4163919",
    "4262356",
    "4163482",
    "3457881",
    "4180948",
    "3405766",
    "4555620",
    "4549596",
    "3429575",
    "4487221",
    "4376123",
    "4087277",
    "3968240",
    "3855130",
    "3725080",
    "4066426",
    "3865189",
    "4087249",
    "4180983",
    "4182009",
    "4172131",
    "3712357",
    "3455276",
    "4266296",
    "4467461",
    "4181027",
    "4374215",
    "3764861",
    "4471907",
    "3764944",
    "1504709",
    "4371190",
    "3894676",
    "4167201",
    "4165876",
    "3826833",
    "4330208",
    "4181763",
    "2989438",
    "4074834",
    "4122418",
    "4376198",
    "4181040",
    "2980048",
    "4371206",
    "4268241",
    "4597057",
    "4392410",
    "3880928",
    "4374114",
    "2575690",
    "4445326",
    "4389917",
    "4110303",
    "3981500",
    "4482129",
    "3516963",
    "3852592",
    "4180755",
    "3852647",
    "3725287",
    "3981497",
    "3043795",
    "3653421",
    "1987789",
    "3911751",
    "4067798",
    "4182128",
    "3008785",
    "3585926",
    "4167015",
    "4471886",
    "4527405",
    "3902818",
    "3693073",
    "4114418",
    "4181025",
    "4487195",
    "2561363",
    "3565823",
    "4325625",
    "3981392",
    "1935038",
    "2752709",
    "4376155",
    "3595969",
    "3680954",
    "4376212",
    "4310676",
    "4387794",
    "4268256",
    "2752513",
    "3148181",
    "3659994",
    "3471070",
    "3205604",
    "4497299",
    "4114159",
    "4166111",
    "3575607",
    "3565753",
    "4374077",
    "3307540",
    "3792067",
    "4225285",
    "3616615",
    "3902755",
    "3838558",
    "4304531",
    "4183672",
    "4465252",
    "4387785",
    "4180990",
    "3865181",
    "3566637",
    "3918191",
    "3458176",
    "4115771",
    "4181969",
    "1582995",
    "4215926",
    "3667609",
    "4340854",
    "3791714",
    "4067478",
    "3830465",
    "3595957",
    "4208238",
    "2858230",
    "2954740",
    "4183039",
    "4295931",
    "4181028",
    "4167708",
    "4018147",
    "3753096",
    "3964287",
    "3088145",
    "3405643",
    "4114210",
    "4214163",
    "4262378",
    "4182201",
    "4366921",
    "4390032",
    "4085810",
    "4182577",
    "3532054",
    "2864006",
    "4361883",
    "4340868",
    "4122785",
    "3711377",
    "3895967",
    "4182209",
    "4387832",
    "4373944",
    "4114425",
    "3724686",
    "3797697",
    "4115735",
    "3981528",
    "4310655",
    "1385430",
    "2635077",
    "4155253",
    "4571278",
    "4278181",
    "4268254",
    "4268240",
    "3981353",
    "4089833",
    "4180619",
    "3410653",
    "4376246",
    "4114124",
    "4180770",
    "2480012",
    "64725",
    "4035669",
    "4559712",
    "4493601",
    "3001556",
    "3724655",
    "2376849",
    "3554725",
    "4181136",
    "3725078",
    "3725152",
    "4032198",
    "4531568",
    "2957435",
    "3713894",
    "3779217",
    "3935539",
    "4340870",
    "4427143",
    "3834181",
    "4211929",
    "3621831",
    "3081764",
    "3353278",
    "4569136",
    "3724385",
    "2425862",
    "4445005",
    "1468924",
    "3051565",
    "4445304",
    "1504690",
    "3410602",
    "4262380",
    "2552430",
    "3901364",
    "4181713",
    "4117785",
    "3981457",
    "3888304",
    "4383355",
    "4166952",
    "3471140",
    "4284536",
    "4504605",
    "4105549",
    "3917628",
    "2975491",
    "4143946",
    "4016723",
    "4167082",
    "3474163",
    "4182774",
    "3477262",
    "2957471",
    "3477445",
    "4612011",
    "3894614",
    "2879051",
    "4396392",
    "4115793",
    "1814847",
    "4536281",
    "3791981",
    "3724643",
    "4181210",
    "4016896",
    "4304503",
    "3222963",
    "2961660",
    "4597289",
    "4166766",
    "3175715",
    "4310178",
    "2769464",
    "4366482",
    "4481936",
    "3148191",
    "4297027",
    "4061080",
    "4013837",
    "3552893",
    "4374990",
    "4389972",
    "4496983",
    "4325594",
    "4182033",
    "4431182",
    "2369286",
    "2575050",
    "4181051",
    "3353497",
    "4223916",
    "4034948",
    "3912951",
    "3966030",
    "3443185",
    "3619436",
    "4012026",
    "4392306",
    "4087711",
    "3887710",
    "4015490",
    "2561364",
    "4162064",
    "3646994",
    "3971717",
    "3164826",
    "3071599",
    "3724706",
    "3744409",
    "4262406",
    "4374798",
    "4400488",
    "3597798",
    "4266285",
    "4165891",
    "4340830",
    "4139262",
    "2785260",
    "4066837",
    "3479916",
    "4156321",
    "4166036",
    "4089774",
    "4114421",
    "4278172",
    "3725147",
    "4375669",
    "4043035",
    "4114746",
    "4289886",
    "4340825",
    "3493546",
    "4360147",
    "3177025",
    "3873544",
    "3308314",
    "2980234",
    "3865237",
    "2754441",
    "4180705",
    "4019120",
    "4505084",
    "4373661",
    "4023942",
    "3075168",
    "3853351",
    "4278477",
    "4114205",
    "2769454",
    "4115806",
    "3443019",
    "4087263",
    "4212155",
    "4085771",
    "4366293",
    "4466055",
    "4181776",
    "4361936",
    "3757725",
    "1543709",
    "4374584",
    "3873472",
    "4182041",
    "3573219",
    "4496839",
    "2752541",
    "4376200",
    "4266327",
    "2868775",
    "3358310",
    "3477405",
    "4279708",
    "3627545",
    "4087304",
    "4330520",
    "4325581",
    "4406030",
    "3005011",
    "3543653",
    "3493478",
    "4181117",
    "4211844",
    "4114130",
    "2635063",
    "3304469",
    "4113437",
    "3759793",
    "3522704",
    "3534185",
    "3534208",
    "4181563",
    "3292270",
    "4366882",
    "4343714",
    "4392445",
    "3839261",
    "1569797",
    "4281027",
    "4089846",
    "4181012",
    "3752219",
    "3478461",
    "4181141",
    "4135251",
    "4406013",
    "3979138",
    "4366883",
    "3901452",
    "4375310",
    "1543938",
    "1550873",
    "4376225",
    "3724786",
    "4288865",
    "4366872",
    "4361943",
    "3709448",
    "4036117",
    "3954793",
    "3206357",
    "3045307",
    "3045750",
    "3008797",
    "4278196",
    "3045802",
    "4121200",
    "4012077",
    "4371213",
    "3818058",
    "4036964",
    "3010368",
    "3013044",
    "4092487",
    "3780919",
    "3446681",
    "3873178",
    "4269174",
    "4114046",
    "2334542",
    "4037391",
    "4427185",
    "2530452",
    "3759748",
    "4418122",
    "2874925",
    "3534189",
    "3897397",
    "3596600",
    "3398448",
    "4373498",
    "3832812",
    "3744394",
    "4366201",
    "2140109",
    "4366314",
    "4278631",
    "4323424",
    "3902630",
    "3912748",
    "4107741",
    "3777600",
    "4361846",
    "3039938",
    "3759739",
    "4168681",
    "3039948",
    "4166385",
    "4370922",
    "4321351",
    "4215980",
    "2769453",
    "4216502",
    "3346992",
    "2975509",
    "4271148",
    "4324082",
    "4400906",
    "4366421",
    "4114375",
    "2379781",
    "4014396",
    "4366595",
    "3612572",
    "4330502",
    "4396397",
    "3964431",
    "3429554",
    "4114193",
    "3759769",
    "3005786",
    "3402694",
    "3452258",
    "4373649",
    "4278627",
    "2853520",
    "4373818",
    "4181147",
    "3671158",
    "4376165",
    "4389956",
    "3409020",
    "2901819",
    "4066423",
    "4179930",
    "4284559",
    "4400849",
    "4102184",
    "3106187",
    "4277924",
    "3886622",
    "2422950",
    "3503908",
    "4259702",
    "4114373",
    "4295812",
    "3628059",
    "4118839",
    "4181058",
    "3887058",
    "4376109",
    "3477573",
    "3145067",
    "4272351",
    "3447131",
    "3912720",
    "4389912",
    "4325606",
    "4373959",
    "4262308",
    "3432242",
    "3854802",
    "4310215",
    "3748733",
    "4408726",
    "4405328",
    "3357718",
    "2823953",
    "4182603",
    "4214601",
    "3854498",
    "4114174",
    "4402121",
    "4166399",
    "3894877",
    "4085969",
    "734261",
    "1962801",
    "4383904",
    "4387791",
    "4275479",
    "4182697",
    "3894732",
    "4321718",
    "4387855",
    "3912787",
    "4390185",
    "3289630",
    "4163935",
    "4278194",
    "4180838",
    "3779521",
    "3895908",
    "4114202",
    "4259626",
    "4064020",
    "4036731",
    "3758606",
    "4223420",
    "3897385",
    "4114654",
    "4180862",
    "2341746",
    "3725063",
    "3148146",
    "4387348",
    "3290885",
    "4211799",
    "2352633",
    "4181142",
    "4366875",
    "2209827",
    "4321406",
    "3725130",
    "3724676",
    "4181288",
    "4182999",
    "4279712",
    "3902691",
    "3085658",
    "4426819",
    "4114365",
    "1300171",
    "1618629",
    "4114248",
    "3814421",
    "4181785",
    "4210246",
    "4278465",
    "4418188",
    "4371395",
    "3045727",
    "3231870",
    "4114207",
    "3534217",
    "4237802",
    "3815642",
    "4030185",
    "4310683",
    "3176815",
    "3724682",
    "2741527",
    "4375665",
    "4114164",
    "4211643",
    "4168746",
    "3001552",
    "3873114",
    "3432270",
    "4400912",
    "3724679",
    "4139382",
    "2392816",
    "3007260",
    "3764473",
    "3195177",
    "4139501",
    "4331000",
    "4400898",
    "3725108",
    "4370863",
    "4183522",
    "3290890",
    "2341709",
    "4183910",
    "2693604",
    "3148165",
    "3894626",
    "1448347",
    "4371376",
    "4400894",
    "4182691",
    "3566603",
    "4182219",
    "3045734",
    "3665601",
    "2624028",
    "4114013",
    "4115769",
    "3758733",
    "4062214",
    "3451743",
    "4284558",
    "4122333",
    "3488480",
    "3826923",
    "2781234",
    "4366879",
    "4114053",
    "2370472",
    "4426918",
    "2300374",
    "4399152",
    "3148162",
    "3437712",
    "4386191",
    "4373628",
    "4340831",
    "3865333",
    "3903510",
    "4354705",
    "2506205",
    "2708534",
    "3724704",
    "3540836",
    "4076943",
    "1448348",
    "3079346",
    "4216003",
    "4167142",
    "3815004",
    "3634476",
    "3327574",
    "4340857",
    "4114166",
    "2989499",
    "3478573",
    "4182826",
    "4016534",
    "3053305",
    "4366895",
    "4181716",
    "2848472",
    "4262382",
    "3758483",
    "3390616",
    "3054240",
    "4182844",
    "3267591",
    "4114209",
    "4378116",
    "3887060",
    "3902648",
    "3912926",
    "3486092",
    "2425739",
    "3894608",
    "4321347",
    "1325979",
    "4268230",
    "3744407",
    "3241421",
    "2769433",
    "3052516",
    "3981460",
    "3405768",
    "2832926",
    "2769435",
    "3554750",
    "4166425",
    "3554216",
    "4164019",
    "3554192",
    "2858084",
    "3306353",
    "3566581",
    "4181081",
    "2715339",
    "2975406",
    "4089498",
    "1541485",
    "3432304",
    "4181749",
    "4047072",
    "3724650",
    "3290860",
    "2923247",
    "2400685",
    "1372687",
    "3724685",
    "4206989",
    "4366890",
    "4374779",
    "3035195",
    "4214413",
    "4278180",
    "4061299",
    "4278460",
    "4310614",
    "2982200",
    "4182562",
    "4216008",
    "4278650",
    "3443381",
    "2555091",
    "2393043",
    "3486142",
    "3534211",
    "2997974",
    "3106447",
    "3566047",
    "4054951",
    "2812260",
    "3001550",
    "3280224",
    "3724663",
    "3854762",
    "4340824",
    "2975344",
    "3436076",
    "3758626",
    "4114179",
    "4109711",
    "4215964",
    "3001567",
    "3405746",
    "3142758",
    "2560277",
    "2982040",
    "3744408",
    "3353489",
    "1372379",
    "2994747",
    "3839368",
    "3565712",
    "3106456",
    "3081759",
    "3885446",
    "3457751",
    "3724794",
    "4181067",
    "4310622",
    "4072667",
    "2443976",
    "2927690",
    "3232655",
    "2781479",
    "4055022",
    "4139778",
    "2975539",
    "1547507",
    "3590858",
    "2795537",
    "3831157",
    "3327596",
    "3897373",
    "4181080",
    "3081737",
    "4289261",
    "3479910",
    "3174474",
    "4181658",
    "3478560",
    "3964441",
    "3148175",
    "3554237",
    "3479661",
    "2750833",
    "3382412",
    "3290907",
    "4279987",
    "4279994",
    "4279931",
    "4107955",
    "2994746",
    "4321312",
    "4046766",
    "3901549",
    "3145369",
    "2849400",
    "2821349",
    "2756685",
    "2842219",
    "3912848",
    "4074862",
    "3088737",
    "3554814",
    "3085818",
    "3725150",
    "3057324",
    "2804319",
    "3751837",
    "3981452",
    "4225329",
    "2804179",
    "2857935",
    "4181732",
    "3284046",
    "4181258",
    "4024044",
    "3176811",
    "3724654",
    "3173853",
    "2958463",
    "2769041",
    "4114403",
    "3531932",
    "2548625",
    "3340514",
    "3981472",
    "3894846",
    "3565816",
    "3597715",
    "4167173",
    "2341765",
    "3213908",
    "3426314",
    "1713304",
    "3178403",
    "3981364",
    "2998997",
    "3887894",
    "1544739",
    "2927709",
    "3486145",
    "625316",
    "3430214",
    "618717",
    "2157966",
    "1602045",
    "2874829",
    "2962466",
    "2962485",
    "3416333",
    "3413368",
    "3096664",
    "3935528",
    "3367190",
    "3205588",
    "3742970",
    "3474747",
    "1791595",
    "2484110",
    "930088",
    "3280300",
    "3742483",
    "3005016",
    "3447211",
    "3777598",
    "3117048",
    "3354100",
    "3010694",
    "3865295",
    "3888049",
    "3895926",
    "4166251",
    "4269310",
    "1626786",
    "3052533",
    "4181588",
    "2980061",
    "2534372",
    "3401942",
    "2955141",
    "3874086",
    "3452058",
    "3080747",
    "1570953",
    "2462842",
    "3830463",
    "2629185",
    "3276649",
    "1541658",
    "2857371",
    "3095632",
    "2804149",
    "3497319",
    "3724675",
    "3771523",
    "2454697",
    "3321616",
    "1657085",
    "3045327",
    "2857382",
    "3247014",
    "2985672",
    "2966068",
    "3964444",
    "2901442",
    "1377643",
    "2804170",
    "2769451",
    "3839515",
    "3457163",
    "3005787",
    "3450920",
    "3088662",
    "3664755",
    "2834021",
    "2019158",
    "4011995",
    "3450549",
    "3382405",
    "4180750",
    "3001560",
    "3109882",
    "4114360",
    "2628046",
    "2833874",
    "3492123",
    "3400229",
    "3964256",
    "3885500",
    "3282360",
    "3741961",
    "3725124",
    "2821280",
    "3967802",
    "3088661",
    "3181824",
    "3800609",
    "3138523",
    "3895680",
    "2422515",
    "3981338",
    "3983759",
    "3088200",
    "3981323",
    "3095762",
    "2964417",
    "3267619",
    "2635089",
    "3724699",
    "3294538",
    "3488439",
    "3282361",
    "3354052",
    "3758567",
    "2889718",
    "3590875",
    "2922709",
    "3356693",
    "3369580",
    "2370450",
    "1729102",
    "2997996",
    "3284549",
    "3725069",
    "841950",
    "2536202",
    "1849422",
    "2500807",
    "3759564",
    "3474827",
    "4203613",
    "4268275",
    "2927740",
    "470789",
    "3503777",
    "3706396",
    "4155377",
    "3010377",
    "2746606",
    "3759753",
    "3410545",
    "3405737",
    "3417676",
    "3586004",
    "3057338",
    "3724658",
    "860730",
    "1030813",
    "4164003",
    "2901415",
    "3304233",
    "2401726",
    "4163792",
    "1027034",
    "3088055",
    "1935031",
    "3410597",
    "2785036",
    "3859226",
    "770911",
    "3724783",
    "4163923",
    "3403017",
    "3554908",
    "4117815",
    "1373623",
    "3898472",
    "1547958",
    "3194286",
    "1554795",
    "3405743",
    "4107839",
    "3235782",
    "1665569",
    "3454592",
    "474468",
    "3410751",
    "3681171",
    "3826771",
    "3570239",
    "3175447",
    "3896903",
    "3321669",
    "3008823",
    "3709417",
    "1504743",
    "3194637",
    "3072797",
    "2746561",
    "2400416",
    "3474396",
    "3148150",
    "4085870",
    "3004971",
    "2425736",
    "2975238",
    "1692924",
    "1769162",
    "4180550",
    "2754385",
    "3354101",
    "4185408",
    "2746634",
    "2922693",
    "3451738",
    "506474",
    "3388900",
    "3725289",
    "3308804",
    "3290852",
    "4167700",
    "2922313",
    "1693919",
    "3725261",
    "3759761",
    "3290886",
    "4114739",
    "2938265",
    "3554829",
    "3981480",
    "3728594",
    "2833012",
    "2833017",
    "3981465",
    "3815699",
    "2419959",
    "1593202",
    "4115781",
    "3174136",
    "3981482",
    "2882282",
    "3213828",
    "1660913",
    "3426399",
    "2746676",
    "3598556",
    "3284545",
    "1468911",
    "2833844",
    "3308693",
    "2849563",
    "3586410",
    "3815688",
    "4114391",
    "3491257",
    "4012016",
    "4115750",
    "3405751",
    "3852749",
    "3477571",
    "2926493",
    "3283005",
    "3896899",
    "3588010",
    "3566077",
    "4008823",
    "4113445",
    "3077514",
    "3851816",
    "3896054",
    "3290889",
    "3725140",
    "4181752",
    "3724651",
    "3297923",
    "3106950",
    "1602149",
    "3364781",
    "3885406",
    "3398439",
    "3634472",
    "2021886",
    "3008789",
    "3282364",
    "3457636",
    "1377200",
    "2438665",
    "4183560",
    "2980217",
    "2863955",
    "4181789",
    "2257410",
    "3008805",
    "4030791",
    "1980541",
    "3479871",
    "2998220",
    "3945459",
    "3566003",
    "2994701",
    "3566000",
    "3981489",
    "4054642",
    "3724787",
    "4114191",
    "4089488",
    "3008795",
    "3289632",
    "3356688",
    "4181688",
    "2954879",
    "3077541",
    "3789482",
    "3744404",
    "4182551",
    "3725141",
    "3616509",
    "3590872",
    "3725266",
    "3759674",
    "4139456",
    "3896900",
    "3176785",
    "3758562",
    "3964297",
    "3981552",
    "3897070",
    "4114608",
    "3565953",
    "4181613",
    "3566089",
    "3758544",
    "3465699",
    "4114740",
    "4182072",
    "3306284",
    "3968642",
    "3934947",
    "4029739",
    "4181737",
    "2862944",
    "4182094",
    "3843640",
    "3839512",
    "3902843",
    "3759763",
    "3452668",
    "3347033",
    "3981454",
    "3555670",
    "2836867",
    "3633730",
    "3453036",
    "3932967",
    "3465701",
    "3410786",
    "3429577",
    "3208757",
    "3465641",
    "3758697",
    "3724791",
    "3758654",
    "3287566",
    "3475654",
    "3759576",
    "4181595",
    "2507909",
    "3066824",
    "2730232",
    "2697666",
    "1547670",
    "3759665",
    "3790188",
    "3528794",
    "3077522",
    "4182586",
    "3728343",
    "3284080",
    "3724700",
    "3146652",
    "2978241",
    "2253506",
    "2851795",
    "2297884",
    "2998210",
    "2994691",
    "3437700",
    "4114086",
    "3306340",
    "3290903",
    "3202880",
    "3013879",
    "3179872",
    "2948817",
    "3077532",
    "3779398",
    "1541711",
    "3045322",
    "2947699",
    "2756649",
    "3759566",
    "2863804",
    "4163583",
    "3888076",
    "3465651",
    "3410841",
    "3788442",
    "3292245",
    "3452478",
    "3221662",
    "3744397",
    "3759574",
    "3759777",
    "3474784",
    "3037825",
    "4114199",
    "4126039",
    "4181082",
    "2252375",
    "2901782",
    "3534180",
    "2746558",
    "3146674",
    "2372236",
    "2962382",
    "2954895",
    "3071660",
    "3111223",
    "3120330",
    "2258853",
    "2998221",
    "2994674",
    "1440479",
    "3566093",
    "3059924",
    "2370467",
    "2370457",
    "3566087",
    "3506068",
    "2811758",
    "2750484",
    "2297885",
    "2853537",
    "3071639",
    "2849669",
    "3565977",
    "3566064",
    "1541476",
    "1325896",
    "3896067",
    "2387947",
    "3758614",
    "3211913",
    "3725074",
    "3457195",
    "4012093",
    "4181653",
    "3008792",
    "2998285",
    "2994676",
    "3854805",
    "2379729",
    "2994689",
    "2994695",
    "3120506",
    "4168896",
    "1868419",
    "3290902",
    "3276633",
    "3290887",
    "3981492",
    "3280428",
    "3759755",
    "3276651",
    "3814460",
    "2482666",
    "2998235",
    "2888148",
    "3071643",
    "2994693",
    "3111154",
    "2785357",
    "2547166",
    "2754318",
    "2765173",
    "3120314",
    "3633707",
    "3146746",
    "1983946",
    "1325495",
    "1383274",
    "4183904",
    "4085825",
    "3815110",
    "2736067",
    "3274031",
    "3120294",
    "3759557",
    "3429553",
    "3794996",
    "3452435",
    "2757829",
    "3515303",
    "3072411",
    "3832603",
    "3240557",
    "3457192",
    "2569732",
    "3964295",
    "3772461",
    "3276656",
    "2370484",
    "2400515",
    "2765961",
    "2873190",
    "1373622",
    "2462744",
    "4010410",
    "3478482",
    "3744395",
    "3757590",
    "3457454",
    "3759686",
    "3744396",
    "3981542",
    "4030285",
    "3452479",
    "3405765",
    "3353472",
    "3759758",
    "3245005",
    "3353451",
    "3290853",
    "4008825",
    "4072715",
    "2894757",
    "3760402",
    "3452666",
    "3758496",
    "3815186",
    "3388933",
    "3405817",
    "4181694",
    "3759617",
    "4181682",
    "3903296",
    "4113439",
    "2997999",
    "4042269",
    "3763892",
    "3304219",
    "2994687",
    "3008788",
    "3290880",
    "3902793",
    "2998211",
    "3276653",
    "3008812",
    "3576377",
    "2419484",
    "3194487",
    "2889741",
    "3245784",
    "3072794",
    "2832887",
    "2423563",
    "3452481",
    "2695634",
    "3725301",
    "3566100",
    "2369341",
    "2998279",
    "3071668",
    "3071634",
    "1425125",
    "3008821",
    "2954997",
    "3280308",
    "3477519",
    "3312908",
    "4181661",
    "3008817",
    "3321624",
    "3008815",
    "3758604",
    "3566090",
    "3350366",
    "2453007",
    "2090575",
    "3417560",
    "2901982",
    "3350373",
    "2370292",
    "3268969",
    "3841341",
    "2462816",
    "3565965",
    "3069272",
    "3513303",
    "2998214",
    "3451972",
    "2754434",
    "2785327",
    "3146659",
    "3173902",
    "3983804",
    "3146655",
    "3419867",
    "3759562",
    "3565988",
    "3354098",
    "2423582",
    "2901867",
    "2285952",
    "2798193",
    "3110070",
    "3071652",
    "3077537",
    "3088640",
    "3088618",
    "3273995",
    "3280246",
    "3235724",
    "2823991",
    "3565826",
    "1541478",
    "4182987",
    "3039931",
    "2346526",
    "3035148",
    "1325886",
    "2715338",
    "1325465",
    "3689158",
    "3522770",
    "4114606",
    "3138997",
    "2419947",
    "1843644",
    "2804325",
    "3045288",
    "2405473",
    "2754437",
    "3057358",
    "2948816",
    "2558085",
    "2769518",
    "2756632",
    "3133478",
    "2821355",
    "2849674",
    "3066912",
    "3565958",
    "3081653",
    "2956053",
    "2290724",
    "2392656",
    "2766063",
    "3037879",
    "2975440",
    "2858069",
    "3452476",
    "3133806",
    "2858129",
    "2401601",
    "2387966",
    "2364367",
    "2496300",
    "2857763",
    "2386986",
    "3665611",
    "3040583",
    "3662615",
    "2750785",
    "3106438",
    "2902724",
    "2290725",
    "2456870",
    "2157889",
    "2923010",
    "2964420",
    "3106434",
    "3853199",
    "2390642",
    "2700683",
    "2530485",
    "1801078",
    "3112806",
    "2922740",
    "2501259",
    "2869613",
    "2300385",
    "2922910",
    "2315129",
    "1009146",
    "2563846",
    "3037829",
    "2831305",
    "2989477",
    "3665609",
    "2823371",
    "3662635",
    "4132425",
    "2555497",
    "2834126",
    "3382417",
    "2923105",
    "2409328",
    "2922333",
    "2456862",
    "2765987",
    "3023653",
    "3824411",
    "4203941",
    "4203579",
    "4155859",
    "3289633",
    "3356204",
    "3903291",
    "3350378",
    "1812156",
    "2334274",
    "2352646",
    "3110261",
    "3479864",
    "3724667",
    "3452667",
    "2575244",
    "3478511",
    "3757701",
    "3839299",
    "4181092",
    "2998232",
    "2998209",
    "3516145",
    "2426242",
    "3634463",
    "3060271",
    "2453095",
    "3120316",
    "3685780",
    "3565510",
    "2746585",
    "2446185",
    "2997971",
    "2769337",
    "2903556",
    "3620985",
    "1566673",
    "1822052",
    "3400310",
    "4203801",
    "4203887",
    "4225280",
    "3852627",
    "4185385",
    "4183915",
    "2799854",
    "3081748",
    "3071632",
    "2425870",
    "3267616",
    "2757816",
    "3691505",
    "2071254",
    "1707630",
    "2781460",
    "3273994",
    "3795000",
    "3071671",
    "3008810",
    "2804123",
    "3406012",
    "2769303",
    "2369944",
    "2803833",
    "2746551",
    "1547515",
    "2857043",
    "3615244",
    "2454698",
    "3950638",
    "1657735",
    "3085740",
    "3763937",
    "2962474",
    "2956085",
    "2392188",
    "2982073",
    "2821305",
    "3284047",
    "3175451",
    "2321932",
    "81888",
    "2379505",
    "3284065",
    "2614162",
    "3701753",
    "3248035",
    "3001554",
    "3008786",
    "3505997",
    "3276632",
    "3185545",
    "3573248",
    "2962146",
    "2296857",
    "3067557",
    "2982117",
    "2982108",
    "2975505",
    "2958483",
    "3175483",
    "3480010",
    "3492133",
    "3290861",
    "3513158",
    "470806",
    "2573906",
    "2369959",
    "3759570",
    "3874364",
    "2954974",
    "2785361",
    "3565831",
    "2423584",
    "3306278",
    "3265418",
    "3265404",
    "3100597",
    "3534199",
    "3429573",
    "2746688",
    "3565828",
    "2994694",
    "3534196",
    "3983765",
    "1541728",
    "2769443",
    "3759792",
    "2441640",
    "2418727",
    "2706846",
    "1457984",
    "3245162",
    "3381521",
    "3759621",
    "3981525",
    "1541707",
    "3001568",
    "4025607",
    "1325476",
    "2863829",
    "2558011",
    "3072418",
    "2188395",
    "3276810",
    "1539353",
    "3566014",
    "3565982",
    "3759581",
    "3854758",
    "1388696",
    "4072714",
    "3194486",
    "3084241",
    "3474521",
    "3758511",
    "3071586",
    "2978049",
    "2258826",
    "2345057",
    "3245779",
    "2370439",
    "3071646",
    "3071656",
    "3452841",
    "3493473",
    "3725296",
    "3758666",
    "3758631",
    "3855804",
    "4008824",
    "4072713",
    "1752687",
    "1801651",
    "2746703",
    "2926444",
    "2928239",
    "3794940",
    "2746609",
    "3493470",
    "2901986",
    "3566061",
    "3388912",
    "3565992",
    "2858050",
    "2769457",
    "2401591",
    "3284044",
    "3088599",
    "3096310",
    "3565629",
    "3565944",
    "3565960",
    "3493563",
    "3446207",
    "3981536",
    "4049181",
    "3886311",
    "2769311",
    "3304249",
    "3725125",
    "3853169",
    "3294546",
    "2769456",
    "2403888",
    "3566011",
    "2766061",
    "2925866",
    "3724646",
    "2766053",
    "3452480",
    "3565955",
    "3001576",
    "3457189",
    "2978417",
    "3465697",
    "2755011",
    "2821293",
    "2903551",
    "2903567",
    "3039381",
    "1707320",
    "1809873",
    "2706844",
    "2331079",
    "2895155",
    "2926366",
    "2957508",
    "3066930",
    "3066907",
    "1823179",
    "1651730",
    "2954994",
    "3211912",
    "3542909",
    "3759744",
    "3759606",
    "3272920",
    "3474510",
    "4072668",
    "3605814",
    "3106452",
    "3106441",
    "2925716",
    "3763917",
    "3516986",
    "3176778",
    "3106442",
    "3472938",
    "2258850",
    "3691555",
    "3280244",
    "1229825",
    "2975493",
    "2957502",
    "2441774",
    "2975501",
    "2387974",
    "3012185",
    "1678899",
    "3007196",
    "2461604",
    "1823214",
    "1962935",
    "3452782",
    "2975355",
    "2766198",
    "2746644",
    "1670368",
    "2964419",
    "2746576",
    "2741512",
    "3452779",
    "2936780",
    "3284053",
    "3108249",
    "2608437",
    "2376845",
    "2837000",
    "3347030",
    "2982407",
    "2403886",
    "3072469",
    "2923027",
    "1376547",
    "2766019",
    "2754315",
    "2961654",
    "2754391",
    "2530368",
    "3080989",
    "2370456",
    "2021057",
    "3088705",
    "3039380",
    "2853802",
    "3072452",
    "2392178",
    "2387950",
    "2014928",
    "2346527",
    "2836996",
    "2889709",
    "2901979",
    "2957630",
    "3001569",
    "3212678",
    "3088704",
    "3280433",
    "3365119",
    "2925738",
    "3452813",
    "2769455",
    "3075972",
    "2982026",
    "3598949",
    "3364873",
    "3725159",
    "3534204",
    "3452477",
    "4012091",
    "4030788",
    "3038918",
    "1980542",
    "3110144",
    "3267514",
    "2766100",
    "2456912",
    "3177064",
    "2957919",
    "3452011",
    "3598457",
    "2387977",
    "2480495",
    "3598493",
    "2608445",
    "3447552",
    "2300379",
    "3067014",
    "3173631",
    "2551300",
    "3148139",
    "3107952",
    "2370497",
    "2341779",
    "2567081",
    "2927606",
    "3095788",
    "2927726",
    "2563055",
    "3194594",
    "3106449",
    "2925863",
    "2731021",
    "2539093",
    "3400101",
    "3174671",
    "3912550",
    "3304251",
    "3110120",
    "2315145",
    "2962044",
    "3067143",
    "3290899",
    "3080795",
    "3174616",
    "3045732",
    "2962145",
    "3478350",
    "3067134",
    "3001570",
    "2803902",
    "2998216",
    "3874120",
    "2334613",
    "2401914",
    "2643692",
    "3012193",
    "2854568",
    "3106453",
    "3067422",
    "3267888",
    "3265786",
    "3005076",
    "3012000",
    "2534640",
    "2457908",
    "2300383",
    "2779321",
    "2560206",
    "3175478",
    "3354107",
    "3276657",
    "3282367",
    "2903584",
    "2980138",
    "2958474",
    "2297064",
    "3194604",
    "3013509",
    "2287249",
    "1671314",
    "3308144",
    "3279077",
    "3308237",
    "2425812",
    "3095766",
    "2785444",
    "1693913",
    "2700490",
    "2731448",
    "2800366",
    "2899762",
    "3321622",
    "3013521",
    "2297054",
    "2439624",
    "2393546",
    "2334630",
    "2765169",
    "2573962",
    "2580342",
    "1808285",
    "2766009",
    "2315331",
    "2923015",
    "3292238",
    "3268173",
    "2923031",
    "2369800",
    "2401763",
    "2369776",
    "2499277",
    "2573985",
    "2369902",
    "2386965",
    "2577531",
    "2376905",
    "2184837",
    "2387953",
    "2549175",
    "2765266",
    "1593504",
    "2457838",
    "2454691",
    "3053044",
    "3071233",
    "3081768",
    "2964331",
    "3138574",
    "3138575",
    "3138571",
    "3308231",
    "3312906",
    "1728061",
    "2387972",
    "2975276",
    "2386983",
    "3502505",
    "3620981",
    "2824025",
    "2884945",
    "2989467",
    "2989411",
    "3502532",
    "3440724",
    "3440854",
    "3626921",
    "3442683",
    "3831500",
    "2673288",
    "3545322",
    "3539696",
    "2249220",
    "2551782",
    "3356716",
    "3442599",
    "3480525",
    "1808132",
    "1342469",
    "2823453",
    "4030301",
    "3615807",
    "2823524",
    "2994744",
    "1670555",
    "3855819",
    "3452434",
    "3731134",
    "3268963",
    "2726842",
    "3338534",
    "841955",
    "2849471",
    "2922978",
    "470838",
    "963350",
    "930090",
    "1027044",
    "618718",
    "3327107",
    "3826868",
    "3069066",
    "3067568",
    "2766285",
    "2296893",
    "2766168",
    "2924525",
    "3265793",
    "470798",
    "3175465",
    "1027054",
    "2018623",
    "1008910",
    "2334626",
    "734260",
    "470837",
    "470802",
    "1030812",
    "2748844",
    "3088185",
    "2409332",
    "2834132",
    "2922330",
    "3110440",
    "2379897",
    "2765984",
    "1962912",
    "1027055",
    "2923102",
    "2877380",
    "2530458",
    "2531515",
    "2495225",
    "2253591",
    "1479005",
    "946242",
    "470792",
    "1027050",
    "841951",
    "841954",
    "626679",
    "2536802",
    "1588681",
    "1596376",
    "2537943",
    "3480853",
    "3059427",
    "3961433",
    "2536928",
    "2346486",
    "2577958",
    "2334106",
    "2577877",
    "1657738",
    "2450673",
    "2823464",
    "3545363",
    "3779379",
    "3442447",
    "3067017",
    "2740092",
    "3096660",
    "3852563",
    "4225302",
    "4216010",
    "3853313",
    "3772499",
    "4214956",
    "2693543",
    "4259692",
    "4259743",
    "4259750",
    "4259677",
    "3736851",
    "4237812",
    "4184692",
    "3786871",
    "4166274",
    "4166515",
    "4165868",
    "4278647",
    "4278178",
    "4278648",
    "4278649",
    "4277931",
    "4278639",
    "4277943",
    "4278640",
    "4278651",
    "4212127",
    "4277954",
    "4278641",
    "4278675",
    "4278188",
    "4277959",
    "4278642",
    "4278464",
    "4277966",
    "4278643",
    "4278644",
    "4278470",
    "4278009",
    "4278645",
    "4278475",
    "4278046",
    "4278646",
    "4048921",
    "4280261",
    "4281044",
    "4280049",
    "4280433",
    "4280971",
    "4281049",
    "4280638",
    "4279710",
    "4280269",
    "4281051",
    "4280290",
    "4280984",
    "4279714",
    "4280034",
    "4280998",
    "4280277",
    "4279799",
    "4280323",
    "4279730",
    "4280250",
    "4281019",
    "4280283",
    "4280947",
    "4280256",
    "4281022",
    "4280390",
    "4280551",
    "4280286",
    "4284538",
    "4284560",
    "4284539",
    "4284561",
    "4284542",
    "4284454",
    "4284562",
    "4284544",
    "4284455",
    "4284545",
    "4284549",
    "4284551",
    "4284555",
    "4284530",
    "4284423",
    "4284556",
    "4284501",
    "4284534",
    "4284508",
    "4284431",
    "4216015",
    "4225364",
    "4292726",
    "4292151",
    "4292269",
    "4292288",
    "4292312",
    "4292164",
    "4292603",
    "4292604",
    "4289693",
    "4289756",
    "4289246",
    "4289523",
    "4288776",
    "4289573",
    "4289778",
    "4134496",
    "2731206",
    "2709598",
    "2695010",
    "2898997",
    "2693596",
    "2723037",
    "2689458",
    "2771636",
    "2718986",
    "2420294",
    "2254925",
    "2693511",
    "2569847",
    "2652781",
    "2694933",
    "2671892",
    "2249584",
    "2930084",
    "2795710",
    "2327846",
    "2255024",
    "2703131",
    "2709222",
    "2608639",
    "2410036",
    "2606858",
    "1461314",
    "2091101",
    "2695002",
    "2256341",
    "2693648",
    "1985740",
    "2430699",
    "3761372",
    "4310606",
    "4310787",
    "4310794",
    "4310580",
    "4310160",
    "4310587",
    "4310703",
    "4310704",
    "4310662",
    "4310594",
    "4310706",
    "4310818",
    "4310600",
    "4310693",
    "4310852",
    "3545036",
    "4311332",
    "1698533",
    "4317692",
    "2161959",
    "2564683",
    "2741544",
    "4318152",
    "4317709",
    "4317062",
    "4317063",
    "4317064",
    "4196872",
    "3205955",
    "4288837",
    "4323507",
    "4323433",
    "4325572",
    "4330875",
    "4330451",
    "4323448",
    "4323475",
    "3212617",
    "3182821",
    "4335180",
    "4335182",
    "4335183",
    "4340834",
    "4340852",
    "4340863",
    "4340823",
    "4340827",
    "4340826",
    "4340858",
    "3405224",
    "3929188",
    "4361454",
    "4271111",
    "4366849",
    "4366863",
    "4366876",
    "3764853",
    "4317706",
    "3865146",
    "4372537",
    "4374755",
    "4374774",
    "4375313",
    "4375314",
    "4375315",
    "4374801",
    "4375318",
    "3955304",
    "4366501",
    "4366257",
    "4366440",
    "4366450",
    "4288028",
    "4325564",
    "3138538",
    "4374777",
    "4366281",
    "4361921",
    "4371358",
    "4288792",
    "4366548",
    "4361724",
    "3532043",
    "4366304",
    "4361815",
    "4371339",
    "4368873",
    "4338044",
    "4371400",
    "4373835",
    "3519328",
    "1823416",
    "4128346",
    "1570949",
    "4374129",
    "4371312",
    "4387026",
    "4373891",
    "4383915",
    "4185281",
    "4124950",
    "4373618",
    "4383942",
    "4153571",
    "4386889",
    "3014709",
    "4386184",
    "4374562",
    "4374579",
    "4383958",
    "3014797",
    "4190256",
    "4396390",
    "4396393",
    "4396394",
    "4396405",
    "3635161",
    "4396407",
    "3949466",
    "3429564",
    "3429555",
    "3457202",
    "3724671",
    "3474878",
    "3496692",
    "3429571",
    "3565514",
    "3724694",
    "4398047",
    "3588070",
    "4038770",
    "4400890",
    "3166486",
    "2335719",
    "2542619",
    "2575236",
    "4173158",
    "2400604",
    "2577897",
    "2390674",
    "2376861",
    "2382391",
    "2019649",
    "4162820",
    "4155370",
    "4383451",
    "3106049",
    "2257664",
    "4405992",
    "4406059",
    "4408614",
    "4408616",
    "4408615",
    "4408094",
    "4190257",
    "4418123",
    "3116567",
    "4105311",
    "4210760",
    "4210725",
    "3051553",
    "1244452",
    "4426833",
    "4427031",
    "4427049",
    "4427171",
    "4426987",
    "4427139",
    "4426884",
    "4426921",
    "4427179",
    "4426784",
    "4426864",
    "4426938",
    "4427158",
    "4427014",
    "4426791",
    "4354564",
    "4428707",
    "3628851",
    "3116507",
    "4278184",
    "3894405",
    "2404562",
    "3515484",
    "3474061",
    "3502503",
    "2765271",
    "4449987",
    "4448443",
    "4455005",
    "4428179",
    "4249848",
    "1662442",
    "3141151",
    "4038851",
    "1543705",
    "2982213",
    "3649798",
    "3634252",
    "3220669",
    "3115758",
    "3289702",
    "2998215",
    "2977790",
    "3406023",
    "3233629",
    "2480002",
    "3526017",
    "1540972",
    "2345049",
    "3931491",
    "1542749",
    "1823025",
    "1384996",
    "4466072",
    "4460662",
    "4465266",
    "4364145",
    "1541164",
    "1385013",
    "1386886",
    "1540926",
    "1540914",
    "3855816",
    "4471867",
    "4477530",
    "4474513",
    "4474519",
    "3932968",
    "1224612",
    "1913983",
    "1384993",
    "1385011",
    "2850668",
    "3551652",
    "2731010",
    "3329936",
    "3401949",
    "4313440",
    "2334023",
    "1478787",
    "3446123",
    "1597321",
    "1446471",
    "4479359",
    "4480247",
    "4480300",
    "4460432",
    "4480285",
    "4480236",
    "4480240",
    "4480292",
    "4266378",
    "1456228",
    "4482183",
    "3457333",
    "3106418",
    "3636851",
    "3095541",
    "4268268",
    "4107818",
    "4087169",
    "4496228",
    "4496354",
    "4497253",
    "4496946",
    "4462905",
    "1652766",
    "3588069",
    "3502515",
    "1547354",
    "1635508",
    "1542227",
    "1604910",
    "1542221",
    "1604911",
    "1548549",
    "1547351",
    "1546948",
    "1604942",
    "1604912",
    "1386489",
    "4492116",
    "2258493",
    "2620739",
    "2765187",
    "2765194",
    "2382330",
    "2560416",
    "2545980",
    "2577899",
    "2586687",
    "2043335",
    "1903086",
    "4223987",
    "2785022",
    "2091464",
    "3088134",
    "3695646",
    "3045769",
    "3151581",
    "3051551",
    "2401548",
    "2849635",
    "3035150",
    "2961677",
    "2750814",
    "3129676",
    "3151580",
    "3013502",
    "2994752",
    "3041726",
    "3041615",
    "3035123",
    "2833989",
    "3005783",
    "2801866",
    "3067493",
    "3069719",
    "3035171",
    "2765223",
    "2980079",
    "2850682",
    "3012655",
    "3010772",
    "3057217",
    "2877549",
    "3069269",
    "3085680",
    "3005818",
    "3052441",
    "3014272",
    "3014356",
    "2994750",
    "2997990",
    "3089686",
    "3089711",
    "2849474",
    "3089717",
    "2948813",
    "3089706",
    "3089720",
    "3110307",
    "3077509",
    "3110312",
    "3089710",
    "3089700",
    "3088118",
    "2845135",
    "2955138",
    "2961278",
    "2961299",
    "2804186",
    "2769450",
    "2948789",
    "2853503",
    "2746713",
    "2961668",
    "2889137",
    "2914331",
    "2994748",
    "2927622",
    "3037826",
    "3041742",
    "3041730",
    "3089713",
    "3023316",
    "2858196",
    "2975434",
    "2877366",
    "3041549",
    "2914130",
    "3012079",
    "2982363",
    "2956166",
    "2583899",
    "3012120",
    "2713099",
    "3010504",
    "3001562",
    "3057365",
    "3012074",
    "2785248",
    "2980058",
    "2800231",
    "2858190",
    "2975284",
    "2848896",
    "3041567",
    "2804264",
    "2994751",
    "2768911",
    "2959944",
    "3085586",
    "3011996",
    "2961648",
    "2834006",
    "3037860",
    "2956393",
    "2543741",
    "3012174",
    "2746592",
    "2781170",
    "2800315",
    "2925843",
    "2730985",
    "2961672",
    "2804283",
    "2936731",
    "2781043",
    "2961512",
    "3037823",
    "3001564",
    "3037876",
    "2975268",
    "2956173",
    "2746559",
    "2858180",
    "2980226",
    "2850648",
    "2850676",
    "2975411",
    "3001573",
    "2975325",
    "3069354",
    "2547059",
    "3001577",
    "2850604",
    "2961362",
    "3001559",
    "2871772",
    "2858239",
    "2961637",
    "2858244",
    "2858059",
    "2956176",
    "2708784",
    "2858175",
    "2956179",
    "2975334",
    "2980066",
    "3037821",
    "3085674",
    "2844635",
    "2746631",
    "2871763",
    "2975273",
    "2727365",
    "3145356",
    "2564359",
    "3145639",
    "3014265",
    "2799785",
    "2958459",
    "3088153",
    "3121346",
    "3120536",
    "3035111",
    "3081847",
    "3088169",
    "3129679",
    "3085715",
    "1870485",
    "3023746",
    "3023760",
    "3634454",
    "4374970",
    "3896773",
    "3274097",
    "3853258",
    "3742137",
    "3794858",
    "3725136",
    "3035151",
    "3175717",
    "3429579",
    "2711396",
    "2874668",
    "3412516",
    "3106458",
    "3955353",
    "4168758",
    "4445244",
    "3360564",
    "3234481",
    "2923076",
    "3454938",
    "3633551",
    "3069133",
    "3141217",
    "3173884",
    "3172209",
    "3488327",
    "3171018",
    "3815958",
    "3455530",
    "3478507",
    "3447510",
    "3616629",
    "3401965",
    "3353464",
    "2959954",
    "3037865",
    "3067490",
    "3067497",
    "3041720",
    "2959948",
    "3077686",
    "3067481",
    "3106405",
    "3267562",
    "3437686",
    "3512760",
    "3586069",
    "3174154",
    "2923056",
    "3069487",
    "3447781",
    "3249993",
    "3110427",
    "3487708",
    "3487725",
    "3487741",
    "3207666",
    "3274186",
    "3227158",
    "3437632",
    "3356571",
    "2970286",
    "3826879",
    "3478472",
    "3434054",
    "3224925",
    "3477284",
    "3224933",
    "2985665",
    "3356567",
    "3114246",
    "3356570",
    "3633568",
    "3477246",
    "3382415",
    "3701934",
    "3434239",
    "3174447",
    "3512859",
    "3148617",
    "3447818",
    "3450696",
    "2736032",
    "3287541",
    "3327122",
    "3283018",
    "2877623",
    "4167049",
    "3382434",
    "4324414",
    "3457506",
    "3633499",
    "3450645",
    "3447719",
    "3486834",
    "3503648",
    "3503694",
    "3478240",
    "3516991",
    "3148618",
    "3865497",
    "4507684",
    "4507686",
    "4507687",
    "4507688",
    "4507689",
    "4507690",
    "2928839",
    "3831823",
    "3585890",
    "4428986",
    "3896058",
    "3815244",
    "3859181",
    "3701858",
    "3742111",
    "3068940",
    "3516183",
    "3524918",
    "3516283",
    "3398445",
    "2962458",
    "4229175",
    "4364245",
    "3826965",
    "4209585",
    "2537446",
    "3779894",
    "3764014",
    "3895933",
    "3831389",
    "3826827",
    "3691401",
    "3226783",
    "3887959",
    "4184953",
    "4154331",
    "4182899",
    "3841359",
    "3859429",
    "3843534",
    "3826901",
    "4114056",
    "4113945",
    "4182368",
    "3961312",
    "4114067",
    "4505065",
    "4505092",
    "4505076",
    "3888018",
    "4114070",
    "4166226",
    "3872364",
    "3885522",
    "3824429",
    "3826802",
    "3873374",
    "3815713",
    "4114602",
    "3865403",
    "3920424",
    "3565972",
    "1935225",
    "2901454",
    "3685938",
    "3841348",
    "3765008",
    "4122787",
    "2422586",
    "4103094",
    "4100761",
    "3426332",
    "4229197",
    "3010512",
    "2393020",
    "4074480",
    "3827066",
    "3578188",
    "3789599",
    "3819708",
    "3937944",
    "3937947",
    "3777298",
    "3671677",
    "3544797",
    "3886573",
    "1550891",
    "3679317",
    "3955461",
    "4100092",
    "2560379",
    "3492853",
    "3653524",
    "4103118",
    "1224606",
    "1314738",
    "1296559",
    "1541975",
    "1353931",
    "1424413",
    "3610950",
    "3551649",
    "1462858",
    "1284603",
    "1372695",
    "1385406",
    "1229834",
    "4087297",
    "1372697",
    "1858469",
    "3498629",
    "4249232",
    "1543679",
    "1350543",
    "1543694",
    "2760606",
    "4228176",
    "2284427",
    "2287283",
    "1740632",
    "1543972",
    "1543945",
    "1390375",
    "2926015",
    "3625165",
    "1504693",
    "1426888",
    "1841117",
    "2573972",
    "3685702",
    "3776763",
    "3578401",
    "3855202",
    "4229173",
    "4354815",
    "2955124",
    "1378599",
    "4342407",
    "1543995",
    "4190260",
    "3927964",
    "1376548",
    "3491285",
    "1545974",
    "4105338",
    "332228",
    "1541713",
    "2736333",
    "3274251",
    "4032766",
    "3644346",
    "2795230",
    "3498631",
    "3749635",
    "3906128",
    "4119970",
    "3627530",
    "3588064",
    "2444001",
    "4145435",
    "3077627",
    "4333428",
    "4406103",
    "3971740",
    "3971756",
    "3671388",
    "2978037",
    "1479458",
    "1541326",
    "1295919",
    "4138927",
    "3493141",
    "4523018",
    "4505014",
    "4522918",
    "3353303",
    "3272925",
    "3635167",
    "3876220",
    "4387209",
    "4518793",
    "4530594",
    "4522345",
    "4531274",
    "4520052",
    "4523219",
    "4529174",
    "4362516",
    "4318360",
    "4215913",
    "3912565",
    "3933178",
    "3088707",
    "4165048",
    "3854478",
    "3442135",
    "2015341",
    "1987726",
    "4182997",
    "4185365",
    "2928249",
    "4558033",
    "4309292",
    "4556841",
    "2400421",
    "2547055",
    "2419810",
    "1546816",
    "1545775",
    "1545760",
    "1545747",
    "1545753",
    "1546812",
    "1545766",
    "1545743",
    "1545777",
    "1432912",
    "1479023",
    "1448336",
    "1426918",
    "1545778",
    "1384994",
    "1597340",
    "1540949",
    "1546819",
    "1542278",
    "1546817",
    "1195863",
    "1386884",
    "1541784",
    "1541785",
    "1384991",
    "1546811",
    "1545773",
    "1545776",
    "1545781",
    "1545749",
    "1545752",
    "1545754",
    "1545764",
    "1545757",
    "1547349",
    "1545744",
    "1546428",
    "1523505",
    "1398527",
    "1545746",
    "1546423",
    "1545770",
    "1545769",
    "1546424",
    "1545750",
    "1549857",
    "1547135",
    "1545748",
    "1545767",
    "1545772",
    "1545756",
    "1545763",
    "1546425",
    "1545768",
    "1545780",
    "1545774",
    "1545741",
    "1548550",
    "1545765",
    "1548547",
    "1242735",
    "2577889",
    "2785009",
    "1384987",
    "4182974",
    "3855126",
    "4559253",
    "4559638",
    "4559609",
    "4559724",
    "4559289",
    "4559621",
    "4558048",
    "4558142",
    "3477386",
    "2820726",
    "2769067",
    "2783633",
    "2845124",
    "2845117",
    "2857954",
    "2845130",
    "2845659",
    "4561656",
    "4561682",
    "4561685",
    "4561883",
    "3479023",
    "4474740",
    "4102238",
    "4306049",
    "3979141",
    "4040267",
    "4474504",
    "4465483",
    "4554752",
    "4556838",
    "1546519",
    "3447150",
    "3595911",
    "3632885",
    "3560278",
    "3644605",
    "4569271",
    "4569302",
    "4569327",
    "4569403",
    "4093994",
    "4406985",
    "2769035",
    "4567236",
    "4567237",
    "4567238",
    "4567239",
    "4567240",
    "4567244",
    "4567246",
    "4567247",
    "4567248",
    "4571290",
    "4567249",
    "4569493",
    "4569184",
    "4569478",
    "4538154",
    "3353195",
    "3274024",
    "3353269",
    "3040582",
    "3194317",
    "3231825",
    "3213043",
    "3220677",
    "3142633",
    "3202992",
    "3293280",
    "3172123",
    "3353197",
    "3405749",
    "3248069",
    "3169392",
    "3265611",
    "4292214",
    "1550422",
    "4323342",
    "4324363",
    "4565298",
    "1184458",
    "4365729",
    "3304867",
    "3304775",
    "3294689",
    "3304814",
    "1317481",
    "2458605",
    "4567250",
    "4576826",
    "4577025",
    "4577045",
    "4567245",
    "4577087",
    "3057092",
    "2746580",
    "2369910",
    "2746698",
    "3069470",
    "2748342",
    "3057098",
    "2746568",
    "2746583",
    "2758074",
    "2369905",
    "2695325",
    "2453028",
    "2748337",
    "2746573",
    "3057318",
    "2707461",
    "3121418",
    "2577526",
    "2746716",
    "2631756",
    "2746600",
    "3304682",
    "3304753",
    "3294573",
    "3304815",
    "3405623",
    "1664999",
    "4077003",
    "3250807",
    "4015715",
    "1398522",
    "4394894",
    "4567242",
    "4558005",
    "2072643",
    "4297070",
    "4586950",
    "3679346",
    "4586964",
    "4586967",
    "3634490",
    "3497877",
    "4340832",
    "4278398",
    "4559679",
    "4558021",
    "4586979",
    "4030630",
    "4592473",
    "4592463",
    "4592464",
    "4592479",
    "4127272",
    "2872255",
    "4145509",
    "3250838",
    "4527091",
    "4596955",
    "4518666",
    "1635495",
    "4400943",
    "4360207",
    "2998213",
    "1542241",
    "1622528",
    "2856563",
    "1569780",
    "4603180",
    "4601883",
    "4601953",
    "3893929",
    "4440137",
    "1670359",
    "3525826",
    "1819487",
    "3172092",
    "3711549",
    "3612042",
    "3997955",
    "4605833",
    "4605840",
    "3545443",
    "4310657",
    "3879434",
    "3035115",
    "4317367",
    "4020252",
    "3430976",
    "4089910",
    "4380147",
    "4316721",
    "3866295",
    "3964857",
    "4383645",
    "3576208",
    "3679576",
    "3960169",
    "2925980",
    "3433933",
    "4599032",
    "4599206",
    "4608298",
    "4608318",
    "4608301",
    "4586970",
    "4605846",
    "4608328",
    "4608334",
    "4576736",
    "4601993",
    "4608343",
    "4608346",
    "4597256",
    "4599070",
    "4608350",
    "4596926",
    "4559779",
    "4608353",
    "4597271",
    "4605813",
    "4605812",
    "4441701",
    "1968116",
    "2022186",
    "1469210",
    "1670560",
    "1657916",
    "4149623",
    "4496825",
    "3495494",
    "3978287",
    "3743250",
    "3879221",
    "3482495",
    "3879443",
    "3578400",
    "4089432",
    "3424295",
    "4546510",
    "1550937",
    "1620656",
    "1834113",
    "2757782",
    "3748930",
    "3249996",
    "1541201",
    "4247857",
    "3706669",
    "3706510",
    "3203626",
    "4504637",
    "4506756",
    "4471084",
    "4119500",
    "1681077",
    "4094110",
    "4516650",
    "3649801",
    "3494948",
    "3006872",
    "4613605",
    "4349175",
    "4613610",
    "4613612",
    "4427090",
    "4612827",
    "4612941",
    "4613614",
    "4612947",
    "4613634",
    "4612966",
    "4613655",
    "4613660",
    "4612763",
    "4613661",
    "4612836",
    "4613055",
    "4613662",
    "4611536",
    "4613663",
    "4348270",
    "4613664",
    "4321453",
    "4612632",
    "4613674",
    "4613675",
    "4613676",
    "4612878",
    "4613677",
    "3713904",
    "4349172",
    "3834843",
    "3680564",
    "4209604",
    "3989547",
    "2928069",
    "4613656",
    "4616787",
    "4616798",
    "4616314",
    "4613645",
    "4616492",
    "4321339",
    "2444538",
    "1714832",
    "4481803",
    "1693983",
    "1707322",
    "4324389",
    "4620333",
    "4620112",
    "4619979",
    "4620005",
    "4616327",
    "1379743",
    "1804717",
    "1748775",
    "1839240",
    "1812147",
    "1545402",
    "4424269",
    "1635507",
    "1670554",
    "1570955",
    "1640907",
    "1707326",
    "1658070",
    "1631813",
    "1657491",
    "1878053",
    "1767934",
    "1635498",
    "2444478",
    "4105403",
    "4487251",
    "3270745",
    "3957094",
    "3398415",
    "3836791",
    "4225348",
    "4161771",
    "3743286",
    "3969033",
    "2711557",
    "3641623",
    "3987859",
    "4625240",
    "4611537",
    "4611538",
    "4625244",
    "4625285",
    "4622851",
    "4625294",
    "4622578",
    "4622579",
    "4622580",
    "4622581",
    "4622797",
    "3442417",
    "1779941",
    "1550872",
    "1657742",
    "1874082",
    "1540974",
    "1874030",
    "1628205",
    "1645384",
    "1801377",
    "1773060",
    "3714744",
    "1687817",
    "1543226",
    "1650153",
    "1660775",
    "1842200",
    "1635494",
    "3997954",
    "1785430",
    "1768377",
    "1797559",
    "1860112",
    "1670559",
    "1650098",
    "3495330",
    "1542231",
    "4248181",
    "3771141",
    "3845254",
    "4326868",
    "4185602",
    "4119459",
    "4504608",
    "4603383",
    "4141633",
    "4105553",
    "4141603",
    "4118772",
    "3520671",
    "3698706",
    "1670556",
    "3645737",
    "1841172",
    "1722536",
    "1504706",
    "1748781",
    "1748782",
    "1645382",
    "1968211",
    "1311427",
    "1785433",
    "1657741",
    "1665939",
    "1670375",
    "1804952",
    "1707317",
    "1570952",
    "1804958",
    "1834134",
    "2019589",
    "3090809",
    "1785434",
    "1828112",
    "1874013",
    "2724064",
    "1542220",
    "1635509",
    "1687815",
    "1670378",
    "1549858",
    "1785429",
    "1541973",
    "1818947",
    "1740214",
    "1383171",
    "1546949",
    "1678893",
    "1963403",
    "1631816",
    "1501116",
    "1478584",
    "1548455",
    "1834091",
    "1645385",
    "1635501",
    "1548460",
    "4492093",
    "1456244",
    "1903652",
    "1670377",
    "2392593",
    "1543231",
    "1635504",
    "1547352",
    "1740624",
    "1812151",
    "1642786",
    "1645512",
    "1376546",
    "1384974",
    "1670362",
    "1548456",
    "1708214",
    "1635505",
    "1748778",
    "1670380",
    "1546960",
    "1544406",
    "1501119",
    "1542225",
    "2392613",
    "1770161",
    "1541196",
    "2589773",
    "1635499",
    "1748783",
    "1874061",
    "4627633",
    "4627706",
    "4627837"
]