[
    "4113643",
    "3294850",
    "3281463",
    "4113641",
    "3054242",
    "3612702",
    "3707494",
    "4113789",
    "4236779",
    "4493662",
    "3043062",
    "3281480",
    "2728104",
    "3484458",
    "3616391",
    "4246049",
    "4294680",
    "3761680",
    "3784375",
    "4284363",
    "4371211",
    "3739785",
    "3282933",
    "3270806",
    "3763016",
    "3473131",
    "3380937",
    "3276703",
    "3281442",
    "3277232",
    "3263374",
    "2797854",
    "3275192",
    "3456247",
    "4304743",
    "3509250",
    "3264236",
    "3193548",
    "3614983",
    "2728105",
    "3264424",
    "3275210",
    "3382703",
    "2768806",
    "4113933",
    "3616419",
    "3511117",
    "4236788",
    "4114695",
    "4113645",
    "4151699",
    "3116266",
    "3762982",
    "3442021",
    "3765521",
    "4113793",
    "3275198",
    "3296544",
    "4488808",
    "3263938",
    "4318824",
    "3758051",
    "4367358",
    "3509300",
    "4236780",
    "3294849",
    "3455192",
    "3264259",
    "3464980",
    "3614820",
    "3481213",
    "3263370",
    "4340891",
    "3591175",
    "3912599",
    "3789331",
    "3641778",
    "3724714",
    "4489092",
    "3275094",
    "3281546",
    "3382987",
    "4493658",
    "4488396",
    "3612751",
    "2797856",
    "3054241",
    "4156821",
    "3124363",
    "2895739",
    "3431673",
    "3481428",
    "3276702",
    "3275188",
    "3882843",
    "3383067",
    "4113931",
    "3616395",
    "4248403",
    "3476930",
    "4318847",
    "3723354",
    "4367975",
    "3483870",
    "3431423",
    "3287216",
    "3431159",
    "4113642",
    "4367997",
    "3485891",
    "4113941",
    "3275218",
    "3760506",
    "3349035",
    "4113791",
    "4151748",
    "3683388",
    "3824452",
    "3476855",
    "4306094",
    "3789366",
    "4305044",
    "3063874",
    "3707492",
    "2813555",
    "3264260",
    "3763091",
    "3349039",
    "3723555",
    "4488749",
    "3456315",
    "4367463",
    "3729604",
    "3882847",
    "3193552",
    "2811687",
    "2768802",
    "3746745",
    "3773675",
    "3755925",
    "2728357",
    "3436406",
    "4305061",
    "3707489",
    "4413525",
    "4113937",
    "3598880",
    "4547176",
    "3725876",
    "3723804",
    "3696695",
    "3765535",
    "4447868",
    "3789334",
    "4236785",
    "3441855",
    "3349485",
    "3601137",
    "4447884",
    "4367999",
    "2762054",
    "4367643",
    "3377689",
    "3758018",
    "4113790",
    "3130813",
    "3456321",
    "3723803",
    "4390376",
    "4248328",
    "3760077",
    "3509176",
    "3456357",
    "4371189",
    "4448065",
    "3270760",
    "3724715",
    "3465002",
    "3695537",
    "3765525",
    "4568577",
    "4113666",
    "4572900",
    "4327510",
    "3275237",
    "3509036",
    "3760746",
    "4493645",
    "3264066",
    "3264467",
    "4284360",
    "3511560",
    "3470954",
    "3464911",
    "2901858",
    "4253063",
    "3464885",
    "3054292",
    "3765494",
    "3759767",
    "3768386",
    "2974691",
    "3470952",
    "4452348",
    "3758377",
    "3746744",
    "3284704",
    "2974792",
    "3620322",
    "2895746",
    "4113938",
    "3762786",
    "4413543",
    "3644653",
    "4151287",
    "4246065",
    "3480866",
    "3522548",
    "4493649",
    "3754424",
    "3615975",
    "4368007",
    "4452136",
    "2768799",
    "3284702",
    "3721542",
    "2768803",
    "3882842",
    "2797859",
    "4253436",
    "3287542",
    "3753703",
    "3063876",
    "3193555",
    "3456249",
    "3763094",
    "3484361",
    "3594771",
    "3219705",
    "3382702",
    "4390388",
    "3866370",
    "3431183",
    "4253456",
    "3464871",
    "4248442",
    "3771191",
    "3680533",
    "4155500",
    "4155160",
    "4236777",
    "4246179",
    "3436294",
    "3778862",
    "3264490",
    "4328830",
    "3631433",
    "3768425",
    "4306091",
    "4113788",
    "3604037",
    "4154397",
    "3788989",
    "3284706",
    "4493741",
    "3768264",
    "3721566",
    "2927896",
    "2768808",
    "3759333",
    "4490336",
    "4113669",
    "4367382",
    "3231462",
    "3758050",
    "4368040",
    "4488399",
    "3276991",
    "2974699",
    "2974761",
    "4209038",
    "3456303",
    "3580742",
    "3755119",
    "4283712",
    "3582919",
    "4368003",
    "3705058",
    "3473300",
    "4107199",
    "4367648",
    "3259405",
    "3761565",
    "3746743",
    "3724595",
    "2790355",
    "3826697",
    "3619443",
    "3908522",
    "4368005",
    "4390382",
    "3473322",
    "4236781",
    "4113667",
    "3913799",
    "2728103",
    "3476557",
    "4151855",
    "3377548",
    "3451395",
    "3708260",
    "4236789",
    "4249229",
    "3511512",
    "3349399",
    "3335956",
    "2986567",
    "4584890",
    "3431383",
    "3295012",
    "2865174",
    "4493734",
    "3321682",
    "3431218",
    "3768689",
    "3431359",
    "3754536",
    "4306089",
    "3474412",
    "3193549",
    "4390381",
    "3768380",
    "3760120",
    "3263994",
    "4246188",
    "4114574",
    "2813429",
    "3769816",
    "3830864",
    "4168486",
    "3470162",
    "4167645",
    "2901840",
    "4390373",
    "4371328",
    "3321683",
    "4113670",
    "4167615",
    "3377611",
    "4151297",
    "4155449",
    "3263939",
    "4156664",
    "3382697",
    "2813411",
    "3759578",
    "2782241",
    "3882846",
    "2768805",
    "3826418",
    "3619456",
    "3723682",
    "3761590",
    "3436790",
    "4390375",
    "3759293",
    "3277052",
    "3193553",
    "3467954",
    "3069991",
    "3489816",
    "3282060",
    "4236796",
    "3054293",
    "3908559",
    "3723899",
    "4367644",
    "2782239",
    "3771386",
    "3582893",
    "3481323",
    "4151285",
    "3459201",
    "3483214",
    "3753341",
    "3380990",
    "3760029",
    "3509218",
    "4345826",
    "4488397",
    "3765328",
    "2762064",
    "2945162",
    "3382849",
    "2865188",
    "4168431",
    "3349036",
    "2728356",
    "3695568",
    "3349296",
    "3763088",
    "3771498",
    "2974645",
    "4151293",
    "2728037",
    "4448100",
    "4490543",
    "3594902",
    "3696726",
    "4390371",
    "3296764",
    "3912172",
    "3893886",
    "3913796",
    "2768800",
    "3436427",
    "3219519",
    "3753671",
    "4490740",
    "4553219",
    "4114589",
    "3912175",
    "3762787",
    "3430532",
    "4248255",
    "4368001",
    "2895384",
    "4253447",
    "4328766",
    "3691458",
    "4367647",
    "3765291",
    "3763026",
    "4284358",
    "3684052",
    "3693461",
    "3456242",
    "3755107",
    "3721499",
    "4236792",
    "4248278",
    "4103486",
    "3765522",
    "3760047",
    "4429543",
    "3639395",
    "3378628",
    "4547063",
    "3456309",
    "3766607",
    "3377530",
    "4413274",
    "4448092",
    "4329205",
    "4450453",
    "4253318",
    "3725777",
    "3511445",
    "3470155",
    "4168353",
    "4413563",
    "3455893",
    "3768304",
    "3436396",
    "4452222",
    "4450331",
    "3763069",
    "2974702",
    "3380994",
    "3912562",
    "3476513",
    "4248494",
    "3754921",
    "4547066",
    "2762059",
    "3455880",
    "4252613",
    "3473147",
    "4249266",
    "4248490",
    "3753351",
    "3765550",
    "3281499",
    "3831871",
    "3680603",
    "3455758",
    "4590969",
    "4309070",
    "3696790",
    "3697085",
    "3436760",
    "4151629",
    "4555495",
    "4577450",
    "3755827",
    "3726191",
    "3511421",
    "4236791",
    "4236773",
    "3771461",
    "3758479",
    "4113668",
    "3277003",
    "4248481",
    "3606820",
    "2827140",
    "4168459",
    "3276616",
    "3457414",
    "4461822",
    "3696761",
    "3264213",
    "4318121",
    "4168413",
    "2813440",
    "3381015",
    "2728358",
    "3755935",
    "3481362",
    "3282059",
    "3594889",
    "2762058",
    "4167619",
    "4252623",
    "4493295",
    "3778836",
    "3760016",
    "3765520",
    "4553138",
    "4490166",
    "2865159",
    "4156667",
    "3594819",
    "2811713",
    "4154335",
    "4318117",
    "4448095",
    "4487975",
    "4493306",
    "3765500",
    "4253242",
    "2762068",
    "4168334",
    "4113646",
    "4236776",
    "3287193",
    "3457057",
    "3431244",
    "2728354",
    "3465067",
    "3431445",
    "3763851",
    "3746797",
    "2782245",
    "3832021",
    "3511388",
    "4487992",
    "2927897",
    "3447764",
    "2915274",
    "4156891",
    "3482993",
    "3778865",
    "4319028",
    "3765340",
    "3753702",
    "2755802",
    "4156896",
    "3068837",
    "4429403",
    "3431368",
    "3264468",
    "3282944",
    "3765388",
    "4390374",
    "3616397",
    "4284375",
    "4491176",
    "3349096",
    "4304757",
    "3483888",
    "3762565",
    "4368041",
    "3294934",
    "3705025",
    "2915293",
    "3470864",
    "3723240",
    "3480859",
    "4367364",
    "2762092",
    "4318118",
    "4104844",
    "4248128",
    "3193554",
    "3470151",
    "3631421",
    "3219532",
    "4236784",
    "4113674",
    "2899341",
    "3771207",
    "2768807",
    "3760846",
    "4304750",
    "4488026",
    "4305067",
    "4309036",
    "3281641",
    "3441963",
    "3338220",
    "3760058",
    "4114577",
    "4154435",
    "3282036",
    "3264107",
    "3476672",
    "3476496",
    "3768490",
    "3382696",
    "3760054",
    "3281519",
    "3470142",
    "2782247",
    "3761485",
    "3476723",
    "4113792",
    "3284712",
    "4248492",
    "3382729",
    "3762505",
    "3231507",
    "3771467",
    "3796831",
    "2865151",
    "3348950",
    "4151289",
    "3778867",
    "4371215",
    "3723342",
    "2762055",
    "3476632",
    "3264001",
    "3276994",
    "3455778",
    "2915201",
    "3765305",
    "3193543",
    "4236772",
    "4253206",
    "3430971",
    "4168490",
    "3792232",
    "3912176",
    "4413703",
    "4113935",
    "3456286",
    "3441994",
    "3116290",
    "3349244",
    "3340270",
    "4413553",
    "3822168",
    "3723681",
    "3084428",
    "3349252",
    "3912169",
    "3470963",
    "4447761",
    "3483299",
    "3982281",
    "2901882",
    "3616024",
    "3481546",
    "3762674",
    "3929635",
    "4113939",
    "3763807",
    "3349201",
    "3476690",
    "4248505",
    "3456239",
    "3821712",
    "2865194",
    "4248194",
    "3349401",
    "4155582",
    "4447589",
    "3377730",
    "3724594",
    "3383096",
    "3383100",
    "2901874",
    "3729573",
    "4236797",
    "3624253",
    "3758545",
    "4105029",
    "4304793",
    "3219632",
    "3765303",
    "4155153",
    "3476662",
    "3287573",
    "4447820",
    "3464900",
    "4236800",
    "2895403",
    "3383128",
    "4236771",
    "4214144",
    "3481376",
    "4447677",
    "3824356",
    "4168395",
    "4168365",
    "3912177",
    "3753328",
    "4168347",
    "3481300",
    "3457422",
    "3480854",
    "3659096",
    "3380977",
    "3831547",
    "3431261",
    "3348922",
    "3696981",
    "4248510",
    "3456982",
    "3912228",
    "3912170",
    "3643651",
    "4248299",
    "3881903",
    "3695693",
    "3264491",
    "3380904",
    "3484633",
    "3484428",
    "3287182",
    "3624302",
    "3339876",
    "2895395",
    "3750893",
    "3282042",
    "3281700",
    "3193547",
    "3349400",
    "3287368",
    "3349009",
    "3754103",
    "4103306",
    "2768798",
    "3673988",
    "3882839",
    "3469988",
    "2811706",
    "3759467",
    "3275241",
    "3382699",
    "3773688",
    "3456441",
    "3476947",
    "4340209",
    "3912174",
    "3465010",
    "4145014",
    "3779488",
    "3264237",
    "3338219",
    "3470168",
    "3483384",
    "3697005",
    "4151288",
    "3282035",
    "3726834",
    "2870298",
    "3453551",
    "3696799",
    "4168439",
    "3322419",
    "4236786",
    "2895373",
    "3282047",
    "3349338",
    "3349333",
    "2768810",
    "3349250",
    "3277027",
    "3282048",
    "3511509",
    "4167625",
    "3459038",
    "3726878",
    "2809991",
    "3484311",
    "4294716",
    "3382875",
    "3768460",
    "4368037",
    "4114827",
    "3285145",
    "3069993",
    "3825809",
    "3789328",
    "3464993",
    "3481207",
    "3773177",
    "3763825",
    "3757289",
    "3753352",
    "3760065",
    "3753333",
    "3481331",
    "3470128",
    "3464974",
    "3483511",
    "3753348",
    "3789123",
    "3926916",
    "3483558",
    "3382716",
    "3483002",
    "3455271",
    "3481537",
    "3619380",
    "3431674",
    "3756397",
    "3511416",
    "3287587",
    "3785005",
    "3724688",
    "3643805",
    "3944340",
    "3282043",
    "3326370",
    "4107873",
    "3753332",
    "3464896",
    "3282039",
    "3453618",
    "4253205",
    "3778387",
    "3456332",
    "3270662",
    "3673987",
    "3193546",
    "3591237",
    "3348912",
    "3760606",
    "3465005",
    "4155511",
    "3470138",
    "3789338",
    "3484418",
    "3765336",
    "2768811",
    "2810021",
    "2810000",
    "3382890",
    "2782240",
    "3695679",
    "3484411",
    "3830021",
    "3453620",
    "3780731",
    "3470152",
    "2768804",
    "3455220",
    "3753347",
    "2967080",
    "3930988",
    "3912173",
    "3282865",
    "3326638",
    "3872257",
    "2813677",
    "3509223",
    "3601500",
    "3276704",
    "3754168",
    "4168375",
    "3765526",
    "2755803",
    "3693576",
    "3779475",
    "3436349",
    "3282045",
    "3832284",
    "3378666",
    "3725957",
    "3765511",
    "3765400",
    "3219781",
    "2762057",
    "3750996",
    "3473231",
    "3484322",
    "3739788",
    "3464934",
    "3116322",
    "2966891",
    "3456265",
    "3620203",
    "3760574",
    "3759684",
    "3759743",
    "3482998",
    "3070643",
    "3826208",
    "3771511",
    "2762056",
    "3755729",
    "4151286",
    "2967357",
    "3321785",
    "3455928",
    "2801686",
    "3277053",
    "4247574",
    "4236794",
    "4103359",
    "4093515",
    "3472135",
    "4095779",
    "3322259",
    "3470159",
    "3455929",
    "3639341",
    "3750901",
    "3761379",
    "3778517",
    "3789392",
    "3259415",
    "3382700",
    "3725637",
    "3382695",
    "3758053",
    "3348942",
    "2927907",
    "3756217",
    "4168323",
    "3322260",
    "4105413",
    "3483679",
    "3511493",
    "4168513",
    "3431671",
    "4248332",
    "3431204",
    "3456276",
    "3470937",
    "3436395",
    "3287209",
    "3893887",
    "3459113",
    "3436778",
    "3760603",
    "2813689",
    "3284711",
    "3327425",
    "3698595",
    "3760020",
    "3455914",
    "3729569",
    "2801685",
    "3740248",
    "2813699",
    "3455767",
    "3464906",
    "3761943",
    "2910424",
    "3070819",
    "2811642",
    "4105373",
    "3893889",
    "3796826",
    "3734075",
    "2768801",
    "4009345",
    "3754420",
    "2813672",
    "3734087",
    "3773166",
    "2801659",
    "3724687",
    "3382718",
    "3619403",
    "3511561",
    "4151298",
    "3683794",
    "3695609",
    "3762617",
    "2782235",
    "2782238",
    "3349336",
    "2782234",
    "4151295",
    "3476936",
    "3753331",
    "3349491",
    "3470134",
    "3349018",
    "3483478",
    "4093517",
    "3470226",
    "3464929",
    "3276617",
    "3349295",
    "2728355",
    "2868974",
    "3760708",
    "3349034",
    "3480862",
    "3696854",
    "2813436",
    "3472123",
    "3219587",
    "3683795",
    "2728100",
    "3695508",
    "3833859",
    "3459117",
    "3481388",
    "3697464",
    "3481263",
    "3481414",
    "3721620",
    "3723545",
    "3600793",
    "2895495",
    "2865182",
    "3068838",
    "3723485",
    "3327426",
    "2895397",
    "3695669",
    "3696372",
    "4151294",
    "3663206",
    "2865196",
    "3327137",
    "3765517",
    "3481530",
    "3765516",
    "3349249",
    "3455686",
    "3762099",
    "3214955",
    "3383254",
    "3485124",
    "3284709",
    "3459041",
    "3663199",
    "3480902",
    "3773178",
    "3773170",
    "3773163",
    "3663204",
    "2768809",
    "2895379",
    "2728359",
    "2895374",
    "3130749",
    "3662197",
    "3695596",
    "3695620",
    "3695703",
    "3598961",
    "3879457",
    "4151292",
    "3259443",
    "3757431",
    "3321877",
    "3470158",
    "3458777",
    "2868966",
    "3068840",
    "3470173",
    "3484407",
    "3436416",
    "3697767",
    "3470015",
    "3771791",
    "3693544",
    "3282912",
    "3455897",
    "3721523",
    "3349369",
    "3349293",
    "3380960",
    "3349294",
    "3680482",
    "3380935",
    "3287231",
    "2810009",
    "2895371",
    "3070911",
    "3116314",
    "3609338",
    "3116326",
    "3321659",
    "3339457",
    "3276993",
    "3706856",
    "3779333",
    "3780762",
    "3945061",
    "3607032",
    "3643576",
    "3830020",
    "3833894",
    "4103828",
    "4103392",
    "4107861",
    "4107948",
    "4114345",
    "4151296",
    "4155430",
    "4154344",
    "4155475",
    "3349073",
    "3455925",
    "3765392",
    "3176378",
    "3287244",
    "3349251",
    "3754908",
    "3436892",
    "3773679",
    "2801660",
    "4105393",
    "2868962",
    "3287286",
    "3469993",
    "3382728",
    "3473247",
    "3383246",
    "2782242",
    "3176384",
    "3287344",
    "3276738",
    "3696889",
    "3511438",
    "3912171",
    "3619894",
    "3878882",
    "3349253",
    "3726038",
    "3285430",
    "3281543",
    "3463994",
    "3349536",
    "3276971",
    "3287545",
    "3349245",
    "2902233",
    "3603505",
    "3696808",
    "2996577",
    "2967377",
    "3594666",
    "3231520",
    "2782236",
    "3071060",
    "3219693",
    "2811722",
    "3470004",
    "3455923",
    "3281525",
    "3068842",
    "2782231",
    "2797846",
    "3349065",
    "2971440",
    "3455901",
    "3455094",
    "3476711",
    "3492626",
    "3447837",
    "3382978",
    "3603318",
    "3706289",
    "3436295",
    "3436919",
    "3746796",
    "3762551",
    "3758937",
    "3763246",
    "3765401",
    "3765372",
    "3771242",
    "3771255",
    "3755153",
    "3789388",
    "3826840",
    "3913798",
    "3926952",
    "3926955",
    "3944262",
    "3944367",
    "3778444",
    "3965305",
    "3965304",
    "3796838",
    "3762985",
    "3872662",
    "3879517",
    "4093514",
    "4103325",
    "4103608",
    "4104833",
    "4103668",
    "4105369",
    "4105328",
    "4105025",
    "4107214",
    "4107913",
    "4104528",
    "4155502",
    "4155515",
    "4155424",
    "4156785",
    "4236783",
    "4236790",
    "3296542",
    "3470948",
    "3778385",
    "3483443",
    "3754195",
    "3287304",
    "4105561",
    "3913797",
    "3349520",
    "3276969",
    "3483447",
    "3763253",
    "4105588",
    "3768547",
    "3470118",
    "3768078",
    "4114371",
    "3483485",
    "3483487",
    "3773677",
    "2762066",
    "3436397",
    "3465007",
    "2941892",
    "3349187",
    "3327405",
    "3349095",
    "2910664",
    "3755052",
    "2782246",
    "3470146",
    "3603491",
    "3483534",
    "3792225",
    "3382712",
    "3193544",
    "2782232",
    "2801665",
    "3349247",
    "3907258",
    "3484433",
    "3382698",
    "3287538",
    "3270722",
    "3193551",
    "3382717",
    "2967168",
    "2868982",
    "3762534",
    "3453558",
    "2910656",
    "3382735",
    "2967135",
    "3455681",
    "3453621",
    "3815293",
    "3726822",
    "3382736",
    "3483550",
    "3383129",
    "3282717",
    "3455662",
    "3436923",
    "3455810",
    "3483696",
    "2801664",
    "3326565",
    "3349334",
    "3349301",
    "2868332",
    "3193545",
    "2782237",
    "3453566",
    "3453619",
    "3322811",
    "3430658",
    "2762063",
    "2762062",
    "3219545",
    "2811666",
    "3282874",
    "2762065",
    "3430595",
    "2910654",
    "2910655",
    "3603047",
    "3605239",
    "3605250",
    "3603446",
    "3483768",
    "3483849",
    "3276722",
    "2762067",
    "3435863",
    "3483931",
    "2967349",
    "3436932",
    "3726728",
    "3723767",
    "3435999",
    "3483878",
    "2967096",
    "3751849",
    "3750988",
    "2915227",
    "2967050",
    "3483905",
    "3754563",
    "3757423",
    "3757384",
    "3762575",
    "3763868",
    "3765385",
    "3773175",
    "3773670",
    "3755148",
    "3765331",
    "3771270",
    "3755788",
    "3784581",
    "3785022",
    "3758753",
    "3831715",
    "3789325",
    "3881482",
    "3883379",
    "3767591",
    "3796827",
    "3762468",
    "3754886",
    "3913795",
    "3916689",
    "3947056",
    "3949709",
    "3768687",
    "3753330",
    "3872830",
    "3873107",
    "3932086",
    "3762614",
    "3872660",
    "3872666",
    "3893888",
    "4001249",
    "3882547",
    "3872661",
    "3873044",
    "3754881",
    "4033440",
    "3882546",
    "3907559",
    "4103054",
    "4103058",
    "4105532",
    "4103303",
    "4103469",
    "4105334",
    "4107957",
    "4107288",
    "4107298",
    "4107417",
    "4107249",
    "4107312",
    "4107259",
    "3755986",
    "3785014",
    "3767822",
    "4141771",
    "4151290",
    "4151291",
    "4155376",
    "4156800",
    "4156665",
    "4156900",
    "3768694",
    "4168380",
    "4209037",
    "3879774",
    "3965108",
    "4236782",
    "4236787",
    "4236778",
    "3282038",
    "4209034",
    "4209040",
    "4248315",
    "4248318",
    "4246765",
    "4248487",
    "4248325",
    "4249278",
    "4248244",
    "4248373",
    "4246783",
    "4248205",
    "4248266",
    "4248428",
    "4248518",
    "4248153",
    "4248528",
    "4249199",
    "4248286",
    "4249220",
    "4246735",
    "4248464",
    "4249205",
    "4249286",
    "4253147",
    "3947283",
    "4253435",
    "4252593",
    "4261855",
    "3872224",
    "3872664",
    "3872665",
    "2762083",
    "3831486",
    "3820470",
    "3879773",
    "2967134",
    "2966859",
    "2941941",
    "3605081",
    "3875729",
    "3873045",
    "3602135",
    "3753342",
    "3792267",
    "3918061",
    "3482957",
    "3758009",
    "3430659",
    "3482953",
    "3781668",
    "3912229",
    "3949710",
    "3792317",
    "3792254",
    "3918110",
    "4236798",
    "4236799",
    "4236793",
    "4236795",
    "4284374",
    "3575984",
    "3768482",
    "4305028",
    "4305053",
    "4306092",
    "3879757",
    "4306228",
    "3755050",
    "4318120",
    "3827065",
    "3765313",
    "3757038",
    "3751648",
    "4319330",
    "4327411",
    "4327413",
    "4328731",
    "4328842",
    "4328786",
    "4328816",
    "3765314",
    "3765302",
    "3436715",
    "3755094",
    "3824426",
    "3789350",
    "3796828",
    "3918101",
    "4285803",
    "4306236",
    "4305862",
    "4309021",
    "3762573",
    "3775483",
    "3757868",
    "3949706",
    "4340194",
    "3763279",
    "4309043",
    "4309075",
    "4306087",
    "3949712",
    "4345819",
    "4345863",
    "4345865",
    "3882840",
    "3605083",
    "3762502",
    "3762675",
    "3435838",
    "3762673",
    "4137156",
    "4328872",
    "3765292",
    "3789346",
    "4328863",
    "4137344",
    "3753691",
    "4209054",
    "4346027",
    "2797847",
    "4151639",
    "4366512",
    "4365964",
    "4366354",
    "4367486",
    "4009359",
    "4328743",
    "4371226",
    "4368009",
    "4371205",
    "4371208",
    "3949703",
    "3932087",
    "3472163",
    "3831700",
    "3832016",
    "3875715",
    "3762609",
    "3949707",
    "3873109",
    "3872659",
    "3926986",
    "3872658",
    "3778314",
    "4296908",
    "3762789",
    "3873043",
    "2967027",
    "3784345",
    "3754940",
    "3796837",
    "4136922",
    "3771272",
    "3872663",
    "4328808",
    "3907558",
    "3754986",
    "3762790",
    "3762506",
    "3832409",
    "3753257",
    "4319343",
    "3875722",
    "3761673",
    "3762507",
    "3789377",
    "3832157",
    "4390342",
    "4390378",
    "4390379",
    "4390380",
    "4390383",
    "4390384",
    "4390385",
    "4390386",
    "4390387",
    "4390372",
    "4390377",
    "4368019",
    "4367978",
    "4368013",
    "4368015",
    "4368017",
    "3762930",
    "3762553",
    "4009353",
    "4392088",
    "4390348",
    "4392089",
    "3768702",
    "4305815",
    "4209039",
    "3789403",
    "2797851",
    "3605077",
    "3912168",
    "4345840",
    "4345869",
    "4209028",
    "4209035",
    "4413688",
    "3789400",
    "4413713",
    "3823828",
    "3881968",
    "3883284",
    "3881985",
    "4390339",
    "3436722",
    "4429420",
    "4429140",
    "3757817",
    "3768418",
    "4447639",
    "4447895",
    "4448341",
    "4447557",
    "4448086",
    "4447649",
    "4448090",
    "4447590",
    "4447591",
    "4448371",
    "4447592",
    "4448399",
    "4447411",
    "4447593",
    "4448402",
    "4447594",
    "4448059",
    "4447613",
    "4447631",
    "4447532",
    "4447829",
    "3043021",
    "3768804",
    "4450277",
    "4450684",
    "4450282",
    "4450690",
    "4450302",
    "4450442",
    "4448337",
    "4450576",
    "4450454",
    "4450466",
    "4450607",
    "4450272",
    "3287358",
    "4450682",
    "4452131",
    "4450561",
    "4452306",
    "4450564",
    "4452218",
    "4450568",
    "4452141",
    "4450693",
    "4452116",
    "4452365",
    "4452533",
    "4452539",
    "4452540",
    "4452372",
    "4452565",
    "4452373",
    "4452584",
    "4452588",
    "4452706",
    "4452595",
    "4452332",
    "4371327",
    "3814753",
    "3755150",
    "4461826",
    "4461930",
    "3754930",
    "4009350",
    "3768747",
    "3831627",
    "3754873",
    "3946855",
    "3796824",
    "3755101",
    "3873046",
    "4306088",
    "3762620",
    "3762535",
    "3931015",
    "4450744",
    "3762464",
    "3277233",
    "3762792",
    "3382873",
    "3765343",
    "3930970",
    "3349558",
    "3755115",
    "3893850",
    "3778286",
    "3765352",
    "3879610",
    "3382714",
    "3762791",
    "4306256",
    "3873108",
    "3755082",
    "3932085",
    "3873110",
    "3757494",
    "3976303",
    "3789323",
    "3789308",
    "4450614",
    "4461810",
    "3765345",
    "3789316",
    "3789398",
    "3455690",
    "3470008",
    "3469984",
    "3765285",
    "2967183",
    "3796835",
    "3765295",
    "3796833",
    "3789404",
    "3796832",
    "3796829",
    "3873042",
    "4054660",
    "3872829",
    "3789369",
    "3789375",
    "3762615",
    "3327194",
    "3322420",
    "3339360",
    "3339359",
    "2868960",
    "2915285",
    "3785257",
    "3483545",
    "3872667",
    "4450573",
    "4450579",
    "3789362",
    "3431676",
    "3431672",
    "3322322",
    "3455021",
    "3473195",
    "4487966",
    "4488143",
    "4488250",
    "4489804",
    "4488212",
    "4488031",
    "4488051",
    "4491110",
    "4490159",
    "4490762",
    "4489098",
    "4490824",
    "4490343",
    "4487933",
    "3765322",
    "3948493",
    "3948584",
    "4493641",
    "4490774",
    "4490244",
    "4490248",
    "4490357",
    "4490443",
    "4490143",
    "3752649",
    "3831173",
    "4488391",
    "4488392",
    "4488393",
    "4493609",
    "4493611",
    "3764139",
    "4345815",
    "4493659",
    "3762607",
    "4328852",
    "3762608",
    "3755110",
    "4452123",
    "4493629",
    "3117871",
    "3947267",
    "3947333",
    "3947344",
    "3947565",
    "3947684",
    "4452119",
    "3117841",
    "3948527",
    "4452120",
    "3117842",
    "3948479",
    "3947257",
    "3948579",
    "3948580",
    "3117869",
    "3947753",
    "4452701",
    "4447814",
    "3696819",
    "4371167",
    "4448312",
    "3430675",
    "3746836",
    "4429178",
    "3643852",
    "4489799",
    "4488404",
    "4488394",
    "4491138",
    "4488401",
    "4488403",
    "3746837",
    "3947428",
    "4104526",
    "3680469",
    "3756877",
    "3779316",
    "4339858",
    "3762569",
    "4546338",
    "4546531",
    "4547064",
    "2832568",
    "4547136",
    "4547061",
    "4547486",
    "4547128",
    "4547129",
    "4547115",
    "4546343",
    "4547069",
    "3605355",
    "4553220",
    "4553060",
    "4553082",
    "4553105",
    "4553143",
    "4553149",
    "4553154",
    "4552627",
    "4547163",
    "4553104",
    "4553139",
    "4553145",
    "4547095",
    "4547529",
    "4400058",
    "4555338",
    "4547131",
    "4547138",
    "4547139",
    "4547096",
    "3777132",
    "4563379",
    "4345868",
    "4563380",
    "4563545",
    "4563555",
    "4563619",
    "4563620",
    "4563623",
    "4345837",
    "4563624",
    "3752657",
    "4493643",
    "3758039",
    "4568223",
    "4568266",
    "4568588",
    "4568270",
    "4568275",
    "4567970",
    "4568276",
    "4569174",
    "4568279",
    "4568281",
    "4568300",
    "4568361",
    "4568387",
    "4546984",
    "4547117",
    "4547035",
    "4567969",
    "4493627",
    "4567973",
    "4569299",
    "4462201",
    "4572898",
    "4572899",
    "4572901",
    "4577814",
    "4546477",
    "4577730",
    "4578279",
    "4567792",
    "4578311",
    "4578312",
    "4577632",
    "4577793",
    "4577809",
    "4413856",
    "4577954",
    "4577956",
    "4578441",
    "4577957",
    "4577959",
    "4577960",
    "4577372",
    "4568592",
    "3276961",
    "3979236",
    "4568345",
    "4569496",
    "4568581",
    "4568564",
    "4568585",
    "4568601",
    "4493661",
    "4577953",
    "4583702",
    "4583901",
    "4584899",
    "4584918",
    "4584921",
    "4493657",
    "4586904",
    "4568374",
    "4546470",
    "4546474",
    "4546512",
    "4577367",
    "4568595",
    "4568599",
    "3382989",
    "4568324",
    "4568654",
    "4568661",
    "4568620",
    "4568672",
    "4569406",
    "4569422",
    "4568606",
    "4168372",
    "4596760",
    "4596685",
    "4596190",
    "4597676",
    "4596687",
    "4596691",
    "4596706",
    "4596118",
    "4596808",
    "4597538",
    "4597539",
    "4597196",
    "2797858",
    "3753350",
    "3753329",
    "3753346",
    "3753339",
    "3753336",
    "4553181",
    "4568430",
    "4578213",
    "4578271",
    "4345509",
    "4602106",
    "4602151",
    "4602313",
    "4602158",
    "4603035",
    "4602163",
    "4602172",
    "4602278",
    "4603042",
    "4602283",
    "4603025",
    "4603046",
    "4605515",
    "4605533",
    "4605535",
    "4603412",
    "4603415",
    "4603417",
    "4603069",
    "4603418",
    "4603433",
    "4603434",
    "4603052",
    "4603059",
    "3965128",
    "4546472",
    "4602294",
    "4563592",
    "4602303",
    "4602023",
    "4602140",
    "4602168",
    "4602109",
    "4602009",
    "3339877",
    "3771550",
    "4598795",
    "4598796",
    "4596929",
    "4596930",
    "4596931",
    "4596932",
    "4596933",
    "4596934",
    "4597652",
    "4597659",
    "4597662",
    "3457227",
    "3500688",
    "3322482",
    "4545934",
    "4596292",
    "4596592",
    "4567813",
    "3754014",
    "3831822",
    "3771532",
    "4622938",
    "4622941",
    "4547444",
    "4340881",
    "3481394",
    "4371162",
    "3382889",
    "4450679",
    "4452586",
    "4552618",
    "4577955",
    "4584896",
    "4597192",
    "3219838",
    "4209027",
    "3759162",
    "4624490",
    "4624493",
    "4488390"
]