[
    "3224685",
    "3656732",
    "3872646",
    "3750542",
    "2209101",
    "2806989",
    "1435044",
    "2806990",
    "2827675",
    "3170164",
    "1397924",
    "4340625",
    "3224705",
    "3890061",
    "3656733",
    "4336224",
    "2169287",
    "1397927",
    "4008190",
    "3570432",
    "4434049",
    "3496416",
    "3570448",
    "547242",
    "1101959",
    "3791573",
    "3691130",
    "1842479",
    "4347778",
    "2588558",
    "4026531",
    "998833",
    "3918510",
    "1101968",
    "1376584",
    "1438036",
    "4175164",
    "1438363",
    "4026533",
    "2169288",
    "3523711",
    "2863291",
    "2333327",
    "2969561",
    "3517205",
    "2969564",
    "4175233",
    "3175896",
    "2172232",
    "1101967",
    "4025151",
    "3475669",
    "3396430",
    "559178",
    "1382715",
    "2169334",
    "1240016",
    "1382717",
    "3600052",
    "3600055",
    "1469268",
    "1382716",
    "774322",
    "763714",
    "721562",
    "2068314",
    "719203",
    "1575249",
    "3691522",
    "546868",
    "547351",
    "4435723",
    "733518",
    "763720",
    "3519263",
    "547157",
    "1240017",
    "919168",
    "3556230",
    "3519261",
    "633590",
    "3744182",
    "4435982",
    "3348847",
    "970426",
    "4507107",
    "4526442",
    "4621690",
    "4527166",
    "4599211",
    "546797"
]