[
    "3711491",
    "4244299",
    "4356183",
    "3932962",
    "4356263",
    "2299804",
    "4334390",
    "3251096",
    "4334592",
    "4244410",
    "3314868",
    "3711497",
    "3345056",
    "3345139",
    "3220135",
    "3822261",
    "4193105",
    "4396988",
    "3693297",
    "3693276",
    "4356707",
    "3609324",
    "3609325",
    "3939120",
    "3251032",
    "3350430",
    "3350429",
    "3602893",
    "3314863",
    "4356723",
    "4193164",
    "3345052",
    "4205254",
    "4334547",
    "3153283",
    "3901976",
    "4339183",
    "3440565",
    "3396119",
    "3901932",
    "4356722",
    "1462849",
    "4382718",
    "3350421",
    "4385368",
    "2854329",
    "2854330",
    "3709465",
    "2665812",
    "3314854",
    "3709462",
    "4366611",
    "3350432",
    "3374896",
    "3693320",
    "4366175",
    "3975740",
    "4356295",
    "3350431",
    "3606875",
    "4395715",
    "2591106",
    "2299810",
    "3386946",
    "3693313",
    "3314867",
    "3251151",
    "3704559",
    "3350433",
    "4356254",
    "3857340",
    "4339166",
    "3704886",
    "4356269",
    "3396304",
    "3793695",
    "4028478",
    "3609326",
    "4472797",
    "2568508",
    "4341598",
    "4194257",
    "4398745",
    "1965430",
    "4397052",
    "2854328",
    "3245438",
    "4382836",
    "3301648",
    "2702467",
    "3314866",
    "3499629",
    "2854333",
    "4334647",
    "3840490",
    "3602913",
    "4407702",
    "3456584",
    "1369299",
    "3657186",
    "2809568",
    "4398839",
    "2788401",
    "4339100",
    "4356280",
    "2299803",
    "2299811",
    "4088494",
    "4554708",
    "3415036",
    "2702465",
    "4395071",
    "3609328",
    "2776651",
    "1462855",
    "3332718",
    "4339181",
    "2427701",
    "2753550",
    "3609329",
    "3837300",
    "4339180",
    "4163590",
    "3440588",
    "3086810",
    "3251203",
    "3609330",
    "3344867",
    "3917260",
    "3609327",
    "2427703",
    "2848712",
    "4192395",
    "4048317",
    "1462853",
    "3579965",
    "3224274",
    "4339176",
    "1159218",
    "1462880",
    "4029375",
    "4397142",
    "2704614",
    "4341589",
    "1476264",
    "4244439",
    "2887488",
    "2812347",
    "3314871",
    "4396274",
    "2809600",
    "3901977",
    "3374698",
    "3556917",
    "2427700",
    "4417842",
    "3910968",
    "3987709",
    "3785038",
    "3867012",
    "2702466",
    "3183833",
    "3820990",
    "2857540",
    "3902458",
    "4196313",
    "4244429",
    "840632",
    "3843634",
    "2854339",
    "4356701",
    "2427702",
    "1965414",
    "3413814",
    "4382885",
    "3179490",
    "4007776",
    "4356691",
    "3379021",
    "4366371",
    "3556333",
    "3251051",
    "2838343",
    "4278368",
    "3314864",
    "2591100",
    "2801856",
    "2854334",
    "2082755",
    "3843662",
    "4024289",
    "3832057",
    "4134140",
    "1476238",
    "4395705",
    "2309743",
    "3843736",
    "4049346",
    "4007775",
    "2921512",
    "1027002",
    "3314870",
    "3117222",
    "2854337",
    "678367",
    "4396227",
    "2292179",
    "1965433",
    "3329759",
    "3076710",
    "2441017",
    "4392428",
    "3263441",
    "3374925",
    "3886789",
    "4359090",
    "4407703",
    "2969537",
    "2299820",
    "2854332",
    "4356702",
    "2170822",
    "3405859",
    "2272591",
    "4397039",
    "2299817",
    "4359551",
    "4334484",
    "4024285",
    "4417090",
    "4333477",
    "4134160",
    "4417762",
    "3916408",
    "2082717",
    "3270916",
    "3579595",
    "4556688",
    "3389629",
    "1965385",
    "1159217",
    "4041869",
    "4028479",
    "3373038",
    "4149765",
    "3817554",
    "4024298",
    "3939050",
    "4385393",
    "3348280",
    "2854338",
    "3967055",
    "3979602",
    "2992196",
    "4566574",
    "1462881",
    "2702468",
    "3901975",
    "3704910",
    "3831495",
    "3709685",
    "4419036",
    "4028492",
    "1462852",
    "4005331",
    "4392485",
    "2591105",
    "4028488",
    "3542014",
    "4071275",
    "2638799",
    "4062849",
    "3857305",
    "3031683",
    "3738527",
    "2538247",
    "1641449",
    "4026702",
    "1512332",
    "874675",
    "3979589",
    "2848639",
    "3292403",
    "4277034",
    "3541389",
    "4396062",
    "3972262",
    "2668436",
    "4396215",
    "3270995",
    "4031367",
    "2309749",
    "3272812",
    "4039220",
    "4395058",
    "3314869",
    "3991063",
    "3636548",
    "4333305",
    "1470786",
    "4417843",
    "2992208",
    "2299812",
    "2272752",
    "3978744",
    "4057396",
    "4004768",
    "4426368",
    "3972264",
    "3137459",
    "3084455",
    "3270989",
    "2740387",
    "4192781",
    "3541392",
    "3995282",
    "3764646",
    "1462882",
    "4183706",
    "3980057",
    "3970817",
    "1967552",
    "2292239",
    "2299816",
    "3145856",
    "1128401",
    "2854336",
    "3271078",
    "3076709",
    "2854335",
    "4405383",
    "3987896",
    "1560414",
    "3604050",
    "2319683",
    "1641453",
    "4225236",
    "3417534",
    "4397170",
    "2299814",
    "3709736",
    "1470844",
    "1159222",
    "3018614",
    "4087425",
    "4526790",
    "4407742",
    "3374992",
    "3018594",
    "3621476",
    "2921602",
    "3322940",
    "3410413",
    "2434862",
    "3250023",
    "2806024",
    "2854331",
    "3447777",
    "4366299",
    "2299815",
    "2242092",
    "2916907",
    "2170827",
    "2668439",
    "3279860",
    "1885347",
    "3206672",
    "2914637",
    "1797877",
    "4381328",
    "3960150",
    "3744328",
    "2631094",
    "2520571",
    "3389663",
    "3843746",
    "3263442",
    "4480810",
    "4481114",
    "4396248",
    "4393964",
    "4393956",
    "3971833",
    "4319116",
    "1061027",
    "3877253",
    "2591108",
    "4187488",
    "3920274",
    "4057037",
    "1040402",
    "2920303",
    "3456588",
    "3693562",
    "4072641",
    "840636",
    "840639",
    "2957917",
    "1462885",
    "3552600",
    "3579994",
    "1462854",
    "4408206",
    "4023080",
    "1462851",
    "3971824",
    "3456292",
    "4157178",
    "3738499",
    "3344639",
    "3592058",
    "3831513",
    "1715157",
    "1353562",
    "2740426",
    "2977368",
    "2427781",
    "3857360",
    "3506650",
    "3817556",
    "4115109",
    "3521102",
    "3456158",
    "2299819",
    "3831511",
    "2985148",
    "1671757",
    "1462883",
    "2632222",
    "2631081",
    "3455900",
    "3970185",
    "4149769",
    "3987688",
    "1007459",
    "4391573",
    "4398825",
    "3436419",
    "4201562",
    "3994180",
    "4370815",
    "4472762",
    "2236050",
    "4185161",
    "4292239",
    "3071514",
    "1742199",
    "4192318",
    "555388",
    "3161909",
    "3389854",
    "1965432",
    "1669650",
    "4604656",
    "3414471",
    "3077418",
    "1187946",
    "3999488",
    "3990056",
    "2809602",
    "2916894",
    "4039298",
    "3417117",
    "2787575",
    "3457115",
    "3738552",
    "1366662",
    "4395102",
    "3643357",
    "2852544",
    "3979988",
    "2792322",
    "2819665",
    "4043672",
    "3609331",
    "2294492",
    "4138768",
    "3536334",
    "2914551",
    "2848644",
    "3194183",
    "1586693",
    "3592734",
    "2170825",
    "3340291",
    "2591103",
    "3422681",
    "2495075",
    "2568513",
    "4479554",
    "4198918",
    "3389791",
    "3970186",
    "4396108",
    "4437915",
    "4513780",
    "4008208",
    "2882752",
    "1685208",
    "3436308",
    "2263694",
    "2920947",
    "874676",
    "1469131",
    "3786276",
    "3280064",
    "3546720",
    "4287261",
    "4198936",
    "2917697",
    "3709666",
    "3206446",
    "2648015",
    "1462884",
    "4479560",
    "4007754",
    "4401658",
    "2299818",
    "3709732",
    "1520983",
    "3592062",
    "2466241",
    "1660895",
    "2985392",
    "3392433",
    "2299813",
    "3886721",
    "2839146",
    "4028493",
    "1159221",
    "4401980",
    "4417103",
    "3962281",
    "4001932",
    "4028494",
    "3349135",
    "3970629",
    "2900524",
    "2292180",
    "3920182",
    "1753716",
    "4004010",
    "3143035",
    "3920234",
    "3436426",
    "4540073",
    "2191565",
    "3175213",
    "3396299",
    "3113708",
    "3028307",
    "3786347",
    "2077425",
    "860265",
    "1668960",
    "4028490",
    "2269425",
    "2714825",
    "2046329",
    "2591102",
    "3183886",
    "2007753",
    "555387",
    "3990980",
    "4039256",
    "2668435",
    "2787297",
    "2876465",
    "698397",
    "3955063",
    "4481113",
    "3113558",
    "1863154",
    "4386148",
    "2292546",
    "4482370",
    "1518625",
    "2437498",
    "4236157",
    "2852545",
    "4088378",
    "1553549",
    "2788418",
    "3156354",
    "2325298",
    "3659498",
    "4361450",
    "4402598",
    "1300068",
    "3320462",
    "3457116",
    "3436547",
    "3955994",
    "3153316",
    "4195769",
    "4287260",
    "2538208",
    "3410418",
    "3437590",
    "1569911",
    "3270681",
    "4395073",
    "4402565",
    "2074416",
    "2262961",
    "2688548",
    "2167967",
    "2363599",
    "1805867",
    "4385395",
    "4041945",
    "3375067",
    "3786359",
    "4426345",
    "4086144",
    "4317620",
    "4402588",
    "4183362",
    "2668437",
    "3709739",
    "3956991",
    "3981844",
    "3455913",
    "1069872",
    "3322242",
    "3430314",
    "2792325",
    "2292370",
    "3785098",
    "1750132",
    "3323029",
    "4007777",
    "2969449",
    "2963377",
    "3437122",
    "2545124",
    "1515292",
    "555364",
    "4391574",
    "2985168",
    "3536337",
    "2520488",
    "4201540",
    "4198698",
    "2500622",
    "4039172",
    "4486064",
    "2248131",
    "3603766",
    "4004460",
    "3436580",
    "3320442",
    "2191638",
    "4196308",
    "2926094",
    "2404837",
    "2688522",
    "840642",
    "1906668",
    "3415105",
    "3552625",
    "1750435",
    "4417109",
    "3436584",
    "4032570",
    "3817555",
    "3525273",
    "2174436",
    "2909436",
    "3579594",
    "3415101",
    "3145943",
    "2876479",
    "4031059",
    "2985153",
    "2660890",
    "1967550",
    "3015809",
    "1603829",
    "1627303",
    "3243522",
    "2307528",
    "1713943",
    "2812397",
    "4366312",
    "3284783",
    "3552627",
    "1164324",
    "3567632",
    "3436312",
    "3348446",
    "3581132",
    "3556599",
    "3437587",
    "555384",
    "3372465",
    "3965226",
    "2579575",
    "3436299",
    "840641",
    "3045269",
    "4395072",
    "2952013",
    "3881593",
    "4364369",
    "1007458",
    "3417527",
    "3902465",
    "2246009",
    "4216049",
    "2309737",
    "4407836",
    "4401657",
    "4401659",
    "3643629",
    "2809601",
    "2242095",
    "3224214",
    "2852543",
    "4006041",
    "3456546",
    "3377340",
    "4057259",
    "3965227",
    "3525314",
    "4401707",
    "1216274",
    "4402563",
    "3728895",
    "4219412",
    "2170882",
    "4407837",
    "2322262",
    "4401600",
    "1683018",
    "3224294",
    "840638",
    "3374907",
    "3506699",
    "3972263",
    "2773234",
    "2997565",
    "2692821",
    "1755055",
    "2209249",
    "1808294",
    "2985075",
    "1164326",
    "2916896",
    "3358911",
    "3377313",
    "2429711",
    "2838368",
    "2809599",
    "3780276",
    "3965121",
    "4026020",
    "3936333",
    "2374928",
    "3843756",
    "2519917",
    "3340063",
    "1164331",
    "2985113",
    "3279921",
    "2641308",
    "3437628",
    "3786278",
    "3392494",
    "2803750",
    "2985157",
    "555385",
    "4348835",
    "4364370",
    "2167928",
    "4417176",
    "3358950",
    "2299856",
    "3709458",
    "3224404",
    "2545128",
    "3902486",
    "4028496",
    "2719153",
    "2915519",
    "2240832",
    "3251455",
    "3023867",
    "3224357",
    "1164273",
    "2299805",
    "4182648",
    "2781893",
    "1569916",
    "2266146",
    "1965376",
    "3175885",
    "3902447",
    "2077664",
    "3902475",
    "2299857",
    "2964756",
    "3248092",
    "3240673",
    "4318106",
    "4024262",
    "2921062",
    "3936337",
    "874674",
    "3224401",
    "2688294",
    "3047222",
    "3780353",
    "3580092",
    "3247697",
    "3111742",
    "3709528",
    "3279897",
    "904150",
    "1965386",
    "1922528",
    "2242093",
    "3264492",
    "1164330",
    "3709734",
    "964718",
    "2918243",
    "3936336",
    "2607067",
    "2997960",
    "2089799",
    "2786747",
    "915040",
    "4087421",
    "3920319",
    "2963364",
    "3962844",
    "3984206",
    "3643536",
    "3358916",
    "3279931",
    "3373050",
    "1216273",
    "1484096",
    "2574039",
    "1922525",
    "4149779",
    "3070707",
    "2517833",
    "3377411",
    "3978619",
    "3065287",
    "1627051",
    "3349372",
    "2292372",
    "2673263",
    "3416716",
    "3681786",
    "3506649",
    "3413830",
    "2269446",
    "2753764",
    "3357486",
    "3123727",
    "3111753",
    "3455956",
    "2801614",
    "2168565",
    "3455994",
    "3414585",
    "4205260",
    "3359054",
    "1713980",
    "2742531",
    "1779796",
    "2895865",
    "2695647",
    "2890283",
    "2984807",
    "3949475",
    "2985063",
    "3373053",
    "2896018",
    "3001435",
    "2805331",
    "4087420",
    "2167922",
    "923106",
    "2713858",
    "2964761",
    "2951558",
    "4087450",
    "3521105",
    "3481876",
    "3728890",
    "3437631",
    "2941030",
    "1666990",
    "860195",
    "3902357",
    "2918882",
    "2429622",
    "1873266",
    "3324283",
    "3075623",
    "4008528",
    "3643618",
    "3372461",
    "3279971",
    "2025109",
    "2835409",
    "3379016",
    "3234073",
    "1380035",
    "2608340",
    "3780322",
    "3525315",
    "2654821",
    "3784917",
    "2839175",
    "3447786",
    "3045814",
    "1661132",
    "3552231",
    "3422682",
    "2776657",
    "3786284",
    "2168665",
    "4173932",
    "2735397",
    "2835438",
    "555383",
    "1159220",
    "3886804",
    "2985046",
    "4006312",
    "3024263",
    "2997557",
    "3997006",
    "2918916",
    "3337926",
    "2608243",
    "2072750",
    "3780324",
    "1242778",
    "4087423",
    "3794833",
    "3886863",
    "3886944",
    "2503655",
    "2694581",
    "3045281",
    "2608237",
    "4019562",
    "4177140",
    "3265589",
    "1159219",
    "2070057",
    "1164327",
    "3175886",
    "3247889",
    "3877259",
    "3337923",
    "3437189",
    "3358874",
    "4024266",
    "2304530",
    "2964755",
    "3184733",
    "3521104",
    "3437635",
    "3437161",
    "3780368",
    "3324281",
    "2964757",
    "4087419",
    "3794845",
    "4086113",
    "3576758",
    "3206910",
    "3936339",
    "3001413",
    "3902274",
    "3780329",
    "3794783",
    "3794846",
    "3780371",
    "3794877",
    "3794825",
    "3437626",
    "2781758",
    "2970221",
    "1651188",
    "4024214",
    "3065070",
    "2812265",
    "3437634",
    "3417028",
    "4203192",
    "3437621",
    "3527803",
    "3278383",
    "3780358",
    "3780330",
    "3780355",
    "3780363",
    "3794873",
    "3794876",
    "3794766",
    "3794774",
    "3794782",
    "3794842",
    "3794793",
    "3794844",
    "3794820",
    "3794771",
    "3794764",
    "3794806",
    "3794781",
    "3786283",
    "3794839",
    "3780282",
    "3780366",
    "3780335",
    "3780301",
    "3780303",
    "3786365",
    "3794786",
    "3780336",
    "3780306",
    "3794810",
    "3938016",
    "3938009",
    "3323175",
    "3886904",
    "3886919",
    "3521084",
    "3521093",
    "3886911",
    "3886906",
    "3389746",
    "3367626",
    "2781755",
    "3579984",
    "2651990",
    "2711027",
    "2711034",
    "3456003",
    "3184740",
    "3488134",
    "4019567",
    "4019569",
    "4088375",
    "3794843",
    "3794829",
    "3794834",
    "3456005",
    "4019759",
    "4120251",
    "4169558",
    "4169557",
    "4173939",
    "2805341",
    "2426174",
    "3552911",
    "4173931",
    "3936341",
    "3945890",
    "3340076",
    "3340071",
    "3521110",
    "1966608",
    "2996380",
    "4155862",
    "1744943",
    "3617092",
    "1682988",
    "3780360",
    "3794808",
    "3794821",
    "3794840",
    "3780354",
    "3041252",
    "2917613",
    "2835424",
    "2543705",
    "3415116",
    "3455603",
    "3780367",
    "3936334",
    "3780352",
    "3786275",
    "3786280",
    "3938008",
    "3794848",
    "3780278",
    "3780338",
    "3780362",
    "3780364",
    "3794875",
    "3786285",
    "3794841",
    "3794775",
    "3794791",
    "3794784",
    "3794811",
    "3794827",
    "3794835",
    "3794778",
    "3794779",
    "3794805",
    "3794837",
    "3794772",
    "3794830",
    "3794765",
    "3794807",
    "3794815",
    "3794823",
    "3780274",
    "3780349",
    "3780373",
    "3780291",
    "3780334",
    "3780342",
    "3780374",
    "3780308",
    "3780351",
    "3780285",
    "3780344",
    "3780376",
    "3780337",
    "3780320",
    "3780280",
    "3780296",
    "3780297",
    "3780305",
    "3786274",
    "3780328",
    "3794874",
    "3794790",
    "3794824",
    "3794803",
    "3794789",
    "3780327",
    "3162052",
    "3780341",
    "3780307",
    "3780317",
    "3780369",
    "3780295",
    "3780370",
    "3780281",
    "3794777",
    "3047221",
    "3521106",
    "2304529",
    "2304528",
    "3938010",
    "3938019",
    "3938013",
    "3886932",
    "3886917",
    "3886947",
    "3886907",
    "3886920",
    "3580851",
    "2918210",
    "1966629",
    "3521082",
    "3521090",
    "3521091",
    "3521101",
    "3521092",
    "3521086",
    "3521088",
    "3521108",
    "3521081",
    "3521089",
    "3521094",
    "3521103",
    "1727410",
    "2805393",
    "3521100",
    "3521098",
    "3521109",
    "1818471",
    "3113740",
    "2771548",
    "1672015",
    "2842212",
    "2081909",
    "2068814",
    "2918235",
    "1569914",
    "1625234",
    "2762848",
    "3373047",
    "2384059",
    "2384046",
    "3886999",
    "1797825",
    "3902306",
    "4141372",
    "3552589",
    "2969356",
    "2604914",
    "2917782",
    "2964754",
    "3965979",
    "1907521",
    "3616930",
    "2917660",
    "1944286",
    "2608240",
    "2915401",
    "2838466",
    "3023959",
    "3077422",
    "3179677",
    "3481535",
    "1672063",
    "3001402",
    "2950005",
    "2646978",
    "1377645",
    "728089",
    "3359106",
    "775568",
    "3552918",
    "3552925",
    "1745473",
    "1745142",
    "3592063",
    "1671719",
    "3786379",
    "2876675",
    "3955583",
    "4019564",
    "4024271",
    "4068557",
    "3724384",
    "4120218",
    "4120324",
    "3936338",
    "4203193",
    "4155804",
    "4173940",
    "4173935",
    "4173938",
    "4173904",
    "4155814",
    "4195768",
    "4195770",
    "3794849",
    "3794801",
    "3794809",
    "3794770",
    "3794828",
    "3794847",
    "3794802",
    "3794785",
    "3886902",
    "3886927",
    "3886921",
    "3113569",
    "3410371",
    "2632629",
    "4019764",
    "4143381",
    "4155860",
    "4173933",
    "4173934",
    "4173937",
    "3780356",
    "3886924",
    "3886918",
    "3886925",
    "3010597",
    "2917603",
    "3455996",
    "3455998",
    "3580071",
    "4038847",
    "4120247",
    "4155813",
    "4203316",
    "3902444",
    "2434317",
    "3780345",
    "3780314",
    "3780340",
    "3794762",
    "3780288",
    "3780273",
    "3794822",
    "3521097",
    "1096625",
    "2771417",
    "1936402",
    "3786282",
    "3399139",
    "3399146",
    "1474480",
    "3552369",
    "2206510",
    "4019558",
    "1989304",
    "3240674",
    "4054880",
    "1589093",
    "2915371",
    "2434753",
    "3780365",
    "3780290",
    "1711238",
    "3780284",
    "3780279",
    "3780331",
    "3780339",
    "3780332",
    "3794799",
    "3794816",
    "3794832",
    "3794850",
    "3794776",
    "3794792",
    "3794818",
    "3794826",
    "3794819",
    "3794763",
    "3794787",
    "3794795",
    "3794813",
    "3794788",
    "3794796",
    "3794838",
    "3794773",
    "3794831",
    "3886909",
    "3886913",
    "3886923",
    "3886915",
    "3886929",
    "2566009",
    "3780323",
    "3780357",
    "3780283",
    "3780299",
    "3521083",
    "3780300",
    "3521085",
    "3780343",
    "3521096",
    "3521087",
    "3780359",
    "3780375",
    "3521107",
    "3521099",
    "3780277",
    "3780293",
    "3780309",
    "3780318",
    "3780326",
    "3780286",
    "3780302",
    "3780377",
    "3780287",
    "3780311",
    "3780378",
    "3780272",
    "3780304",
    "3780347",
    "3780289",
    "3780348",
    "3786344",
    "3794878",
    "3794817",
    "3794794",
    "3794804",
    "3794812",
    "3794836",
    "3794814",
    "3794797",
    "3786281",
    "3521095",
    "3786342",
    "3521111",
    "3780275",
    "3886931",
    "3886930",
    "2566011",
    "2340810",
    "3780298",
    "3780333",
    "3780350",
    "3780325",
    "3780294",
    "3780310",
    "3780319",
    "3780361",
    "3780346",
    "3780312",
    "3780372",
    "3794769",
    "3794780",
    "3709449",
    "1876651",
    "2842687",
    "3780292",
    "3780321",
    "3780313",
    "3794767",
    "3279983",
    "3681808",
    "1383186",
    "3047214",
    "1626652",
    "1548085",
    "2393560",
    "2762850",
    "1625235",
    "2157562",
    "1586739",
    "2771549",
    "3047215",
    "2805388",
    "2805390",
    "3070483",
    "3887007",
    "3794761",
    "3938014",
    "3938015",
    "3938017",
    "3938018",
    "3938011",
    "3938012",
    "3938021",
    "1589876",
    "1569915",
    "963951",
    "3752632",
    "1797803",
    "2920939",
    "3001514",
    "2630823",
    "2192659",
    "1407496",
    "2192566",
    "1651918",
    "1654569",
    "2411288",
    "2771553",
    "2384061",
    "2095796",
    "2566013",
    "1625229",
    "1797857",
    "2329164",
    "2315636",
    "2707098",
    "1243258",
    "2771554",
    "2846624",
    "2805391",
    "2352304",
    "3047216",
    "2805359",
    "3055390",
    "1300177",
    "3047219",
    "2761971",
    "3138432",
    "795353",
    "2921119",
    "2921116",
    "1753406",
    "3521080",
    "2761977",
    "2763009",
    "2761980",
    "2805356",
    "3786345",
    "3055713",
    "3887006",
    "3887008",
    "3887000",
    "3887002",
    "3887003",
    "3887005",
    "3938020",
    "3831510",
    "4019910",
    "4011411",
    "3786343",
    "4037393",
    "3377753",
    "4141287",
    "3831502",
    "3955032",
    "3997003",
    "3997004",
    "3996997",
    "3996998",
    "3997007",
    "3997000",
    "3997009",
    "3997001",
    "3997010",
    "3997002",
    "3997011",
    "2515358",
    "1112951",
    "3580035",
    "3309010",
    "2266094",
    "1358663",
    "2607976",
    "2182574",
    "2370930",
    "4019559",
    "1398503",
    "1398506",
    "3278396",
    "1722531",
    "2412735",
    "2801763",
    "3113678",
    "2941034",
    "1688964",
    "1685844",
    "1846570",
    "2558126",
    "2643802",
    "2969372",
    "2425509",
    "1636750",
    "2579556",
    "1868723",
    "2466363",
    "3681767",
    "1735134",
    "2344093",
    "2233869",
    "2167522",
    "3349371",
    "2395320",
    "3113571",
    "2272578",
    "2344119",
    "1671758",
    "2579516",
    "2801768",
    "2876678",
    "834095",
    "1625255",
    "2090889",
    "3031954",
    "2915848",
    "2872660",
    "3323133",
    "1666433",
    "3279884",
    "2662469",
    "3265585",
    "2503658",
    "1685839",
    "2182588",
    "2644986",
    "3279974",
    "1754586",
    "2211399",
    "2801591",
    "1670970",
    "2628908",
    "2835419",
    "1021836",
    "2255551",
    "1745512",
    "2707915",
    "3011514",
    "2559569",
    "1288637",
    "2412043",
    "1436268",
    "2941032",
    "1603845",
    "1906300",
    "1585983",
    "2918905",
    "1790677",
    "2587914",
    "2348051",
    "2442433",
    "2887529",
    "2711036",
    "2014149",
    "3041306",
    "1603836",
    "1942665",
    "2066947",
    "1772364",
    "1004353",
    "1680991",
    "1751721",
    "1885392",
    "2503679",
    "2688321",
    "2654849",
    "3001434",
    "2014170",
    "3055391",
    "3055392",
    "2918629",
    "2918948",
    "2974358",
    "3001469",
    "3104705",
    "3001461",
    "1848464",
    "3389860",
    "3410372",
    "2970846",
    "3362741",
    "1713910",
    "1672062",
    "1672064",
    "3168978",
    "2542912",
    "2359276",
    "2749364",
    "2915745",
    "3641001",
    "2510786",
    "3902487",
    "3902395",
    "3822182",
    "3124197",
    "2167924",
    "4019563",
    "4019799",
    "4019913",
    "4019906",
    "4019914",
    "4019565",
    "4019907",
    "4019915",
    "4019566",
    "4019908",
    "4019916",
    "4019909",
    "4019917",
    "4019560",
    "4019568",
    "4019918",
    "4019561",
    "4019911",
    "4019919",
    "2997769",
    "3617178",
    "4038844",
    "3986147",
    "3965228",
    "4038760",
    "4120248",
    "4120220",
    "1397922",
    "3506666",
    "3456738",
    "4155861",
    "4155815",
    "4155816",
    "4169559",
    "4173929",
    "4169556",
    "4173930",
    "4173954",
    "4173936",
    "4173953",
    "4155812",
    "3949463",
    "3936340",
    "3936335",
    "3659436",
    "4120250",
    "4120249",
    "4201563",
    "4212702",
    "4187489",
    "2328718",
    "860078",
    "4132827",
    "3001459",
    "973673",
    "2167917",
    "3936331",
    "3936332",
    "4226208",
    "4226210",
    "4226211",
    "3392388",
    "4179668",
    "4298690",
    "4298682",
    "4298683",
    "4298684",
    "4298685",
    "4039911",
    "4039922",
    "4298689",
    "4308033",
    "2333692",
    "2388059",
    "2457097",
    "2388061",
    "2457192",
    "2457141",
    "3666202",
    "3631035",
    "3630941",
    "2294501",
    "4316923",
    "4316925",
    "4316927",
    "4316929",
    "4316931",
    "4295858",
    "4318168",
    "4317065",
    "4317066",
    "4317232",
    "4318103",
    "4318104",
    "4318105",
    "4318149",
    "4318107",
    "4318150",
    "4318109",
    "4318151",
    "4318110",
    "4318111",
    "4318153",
    "4318112",
    "4318156",
    "4318113",
    "4318157",
    "4318158",
    "4308035",
    "4226209",
    "2997550",
    "3167167",
    "4007725",
    "4335179",
    "1383316",
    "2309745",
    "4341447",
    "3375079",
    "2921276",
    "4346038",
    "3326083",
    "973675",
    "1745508",
    "3487731",
    "3514242",
    "3536486",
    "4343765",
    "4350798",
    "2347891",
    "1077738",
    "2895934",
    "4343764",
    "1848442",
    "1745511",
    "1848449",
    "4361447",
    "4361449",
    "4361451",
    "4361453",
    "3702868",
    "4364372",
    "4364373",
    "4364374",
    "4364360",
    "4364361",
    "2292240",
    "3936440",
    "964719",
    "4378111",
    "4378112",
    "4378113",
    "4378114",
    "4378162",
    "4378115",
    "4378163",
    "4378164",
    "4378165",
    "4378166",
    "4378167",
    "4378192",
    "4378168",
    "4378193",
    "4378169",
    "4378237",
    "4378195",
    "4378196",
    "4378108",
    "4163571",
    "4378109",
    "4378110",
    "3936441",
    "3641023",
    "3367509",
    "860191",
    "2767873",
    "2168147",
    "4048007",
    "3103355",
    "4391565",
    "4391568",
    "4391570",
    "1754099",
    "4392403",
    "3709516",
    "4312021",
    "4370850",
    "4048521",
    "4398063",
    "4398064",
    "4398072",
    "4398049",
    "4398050",
    "4398051",
    "4398052",
    "4019778",
    "3436546",
    "4398829",
    "3549146",
    "4402597",
    "4402561",
    "4402562",
    "4402599",
    "4402600",
    "4402564",
    "4402582",
    "4402583",
    "4402586",
    "4402587",
    "4402589",
    "4401956",
    "4019720",
    "2325299",
    "2294500",
    "4057398",
    "2395322",
    "4404564",
    "4403467",
    "3681756",
    "4405379",
    "4406116",
    "4408224",
    "4409537",
    "4408967",
    "4408968",
    "4408969",
    "4409545",
    "4409505",
    "2749344",
    "1567870",
    "3372488",
    "2192469",
    "2733647",
    "2011741",
    "3752775",
    "1972108",
    "4415804",
    "4415810",
    "4419073",
    "4047914",
    "2951832",
    "3536484",
    "4341599",
    "4424768",
    "3436451",
    "4260193",
    "4423527",
    "4423530",
    "4424839",
    "4423521",
    "4423524",
    "4416913",
    "3112087",
    "4428716",
    "4424872",
    "4348825",
    "3171342",
    "1754764",
    "4440179",
    "4440180",
    "4440181",
    "4440196",
    "4440197",
    "4440198",
    "3620185",
    "1965431",
    "3436564",
    "4440200",
    "4183444",
    "3592732",
    "2788187",
    "3984153",
    "2168230",
    "1685209",
    "4397148",
    "2922053",
    "3399315",
    "4212697",
    "1459592",
    "1245379",
    "4030208",
    "1571119",
    "3881620",
    "4472770",
    "4472806",
    "4472778",
    "4472781",
    "4472786",
    "4472788",
    "4346221",
    "3536335",
    "2921021",
    "3377771",
    "3641004",
    "3666985",
    "2241468",
    "4068563",
    "1965427",
    "1754969",
    "3955034",
    "1383185",
    "965414",
    "1383187",
    "2827857",
    "4287224",
    "3171319",
    "4298691",
    "963950",
    "4038819",
    "4344386",
    "1735181",
    "1661144",
    "3399283",
    "2713935",
    "4292298",
    "1965417",
    "4504449",
    "4504450",
    "4504451",
    "4504460",
    "4504461",
    "4504462",
    "4504446",
    "4504447",
    "4504448",
    "3932683",
    "3709719",
    "4037398",
    "2688309",
    "2171300",
    "1965381",
    "4335508",
    "3667037",
    "3500151",
    "3614905",
    "2315030",
    "3536336",
    "3436569",
    "2427778",
    "3920056",
    "4481305",
    "3830443",
    "2497690",
    "3641008",
    "1603844",
    "2838583",
    "3436530",
    "2271624",
    "2434243",
    "1179452",
    "2537304",
    "1512333",
    "2192452",
    "3162076",
    "3614904",
    "1603833",
    "3617519",
    "3349389",
    "4298688",
    "3621475",
    "3991008",
    "4035980",
    "3546767",
    "3583164",
    "2284549",
    "3703496",
    "3456702",
    "3104706",
    "3367359",
    "4292242",
    "3546951",
    "1166180",
    "3667009",
    "3521074",
    "3436493",
    "3986431",
    "4321619",
    "1824807",
    "3888835",
    "825865",
    "3990609",
    "2006827",
    "1669288",
    "3567623",
    "2961002",
    "3659476",
    "3500149",
    "3919909",
    "4182645",
    "3636329",
    "3895407",
    "3641012",
    "3099929",
    "3995569",
    "3099920",
    "4039338",
    "3375018",
    "1680989",
    "1805881",
    "2192177",
    "2469393",
    "2626466",
    "3621482",
    "3389802",
    "4479562",
    "1407922",
    "3104196",
    "1027131",
    "2917296",
    "3536267",
    "3010608",
    "2894343",
    "3920259",
    "3703805",
    "3614901",
    "2733715",
    "3456936",
    "2699498",
    "4141172",
    "3920279",
    "1454515",
    "2213212",
    "4409219",
    "3641021",
    "3417547",
    "4199870",
    "3621479",
    "2920958",
    "3415097",
    "4038911",
    "4437914",
    "3425069",
    "4525125",
    "4344447",
    "4199467",
    "2914875",
    "1625731",
    "2437178",
    "2952012",
    "3621477",
    "3500207",
    "3920223",
    "3567629",
    "1681274",
    "1385346",
    "1124743",
    "3455836",
    "3920185",
    "2515371",
    "3666090",
    "3694286",
    "1586025",
    "1407497",
    "963349",
    "2395316",
    "2167697",
    "1661123",
    "1135132",
    "2511557",
    "3456329",
    "3352472",
    "2733718",
    "3366055",
    "2417029",
    "4030752",
    "3667044",
    "3536332",
    "3621473",
    "3447780",
    "2524712",
    "1587509",
    "988762",
    "2414852",
    "1228868",
    "2292371",
    "1920677",
    "2964758",
    "4277094",
    "4138408",
    "4180425",
    "3606865",
    "4316307",
    "3991017",
    "1519390",
    "1697010",
    "3919921",
    "4054836",
    "2714848",
    "2319861",
    "3710518",
    "3549216",
    "2167919",
    "931752",
    "2027356",
    "2416247",
    "1807647",
    "4357666",
    "3417093",
    "4198970",
    "3104022",
    "4185611",
    "3963613",
    "3682177",
    "3206863",
    "4539067",
    "4539065",
    "4540003",
    "2288071",
    "4344445",
    "3323076",
    "3785559",
    "3536279",
    "3985728",
    "2601638",
    "3986102",
    "2996347",
    "4518630",
    "4333384",
    "3602997",
    "3367644",
    "3377766",
    "3606841",
    "2533237",
    "3408136",
    "3681810",
    "3392447",
    "3377773",
    "4030534",
    "4547288",
    "4547289",
    "1755044",
    "3112451",
    "2559073",
    "3377293",
    "4141426",
    "2469744",
    "1512334",
    "3308566",
    "3436591",
    "1603823",
    "2591107",
    "2167968",
    "2533219",
    "2167574",
    "3251142",
    "2974364",
    "3184061",
    "3206600",
    "2801831",
    "3436274",
    "3430853",
    "3415117",
    "3857296",
    "3001394",
    "2876498",
    "2914515",
    "1671799",
    "2935546",
    "2801592",
    "3681790",
    "3161752",
    "2805460",
    "2872666",
    "2805550",
    "2838473",
    "2805455",
    "2838474",
    "2805483",
    "2805530",
    "3024248",
    "3024255",
    "3024249",
    "3024240",
    "3024244",
    "2805499",
    "2872659",
    "2935490",
    "2935385",
    "3024237",
    "2805533",
    "1603847",
    "1625262",
    "3614193",
    "2805504",
    "3643583",
    "3886760",
    "3886748",
    "3580081",
    "3614182",
    "3323115",
    "3886816",
    "3323120",
    "3643270",
    "3506827",
    "3103246",
    "1987577",
    "4031141",
    "3536307",
    "3830444",
    "3104218",
    "1431336",
    "4426329",
    "3567622",
    "2660880",
    "3963595",
    "4185483",
    "1626423",
    "1476237",
    "4289760",
    "4571340",
    "4571341",
    "4571342",
    "1072071",
    "2921006",
    "3147977",
    "4477724",
    "4382880",
    "4030776",
    "4344452",
    "4571325",
    "4571124",
    "2720529",
    "3877178",
    "4577167",
    "4577083",
    "4575674",
    "3015832",
    "2755867",
    "2757888",
    "3015825",
    "3166580",
    "3456245",
    "3195640",
    "3015816",
    "3037766",
    "2322174",
    "1797820",
    "3455969",
    "3831509",
    "4579136",
    "3359101",
    "3001415",
    "3137430",
    "4292234",
    "3358980",
    "4351364",
    "4539949",
    "4039095",
    "2398441",
    "2120622",
    "4031435",
    "4138645",
    "3103249",
    "3436555",
    "3436561",
    "3436441",
    "3436571",
    "3011363",
    "3104125",
    "4245006",
    "3375072",
    "4030229",
    "4042846",
    "2869383",
    "3104116",
    "2753731",
    "4054901",
    "3011818",
    "4591738",
    "4591742",
    "4592434",
    "2917841",
    "4054916",
    "3206655",
    "1021837",
    "4031341",
    "4595706",
    "4141670",
    "3641002",
    "1195283",
    "3304640",
    "4039115",
    "2460615",
    "3436443",
    "3104036",
    "2077662",
    "1535933",
    "1840787",
    "3377336",
    "4537612",
    "4584578",
    "3104502",
    "4026710",
    "3738265",
    "1449545",
    "1744526",
    "1587534",
    "4341336",
    "4357685",
    "4357732",
    "4357690",
    "4357725",
    "4364875",
    "4406160",
    "4472705",
    "4357695",
    "4364853",
    "3679789",
    "3669681",
    "4370725",
    "2426687",
    "3641009",
    "734902",
    "2591101",
    "3363167",
    "2574396",
    "2294502",
    "2441053",
    "4584684",
    "4193984",
    "3592723",
    "1649695",
    "2900422",
    "3731378",
    "4553801",
    "4323968",
    "1387417",
    "2890534",
    "4323969",
    "4199285",
    "2521132",
    "1560443",
    "4395054",
    "4605296",
    "4032023",
    "1560444",
    "3579769",
    "2745395",
    "4285588",
    "4285606",
    "2006844",
    "4208100",
    "4088495",
    "2519980",
    "3001422",
    "4395052",
    "4370719",
    "4325626",
    "2425459",
    "4403454",
    "2185879",
    "3267943",
    "2609531",
    "4623993",
    "4623994",
    "4624003",
    "4624005",
    "4624007",
    "4595705",
    "4620306",
    "1672198",
    "1627094",
    "3111389",
    "4539961",
    "3785113",
    "4604392",
    "3436270",
    "1398505",
    "1589857",
    "1751736",
    "2867249",
    "2749345",
    "3247905",
    "1288662",
    "2921689",
    "734903",
    "4068556",
    "4028495",
    "3436421"
]