[
    "3569430",
    "4141777",
    "2733373",
    "3428863",
    "4051971",
    "3403723",
    "4378627",
    "4232703",
    "2902086",
    "2798880",
    "3084043",
    "2994386",
    "4051974",
    "4051973",
    "4052084",
    "3376676",
    "2246710",
    "2902058",
    "3721179",
    "2894630",
    "1987444",
    "4000668",
    "2727070",
    "2902080",
    "4435721",
    "1539114",
    "3640905"
]