[
    "3074274",
    "3783531",
    "3291464",
    "2485099",
    "3242115",
    "3782355",
    "4267749",
    "4296610",
    "2487176",
    "2997081",
    "2498465",
    "4401507",
    "2801304",
    "2504860",
    "3784714",
    "3774501",
    "1287927",
    "3771190",
    "3776562",
    "2642877",
    "3416408",
    "3788005",
    "3291283",
    "3782871",
    "3783661",
    "3731622",
    "4381302",
    "2772933",
    "2733689",
    "3780843",
    "3145073",
    "3781566",
    "4246598",
    "2484937",
    "3785094",
    "3864487",
    "3851012",
    "2937193",
    "3850030",
    "3083091",
    "3145072",
    "3780923",
    "2445882",
    "2936995",
    "2487175",
    "4323332",
    "2437362",
    "2409338",
    "3781556",
    "3145014",
    "2504863",
    "2851073",
    "2487172",
    "3782873",
    "2729508",
    "3728706",
    "2400550",
    "3233556",
    "3232916",
    "2409343",
    "3780829",
    "2971406",
    "3771047",
    "2504868",
    "2504858",
    "3782862",
    "4253279",
    "3774012",
    "2520996",
    "3776453",
    "4080525",
    "3232917",
    "2772936",
    "3787249",
    "4035363",
    "2937192",
    "3774046",
    "3851026",
    "3864300",
    "3771441",
    "4122899",
    "3774045",
    "2484940",
    "3743632",
    "3898826",
    "3850026",
    "4356456",
    "4253278",
    "3094972",
    "3781170",
    "3781169",
    "2504888",
    "3782447",
    "4035997",
    "3864384",
    "2504856",
    "2484938",
    "3864701",
    "3776543",
    "2409342",
    "3774912",
    "2628254",
    "3774914",
    "3776437",
    "3776899",
    "3851013",
    "3863766",
    "3898825",
    "3898827",
    "3773927",
    "3863767",
    "3774899",
    "3776991",
    "3771522",
    "3774913",
    "3781359",
    "3804127",
    "2772931",
    "2484934",
    "2409339",
    "3782240",
    "3290037",
    "3782374",
    "3782390",
    "3782775",
    "3782776",
    "2484936",
    "3787293",
    "3851342",
    "3851011",
    "3864018",
    "3850964",
    "3863453",
    "3899842",
    "3902068",
    "3777316",
    "3781190",
    "3783673",
    "646342",
    "2762118",
    "2400548",
    "2400544",
    "4296566",
    "3782872",
    "3772287",
    "3856206",
    "3866036",
    "4323338",
    "4356693",
    "3733631",
    "3864525",
    "3864526",
    "3864385",
    "4393375",
    "4323130",
    "4401419",
    "4401420",
    "4401421",
    "4401423",
    "4401460",
    "4080589",
    "4401562",
    "3864383",
    "2725777",
    "3782446",
    "3864675",
    "4343968",
    "4037150",
    "3775356",
    "3864301",
    "2504886",
    "3777192",
    "4264514",
    "3787642",
    "3864271",
    "2498251",
    "4439019",
    "3864336",
    "4440299",
    "2504822",
    "4223690",
    "3226119",
    "3899810",
    "2669381",
    "2400540",
    "4322928",
    "3902932",
    "4037491",
    "4322983",
    "3728707",
    "4382417",
    "3864791",
    "2756870",
    "4324356",
    "2504859",
    "3866035",
    "4322947",
    "4323352",
    "3777262",
    "3773974",
    "2400546",
    "3775364",
    "3777348",
    "3771977",
    "3094969",
    "4080417",
    "3787302",
    "2581451",
    "3773977",
    "2765007",
    "3773958",
    "3902914",
    "4449781",
    "2401952",
    "3774304",
    "1642236",
    "3787472",
    "4304038",
    "3775339",
    "2628924",
    "3731621",
    "3783515",
    "4296616",
    "4080418",
    "2772816",
    "3863923",
    "4334394",
    "2504862",
    "4296623",
    "4253166"
]