[
    "2293450",
    "3393995",
    "2690071",
    "307510",
    "2818886",
    "1028422",
    "3620172",
    "307509",
    "202683",
    "2753505",
    "1968606",
    "3233564",
    "1691072",
    "515339",
    "2690120",
    "3181140",
    "214736",
    "2239134",
    "3292322",
    "213318",
    "505618",
    "3181141",
    "4407336",
    "3181143",
    "3374242",
    "2794974",
    "2688619",
    "359440",
    "2989177",
    "1120377",
    "2382574",
    "498821",
    "469983",
    "2354781",
    "3394226",
    "3519471",
    "3728158",
    "4538855",
    "1691019",
    "3399376",
    "3728147",
    "2794949",
    "1237100",
    "1904889",
    "3213175",
    "3413983",
    "158288",
    "602288",
    "1060828",
    "4208157",
    "3728704",
    "2554094",
    "1786089",
    "3019636",
    "3393855",
    "3237900",
    "2698831",
    "3728191",
    "2936914",
    "214319",
    "2013912",
    "1692940",
    "2022370",
    "214323",
    "3748176",
    "3393742",
    "3237314",
    "2989179",
    "1710859",
    "3472348",
    "1692994",
    "1693262",
    "3519476",
    "794997",
    "1871046",
    "2733502",
    "2314428",
    "3525650",
    "3578465",
    "3025672",
    "2753334",
    "1689939",
    "2333401",
    "3519475",
    "1695272",
    "1691790",
    "1600190",
    "1692076",
    "1691778",
    "2793873",
    "2689965",
    "3232627",
    "1692167",
    "3562567",
    "3496409",
    "3237747",
    "248060",
    "214321",
    "2342437",
    "1692313",
    "213800",
    "3400543",
    "1690234",
    "3233581",
    "3728145",
    "881864",
    "3393994",
    "3591808",
    "3181814",
    "700287",
    "1691107",
    "2794026",
    "3394238",
    "2582863",
    "1690927",
    "3735040",
    "3399273",
    "3393748",
    "1691025",
    "2989113",
    "502445",
    "3434644",
    "1690258",
    "3232626",
    "3393893",
    "202684",
    "1692514",
    "3728188",
    "591400",
    "3393856",
    "2354784",
    "2439820",
    "1969143",
    "3409253",
    "2975173",
    "3393750",
    "3393867",
    "213783",
    "202679",
    "1691738",
    "540158",
    "3406175",
    "195678",
    "3393641",
    "3578454",
    "1803720",
    "1737684",
    "213290",
    "3394224",
    "1691539",
    "1695342",
    "3179524",
    "219170",
    "2701192",
    "3393638",
    "3555953",
    "3728185",
    "1691136",
    "2858995",
    "732171",
    "1690244",
    "3393746",
    "2453190",
    "3393854",
    "785987",
    "2480498",
    "3732675",
    "2354806",
    "2009664",
    "2445736",
    "3591787",
    "1691518",
    "1690761",
    "3167942",
    "3181144",
    "1693238",
    "3181142",
    "1157049",
    "1693012",
    "1691543",
    "3728166",
    "213805",
    "214475",
    "3181569",
    "1691133",
    "1691668",
    "1691560",
    "1691665",
    "1691866",
    "3434624",
    "2466006",
    "1691662",
    "2585756",
    "3393865",
    "3402529",
    "3406176",
    "3409277",
    "3434779",
    "3393738",
    "866215",
    "2859000",
    "469991",
    "2415310",
    "2991201",
    "2410587",
    "1692199",
    "705970",
    "1691547",
    "2793814",
    "2658840",
    "2859004",
    "1691086",
    "808480",
    "1691759",
    "3509401",
    "214331",
    "1691797",
    "1691545",
    "1809930",
    "1691641",
    "1690743",
    "679087",
    "1692171",
    "1691080",
    "1692453",
    "1692006",
    "215139",
    "1715946",
    "1692000",
    "1691550",
    "1157050",
    "1691653",
    "158299",
    "1690706",
    "522552",
    "1689861",
    "2901776",
    "2733486",
    "1689886",
    "3394627",
    "2485437",
    "2009654",
    "214737",
    "3181491",
    "3399277",
    "3855123",
    "866217",
    "1691098",
    "1691100",
    "2008897",
    "2008906",
    "1695530",
    "1690976",
    "1904891",
    "385198",
    "3224759",
    "1710917",
    "3609349",
    "1803192",
    "902142",
    "3407636",
    "1691756",
    "3179519",
    "2485432",
    "2485366",
    "2009643",
    "2688661",
    "1968224",
    "2185045",
    "1691552",
    "1691092",
    "1691557",
    "1691113",
    "1691126",
    "1691651",
    "1691659",
    "3393747",
    "2354802",
    "1144757",
    "1691966",
    "1691689",
    "1315912",
    "1691760",
    "1692208",
    "1691015",
    "1691638",
    "3393862",
    "3394227",
    "2936910",
    "707408",
    "2690121",
    "1691787",
    "1692223",
    "1691782",
    "2991308",
    "2393953",
    "3216098",
    "1691704",
    "1692460",
    "1713513",
    "214313",
    "961623",
    "2936929",
    "2793813",
    "469994",
    "748271",
    "2354811",
    "1710869",
    "202682",
    "2415313",
    "1691793",
    "2518267",
    "2520080",
    "1786111",
    "3441543",
    "3815874",
    "2393949",
    "352896",
    "2794953",
    "2793843",
    "3181198",
    "3181200",
    "1567278",
    "1691111",
    "2924744",
    "3224758",
    "3393740",
    "3025658",
    "1692158",
    "3578457",
    "3727128",
    "3578504",
    "469973",
    "3393635",
    "3732639",
    "2689969",
    "3941799",
    "3807636",
    "1151566",
    "1190047",
    "3454539",
    "213295",
    "3455593",
    "3455592",
    "3478598",
    "2840285",
    "881833",
    "1049625",
    "700280",
    "3181139",
    "2733485",
    "3732201",
    "763354",
    "2840281",
    "1948758",
    "2901777",
    "1690713",
    "2689785",
    "2853027",
    "2912250",
    "2393997",
    "2733476",
    "1693027",
    "1690209",
    "2840283",
    "2009667",
    "2840282",
    "3232628",
    "2901795",
    "3394374",
    "3394379",
    "1693000",
    "3398956",
    "2901775",
    "3225087",
    "1692095",
    "3562568",
    "1693315",
    "1710978",
    "3732198",
    "2733484",
    "2989173",
    "3393976",
    "3732200",
    "3394200",
    "3732209",
    "3732208",
    "3620315",
    "3394443",
    "3732677",
    "2436478",
    "371200",
    "505617",
    "1695796",
    "3750569",
    "3399272",
    "3399278",
    "3399279",
    "3750586",
    "3399274",
    "3574285",
    "2337248",
    "2485640",
    "2333399",
    "3399185",
    "3394319",
    "763345",
    "1719892",
    "2991292",
    "2485387",
    "2354814",
    "3181199",
    "505941",
    "2753538",
    "3728883",
    "1690696",
    "3407633",
    "202681",
    "1692206",
    "4206332",
    "3393617",
    "3750551",
    "2554099",
    "3434568",
    "1786114",
    "2733483",
    "1982504",
    "1693303",
    "3393739",
    "1695789",
    "3417691",
    "625670",
    "1904884",
    "1738046",
    "214470",
    "1692125",
    "410045",
    "531454",
    "3394186",
    "1692152",
    "4413216",
    "4413062",
    "1694119",
    "3441540",
    "1691013",
    "4414289",
    "505940",
    "606815",
    "3732202",
    "3393743",
    "1690934",
    "3609350",
    "1691761",
    "1737686",
    "1904801",
    "3506267",
    "2689627",
    "1694587",
    "2991298",
    "1739770",
    "3434768",
    "3620295",
    "1691478",
    "3399422",
    "3237905",
    "4413065",
    "336223",
    "4413210",
    "3179189",
    "3292313",
    "2469520",
    "3402528",
    "1035219",
    "3728190",
    "3394577",
    "3770735",
    "2793823",
    "3578464",
    "2912237",
    "1693002",
    "3578453",
    "592086",
    "2591903",
    "4413480",
    "2582895",
    "1693006",
    "2555804",
    "4483818",
    "214320",
    "4092070",
    "1690683",
    "1772366",
    "1741231",
    "3770741",
    "4413142",
    "1028421",
    "4538830",
    "3394610",
    "1691742",
    "2009658",
    "2753537",
    "1786941",
    "866216",
    "899072",
    "3179190",
    "213782",
    "3728841",
    "2554087",
    "3419908",
    "794998",
    "533892",
    "3179188",
    "1157048",
    "2991136",
    "3517025",
    "2458193",
    "2480506",
    "3237909",
    "3941764",
    "3750547",
    "3394721",
    "3399421",
    "3399423",
    "3394736",
    "3394357",
    "3394221",
    "3770747",
    "3541080",
    "4407170",
    "502444"
]