[
    "2635687",
    "1440419",
    "3262737",
    "1462163",
    "2045179",
    "3327857",
    "2390096",
    "1345317",
    "1663333",
    "1453735",
    "3348786",
    "2756892",
    "1462166",
    "1453734",
    "4012559",
    "2823235",
    "3907939",
    "4057900",
    "2522920",
    "1448326",
    "2697908",
    "1462164",
    "3886034",
    "4444523",
    "2448891",
    "3025540",
    "1453736",
    "4511822",
    "2756894",
    "2732062",
    "4057909",
    "1663331",
    "4081167",
    "3307502",
    "2983388",
    "4124850",
    "3907630",
    "2172399",
    "3307147",
    "1472919",
    "2191463",
    "4057915",
    "4057911",
    "2038862",
    "4084747",
    "3728776",
    "2159317",
    "2976998",
    "2038816",
    "4111598",
    "4005875",
    "4057912",
    "3910965",
    "2191476",
    "2533238",
    "3072367",
    "2999092",
    "1403125",
    "2038811",
    "1407955",
    "3999242",
    "1472907",
    "1857185",
    "4033867",
    "3940080",
    "3072401",
    "3291218",
    "2581223",
    "2174980",
    "1412017",
    "4057910",
    "1472895",
    "1472973",
    "4057914",
    "3910964",
    "3884567",
    "3399413",
    "2941049",
    "2390097",
    "3090885",
    "4019548",
    "1453738",
    "1457144",
    "2522903",
    "2462801",
    "1413667",
    "2054820",
    "2172401",
    "3884565",
    "1857188",
    "1453740",
    "2197863",
    "3162802",
    "3886049",
    "4019614",
    "4019615",
    "3454412",
    "4012374",
    "3884566",
    "1413661",
    "1457010",
    "2159322",
    "2976999",
    "4033868",
    "2798569",
    "1819567",
    "1857187",
    "1453739",
    "3987861",
    "4070874"
]