[
    "880301",
    "3345444",
    "3321559",
    "3348147",
    "1959620",
    "874619",
    "3898396",
    "2899193",
    "3898212",
    "4010707",
    "1453746",
    "1462557",
    "293623",
    "146403",
    "708810",
    "1613385",
    "2905023",
    "1453747",
    "3952964",
    "1499978",
    "3660221",
    "1453745",
    "4304682",
    "2068627",
    "1448793",
    "3728153",
    "4196530",
    "3898296",
    "4127686",
    "126131",
    "2900869",
    "1887953",
    "2308025",
    "195160",
    "4207714",
    "2068603",
    "760373",
    "3669644",
    "2778162",
    "987624",
    "4009171",
    "2562675",
    "3668855",
    "2873121",
    "760376",
    "3731423",
    "1684323",
    "3903288",
    "3481528",
    "4029743",
    "4147334",
    "4140810",
    "4220845",
    "4304677",
    "1463966",
    "3594353",
    "3669873",
    "4332977",
    "3321564",
    "4518544",
    "3804598",
    "3975515",
    "4116969",
    "3976190",
    "3451227",
    "3421670",
    "3664639",
    "2478594",
    "4110630"
]