[
    "4111412",
    "4111413",
    "2883397",
    "4012828",
    "3365292",
    "2904184",
    "2883328",
    "3578468",
    "3578471",
    "3946172",
    "3107996",
    "4012831",
    "4012834",
    "3107995",
    "4012832",
    "3290871",
    "3108008",
    "3107994",
    "4012835",
    "3107997",
    "4512295",
    "3262956",
    "4014584",
    "3119771",
    "3106330",
    "3149594",
    "3209402",
    "2954242",
    "4510870",
    "3107998",
    "3944919",
    "4424903",
    "4424921",
    "3110687",
    "4510813",
    "4512263",
    "3108012",
    "3135212",
    "4411362",
    "2865652",
    "4012833",
    "3108006",
    "2873435",
    "4512262",
    "4524052",
    "3108001",
    "4333936",
    "3108015",
    "3109448",
    "3892182",
    "4424907",
    "3111723",
    "3854652",
    "2764461",
    "3108007",
    "3108010",
    "3107596",
    "2764390",
    "3123256",
    "3119723",
    "3119704",
    "3201989",
    "3107999",
    "3149593",
    "2883316",
    "3108009",
    "3108000",
    "3108004",
    "4014586",
    "3103151",
    "3679198",
    "3199021",
    "3107445",
    "3105967",
    "2453662",
    "3223456",
    "4014581",
    "3119724",
    "3106792",
    "3152032",
    "3108013",
    "2865651",
    "4178908",
    "3106290",
    "3123269",
    "2883399",
    "3174967",
    "3143179",
    "1195758",
    "4083996",
    "3201980",
    "4411704",
    "4411707",
    "4411717",
    "4414045",
    "4397913",
    "338439",
    "4424896",
    "4424923",
    "4424897",
    "4424925",
    "4424898",
    "4424991",
    "4424904",
    "4424905",
    "4425005",
    "4424909",
    "4425009",
    "4425010",
    "4424917",
    "4424918",
    "4424919",
    "4424920",
    "4424894",
    "4424895",
    "4424922",
    "4429371",
    "4429372",
    "4429411",
    "4429373",
    "4429395",
    "4396275",
    "3105247",
    "3119784",
    "2883334",
    "3108014",
    "3126133",
    "3109446",
    "4424908",
    "2883332",
    "4484258",
    "3106284",
    "4415844",
    "4414030",
    "4411396",
    "4411411",
    "4562427",
    "3187622",
    "3152031",
    "4557079",
    "4346496",
    "4346488",
    "4580619",
    "4580393",
    "4580407",
    "4580409",
    "4580316",
    "4580317",
    "4580321",
    "4580323",
    "4512484",
    "4512506",
    "4411390",
    "3720098",
    "3720097",
    "4426258",
    "468447",
    "2904961",
    "3424593",
    "2475749",
    "3104475",
    "2883295",
    "4608143",
    "3984718",
    "4396276",
    "4580396",
    "4580394",
    "3209401"
]