[
    "128735",
    "2514991",
    "1367981",
    "1585896",
    "2836546",
    "1618101",
    "2902142",
    "2430577",
    "2437101",
    "2566635",
    "1368042",
    "3892918",
    "1618104",
    "2915788",
    "1621204",
    "1410254",
    "4518573",
    "2179970",
    "4438367",
    "1631355",
    "3910765",
    "2635913",
    "2801011",
    "4440219",
    "3724065",
    "2683340",
    "1621199",
    "3631236",
    "3464719",
    "3454778",
    "1656959",
    "2940850",
    "2444795",
    "2801022",
    "4085201",
    "3892980",
    "2586850",
    "2178768",
    "2075318",
    "3054216",
    "1061868",
    "3929045",
    "3929056",
    "4255661",
    "4255667",
    "4454994",
    "3540842",
    "4344876",
    "4189121",
    "3984150",
    "2847869",
    "3528651",
    "4485913",
    "3410234",
    "4054535"
]