[
    "2299088",
    "2454092",
    "1859873",
    "1821306",
    "1229924",
    "365077",
    "3778684",
    "315981",
    "1935944",
    "4234037",
    "2912487",
    "1849927",
    "2474563",
    "3741703",
    "315951",
    "731932",
    "1366239",
    "1830519",
    "2029404",
    "1510681",
    "989926",
    "1243321",
    "3379491",
    "2896328",
    "808785",
    "2904039",
    "3016513",
    "1510712",
    "1935949",
    "2783618",
    "4117637",
    "3922505",
    "564176",
    "1510711",
    "1935948",
    "2029153",
    "1242557",
    "2260607",
    "3730437",
    "1510715",
    "4376238",
    "1229904",
    "3876478",
    "1983515",
    "406031",
    "928814",
    "3379580",
    "2459812",
    "3006614",
    "3795237",
    "3965432",
    "1736074",
    "3288303",
    "4063612",
    "1869701",
    "1983512",
    "4357873",
    "4351895",
    "1513159",
    "2299086",
    "851283",
    "1510710",
    "1510714",
    "3551376",
    "3380901",
    "3348554",
    "3350317",
    "3795206",
    "635854",
    "2478850",
    "1736076",
    "3006630",
    "3856997",
    "4375339",
    "4112763",
    "4339344",
    "1939411",
    "1870410",
    "4136780",
    "3426492",
    "1242558",
    "3876635",
    "1980500",
    "1869982",
    "3288299",
    "3820079",
    "1982599",
    "4376907",
    "3932981",
    "1830797",
    "4242510",
    "484452",
    "2926027",
    "3168532",
    "797098",
    "3380922",
    "1125288",
    "1684163",
    "2996715",
    "2168520",
    "1875752",
    "600986",
    "1964264",
    "3798836",
    "982831",
    "3800597",
    "1704884",
    "2811636",
    "1964436",
    "1878907",
    "2774454",
    "3119791",
    "3010427",
    "1983508",
    "1870411",
    "2168518",
    "3019062",
    "2119817",
    "315934",
    "1366238",
    "2769128",
    "1611859",
    "431059",
    "3524467",
    "2811598",
    "1366240",
    "2988700",
    "315939",
    "3880579",
    "2597285",
    "2363568",
    "3414345",
    "3800596",
    "3519864",
    "1684166",
    "3096546",
    "3907782",
    "2726718",
    "1830796",
    "1513688",
    "1879047",
    "2014387",
    "3181423",
    "3795220",
    "3841032",
    "2168519",
    "1840237",
    "3795228",
    "1693972",
    "2088995",
    "1840236",
    "2839425",
    "3828366",
    "3857115",
    "3943329",
    "3943330",
    "3958254",
    "3363386",
    "4071010",
    "3942215",
    "4098194",
    "3313811",
    "2990454",
    "3697018",
    "1938991",
    "4215618",
    "3713931",
    "4245675",
    "4245782",
    "4260501",
    "4260420",
    "3460947",
    "4376909",
    "426055",
    "3380428",
    "4375340",
    "4402513",
    "4406049",
    "4038581",
    "4402514",
    "4408822",
    "4434048",
    "1374299",
    "4185808",
    "612920",
    "4463773",
    "4463774",
    "4467339",
    "4467040",
    "4463715",
    "3460936",
    "4476490",
    "3599070",
    "4231411",
    "3184569",
    "1964719",
    "2745958",
    "4320489",
    "4308720",
    "3518487",
    "4467363",
    "3016544",
    "4479398",
    "4479400",
    "1818059",
    "2626935",
    "1713689",
    "1713688",
    "3880569",
    "2963053"
]