[
    "1875430",
    "2527851",
    "704005",
    "315973",
    "1404079",
    "2418669",
    "3475468",
    "1046503",
    "2980453",
    "2418673",
    "2527850",
    "504367",
    "773533",
    "315942",
    "2778854",
    "773536",
    "2980454",
    "1875429",
    "315928",
    "1377687",
    "1388723",
    "3466568",
    "773534",
    "2705792",
    "2906528",
    "1875428",
    "908690",
    "2527852",
    "2906524",
    "2311907",
    "2906519",
    "2906520",
    "2419614",
    "498258",
    "244126",
    "4026218",
    "3475467",
    "3815619",
    "4240504",
    "3476108",
    "773535",
    "1372468",
    "772127",
    "772135"
]