[
    "3154621",
    "2271902",
    "2740390",
    "1641248",
    "2650950",
    "2538914",
    "2319689",
    "1449091",
    "4230438",
    "2055245",
    "4432765",
    "2608113",
    "1641251",
    "2576462",
    "2418708",
    "4206081",
    "2139496",
    "1011024",
    "2732597",
    "3558965",
    "3378507",
    "2237620",
    "2237905",
    "2739038",
    "296953",
    "1819467",
    "3955460",
    "4274835",
    "2649996",
    "1823210",
    "4013575",
    "3990616",
    "4266568",
    "1641236",
    "2844135",
    "4098439",
    "3945971",
    "4155548",
    "1641242",
    "3194275",
    "2650953",
    "3894489",
    "316838",
    "3194208",
    "3357992",
    "2083290",
    "2649991",
    "3981345",
    "2482244",
    "3040332",
    "3852843",
    "1847668",
    "3603071",
    "1641244",
    "4056108",
    "2999170",
    "4047899",
    "2531994",
    "3955074",
    "3504057",
    "2916322",
    "3636448",
    "3549635",
    "347999",
    "1496764",
    "1641620",
    "2851093",
    "2550102",
    "3950589",
    "2560733",
    "3953148",
    "2298342",
    "4274847",
    "4462522",
    "3076842",
    "3358027",
    "3401065",
    "2626403",
    "2023500",
    "1641609",
    "1641241",
    "1496765",
    "1641232",
    "4213714",
    "2602829",
    "3357780",
    "3981366",
    "3448211",
    "1470903",
    "3950716",
    "1641619",
    "4081044",
    "2789844",
    "3984808",
    "779900",
    "543408",
    "1641249",
    "2560732",
    "3954024",
    "3000727",
    "1641222",
    "4017875",
    "3636501",
    "308206",
    "3516949",
    "3951423",
    "4155539",
    "2257416",
    "4266575",
    "3040336",
    "1940766",
    "4005235",
    "2738968",
    "3495515",
    "2882642",
    "1602964",
    "3401066",
    "1641263",
    "4375572",
    "1641243",
    "1496766",
    "511728",
    "3670303",
    "4012743",
    "1661448",
    "1641644",
    "2056443",
    "2494406",
    "4013399",
    "99248",
    "1274620",
    "2851106",
    "3981346",
    "3498552",
    "3365395",
    "3706221",
    "756943",
    "3505159",
    "3736032",
    "3670302",
    "2965384",
    "4008199",
    "3037729",
    "578365",
    "2988966",
    "3076843",
    "2994250",
    "2789259",
    "2600384",
    "1835562",
    "1496761",
    "2957493",
    "3987749",
    "99506",
    "1641231",
    "1823395",
    "3576277",
    "2957773",
    "4553449",
    "3496325",
    "1604108",
    "3990584",
    "1029811",
    "567664",
    "4069162",
    "2185290",
    "1641642",
    "99330",
    "159434",
    "3636421",
    "3355610",
    "4015261",
    "101150",
    "3649555",
    "4166191",
    "3670304",
    "3548265",
    "3898914",
    "3956274",
    "1823474",
    "3535748",
    "3950522",
    "2877645",
    "4048853",
    "2531985",
    "3548264",
    "978176",
    "2998797",
    "3981867",
    "4098478",
    "1641223",
    "4030900",
    "3750806",
    "3513330",
    "2082040",
    "3887422",
    "4048865",
    "99635",
    "1471023",
    "3513360",
    "3363049",
    "1590821",
    "2870283",
    "3409876",
    "3194213",
    "3440638",
    "4498742",
    "430600",
    "2785337",
    "2790481",
    "469697",
    "1614846",
    "4025647",
    "3391057",
    "1496763",
    "1614851",
    "2050888",
    "579012",
    "2761051",
    "1496767",
    "1641230",
    "3999553",
    "3603204",
    "2193255",
    "1496760",
    "4323100",
    "4513232",
    "769878",
    "2127108",
    "4001625",
    "3963223",
    "3045321",
    "721466",
    "3973165",
    "2640203",
    "3946101",
    "3082988",
    "3667496",
    "1641226",
    "2957760",
    "3692553",
    "4127209",
    "2838754",
    "2371997",
    "3963004",
    "4527630",
    "3723929",
    "3670305",
    "1852673",
    "3953191",
    "452586",
    "2024268",
    "3505178",
    "3670301",
    "2606258",
    "2021113",
    "2700206",
    "3507311",
    "338614",
    "3747837",
    "1641260",
    "2863323",
    "3522111",
    "2364375",
    "2435635",
    "1716577",
    "3303647",
    "2616259",
    "4221585",
    "1696788",
    "1823396",
    "838974",
    "4296730",
    "3760445",
    "451126",
    "4025901",
    "1475010",
    "416818",
    "4322984",
    "3965904",
    "877603",
    "99374",
    "4012157",
    "1641601",
    "3977919",
    "1641247",
    "2470649",
    "4039103",
    "1496759",
    "1641626",
    "3068532",
    "1641227",
    "3355885",
    "1641618",
    "2743779",
    "3355662",
    "4084357",
    "1684390",
    "4260346",
    "306637",
    "1743578",
    "1985452",
    "3854601",
    "3624572",
    "4104682",
    "4015589",
    "2965415",
    "1018014",
    "1641631",
    "2975538",
    "3001423",
    "3636401",
    "4576235",
    "2319688",
    "2556149",
    "2533553",
    "3496324",
    "3979863",
    "1454295",
    "3390245",
    "101157",
    "219135",
    "4384490",
    "1641235",
    "3067997",
    "913516",
    "3390752",
    "1641225",
    "1471009",
    "3365557",
    "1348325",
    "4359486",
    "3390780",
    "3512816",
    "3962954",
    "2152287",
    "3642896",
    "3513108",
    "2969279",
    "4403218",
    "4407888",
    "3012296",
    "1786130",
    "469695",
    "2031163",
    "4104671",
    "4339679",
    "3967715",
    "2893876",
    "3946672",
    "3662401",
    "1641637",
    "2571690",
    "1858794",
    "1644903",
    "1786126",
    "1614849",
    "3012297",
    "1049382",
    "3535749",
    "4114372",
    "3535750",
    "3509415",
    "2762217",
    "3662645",
    "3990040",
    "99329",
    "3012298",
    "3990982",
    "4357505",
    "2163754",
    "3964378",
    "3239345",
    "3665750",
    "4513688",
    "1641608",
    "258588",
    "823506",
    "3621623",
    "4038998",
    "3319490",
    "3417707",
    "3365401",
    "3535543",
    "3878408",
    "4342010",
    "3403464",
    "2571675",
    "2319841",
    "3068546",
    "3286609",
    "4139884",
    "3611173",
    "3641432",
    "3390247",
    "3667631",
    "4162800",
    "1640280",
    "4339699",
    "760188",
    "129716",
    "4535147",
    "3178483",
    "4521473",
    "3012301",
    "2341327",
    "4220320",
    "1487910",
    "1542099",
    "513184",
    "2257510",
    "1946084",
    "3894037",
    "3604723",
    "930151",
    "2675172",
    "1622627",
    "3535502",
    "2489869",
    "3012300",
    "3012299",
    "2146854",
    "1823397",
    "3989972",
    "3950818",
    "99425",
    "1471030",
    "4221642",
    "4015410",
    "4074458",
    "3386187",
    "4313280",
    "2638576",
    "389324",
    "3503842",
    "3390200",
    "3981866",
    "3037698",
    "2437969",
    "4080913",
    "1881062",
    "3019633",
    "3229479",
    "2509379",
    "4273700",
    "4309916",
    "1641645",
    "3638678",
    "3513124",
    "3627324",
    "1019501",
    "4038559",
    "4039252",
    "3949365",
    "3989520",
    "3229484",
    "2154847",
    "327131",
    "241406",
    "3834397",
    "2382153",
    "4015096",
    "4104697",
    "4346858",
    "477814",
    "1631863",
    "3961453",
    "3600826",
    "99631",
    "4221643",
    "1641629",
    "2356215",
    "4010399",
    "3538386",
    "3958466",
    "1823473",
    "3667637",
    "2920440",
    "3067985",
    "553243",
    "3635655",
    "2450829",
    "1668400",
    "3599010",
    "2209732",
    "2881774",
    "2881775",
    "3518876",
    "2853573",
    "1641261",
    "1023067",
    "1496762",
    "2852812",
    "1641234",
    "3040413",
    "3641346",
    "3964861",
    "1641638",
    "2961349",
    "3692540",
    "3665742",
    "4362548",
    "4336195",
    "4052198",
    "4359282",
    "2024267",
    "3033128",
    "469698",
    "876132",
    "3973086",
    "3682927",
    "3991023",
    "2163766",
    "3665751",
    "1608900",
    "1946027",
    "4346860",
    "1475009",
    "1475083",
    "3981116",
    "3974492",
    "3562134",
    "3519126",
    "3662405",
    "2764380",
    "3662406",
    "3670307",
    "2848449",
    "1454294",
    "3958820",
    "477805",
    "1351708",
    "3002170",
    "320870",
    "1716274",
    "1712709",
    "1328984",
    "1823399",
    "101154",
    "1641233",
    "1641640",
    "989309",
    "145177",
    "3046805",
    "1641610",
    "1641623",
    "1823398",
    "1716125",
    "4058934",
    "1641636",
    "2538805",
    "3002162",
    "1081136",
    "3669058",
    "3604742",
    "3604745",
    "2146862",
    "489136",
    "1614847",
    "3979632",
    "2533547",
    "2963083",
    "2437957",
    "1426864",
    "2957840",
    "1860945",
    "1643551",
    "863310",
    "553237",
    "2891840",
    "2836828",
    "145178",
    "2257515",
    "2237777",
    "3439508",
    "3535863",
    "3968862",
    "3970972",
    "4043300",
    "3431462",
    "3962506",
    "346711",
    "3672975",
    "2798174",
    "940762",
    "3981114",
    "1641229",
    "3670306",
    "263604",
    "2042852",
    "2608117",
    "2240390",
    "1860944",
    "962802",
    "1743557",
    "1881222",
    "1786123",
    "823154",
    "816221",
    "2277624",
    "1786113",
    "1786057",
    "3035434",
    "3501272",
    "3684538",
    "3576675",
    "3952963",
    "3958729",
    "3961457",
    "3962654",
    "3968850",
    "3968882",
    "3981906",
    "3983486",
    "3519206",
    "3955291",
    "4016129",
    "1474930",
    "2042841",
    "1350905",
    "166304",
    "99633",
    "1641255",
    "1642716",
    "1647635",
    "1652973",
    "3019666",
    "3504458",
    "3494312",
    "3538382",
    "3039559",
    "3952096",
    "3952103",
    "1479134",
    "1641708",
    "3365553",
    "3546366",
    "3667615",
    "4048875",
    "1716279",
    "3983506",
    "3983504",
    "3611147",
    "3391068",
    "1641634",
    "3970168",
    "3601199",
    "3535474",
    "3601177",
    "3601204",
    "3518881",
    "3965843",
    "3518704",
    "3535349",
    "2885904",
    "2881942",
    "3977645",
    "3974491",
    "3610014",
    "3954227",
    "4032358",
    "4220323",
    "99131",
    "936951",
    "99331",
    "3390650",
    "3390687",
    "2957849",
    "469699",
    "3946758",
    "3963067",
    "3662400",
    "4165768",
    "4339680",
    "4346854",
    "4346857",
    "2961354",
    "2364389",
    "4384463",
    "4221735",
    "3959240",
    "4060518",
    "3504724",
    "1946032",
    "2310767",
    "99369",
    "3509180",
    "3524819",
    "1614844",
    "4032553",
    "3989436",
    "195206",
    "1590843",
    "4439963",
    "2435322",
    "3764797",
    "4221732",
    "4447686",
    "4186570",
    "4457021",
    "1716271",
    "4221733",
    "4221734",
    "4273714",
    "3511578",
    "3371592",
    "1716276",
    "4061601",
    "3551579",
    "3498558",
    "3995034",
    "4493513",
    "4306889",
    "4359559",
    "4362562",
    "2740514",
    "4493530",
    "4470762",
    "4306890",
    "3950974",
    "2961076",
    "4395804",
    "1642804",
    "4373042",
    "2775350",
    "3972366",
    "4498801",
    "4014825",
    "2549981",
    "2136088",
    "1641611",
    "1641621",
    "4521474",
    "4521487",
    "3706352",
    "3401542",
    "3625823",
    "99469",
    "2437704",
    "3506648",
    "2764384",
    "4422661",
    "1622696",
    "1451845",
    "3762693",
    "4531561",
    "2163755",
    "4236249",
    "2969378",
    "4034781",
    "511737",
    "489135",
    "930130",
    "3992982",
    "4040663",
    "4014807",
    "3502670",
    "4080611",
    "4498802",
    "4513685",
    "4493533",
    "4020567",
    "4498795",
    "4493494",
    "320869",
    "3954329",
    "291461",
    "3545596",
    "4241585",
    "3611416",
    "3408905",
    "4044925",
    "3983505",
    "2075473",
    "2785302",
    "4512960",
    "4493424",
    "2961350",
    "2790480",
    "4470773",
    "3538264",
    "1641253",
    "3986878",
    "1646021",
    "2893655",
    "1805122",
    "742412",
    "2965568",
    "1644910",
    "291761",
    "1451881",
    "976546",
    "877625",
    "752868",
    "2313429",
    "3861999",
    "4267764",
    "2152441",
    "3068131",
    "2895985",
    "3954178"
]