[
    "3511466",
    "4357817",
    "812214",
    "2075523",
    "3093408",
    "1651629",
    "3289682",
    "2730596",
    "3289687",
    "1685105",
    "4363361",
    "4355970",
    "277468",
    "2075520",
    "1119506",
    "516369",
    "2812057",
    "3460570",
    "2788857",
    "3983564",
    "2865361",
    "4355973",
    "2075519",
    "2766027",
    "3406613",
    "4355952",
    "2800997",
    "3460569",
    "2970975",
    "3983689",
    "3443539",
    "4359696",
    "889800",
    "3406655",
    "4355949",
    "4357818",
    "3270574",
    "4337584",
    "3403085",
    "4337604",
    "2453368",
    "4355978",
    "273361",
    "1816987",
    "4355971",
    "3511454",
    "2970974",
    "4361614",
    "3836133",
    "511963",
    "2451446",
    "2736795",
    "1654429",
    "318809",
    "998796",
    "2591852",
    "4355950",
    "4372043",
    "4363362",
    "4361612",
    "3270544",
    "510500",
    "1635322",
    "2016088",
    "2550744",
    "1637311",
    "3714171",
    "1363876",
    "563098",
    "4363367",
    "3781378",
    "586972",
    "4359701",
    "4337602",
    "4342819",
    "2773562",
    "4339325",
    "4480017",
    "1626349",
    "4344491",
    "1027729",
    "1820441",
    "2973278",
    "1336876",
    "4348704",
    "3499922",
    "2873995",
    "1052383",
    "4342817",
    "3714169",
    "1689440",
    "4339316",
    "4372030",
    "4355968",
    "708065",
    "4355958",
    "1728325",
    "4348729",
    "4361610",
    "3556174",
    "4344496",
    "3536266",
    "3465097",
    "4363366",
    "4355960",
    "2285507",
    "2592807",
    "3714160",
    "4361619",
    "493970",
    "3922071",
    "4359703",
    "4363380",
    "3400207",
    "2987507",
    "301226",
    "4355953",
    "3522557",
    "1591658",
    "4337616",
    "510501",
    "1907213",
    "3511420",
    "1454489",
    "4340903",
    "241908",
    "586975",
    "4355980",
    "2422961",
    "3406804",
    "3011479",
    "3426003",
    "2546156",
    "3074754",
    "3403193",
    "2589755",
    "4344489",
    "1667167",
    "707666",
    "2984604",
    "3499929",
    "1618268",
    "1938866",
    "2785516",
    "2778358",
    "4089914",
    "1714119",
    "4337597",
    "2713267",
    "4396818",
    "4557550",
    "2443488",
    "337273",
    "241943",
    "4449718",
    "4355981",
    "2478696",
    "4370886",
    "2912367",
    "572476",
    "3432947",
    "1775230",
    "340742",
    "3289302",
    "2606659",
    "4468147",
    "4213019",
    "864189",
    "251298",
    "4359691",
    "4348725",
    "708477",
    "3435460",
    "2554124",
    "1653922",
    "2293924",
    "2026496",
    "1378059",
    "2067056",
    "2032003",
    "3303809",
    "300641",
    "2285404",
    "3011595",
    "4348715",
    "4387530",
    "4357816",
    "2039342",
    "3174022",
    "2285402",
    "424962",
    "3273228",
    "2139778",
    "354135",
    "2728248",
    "241935",
    "2968600",
    "4370748",
    "4363405",
    "3301979",
    "707691",
    "4337579",
    "1651542",
    "1717156",
    "1739837",
    "1651560",
    "3713279",
    "1046998",
    "2076033",
    "244279",
    "1817015",
    "1318425",
    "3311603",
    "2732928",
    "4337599",
    "4354141",
    "4371868",
    "4363363",
    "1052385",
    "3270436",
    "4342821",
    "4363378",
    "4359798",
    "2419379",
    "4348732",
    "499698",
    "2640559",
    "1672266",
    "4363651",
    "963131",
    "4348718",
    "3421041",
    "4340911",
    "3480589",
    "2676148",
    "3400211",
    "566876",
    "4533854",
    "586974",
    "1454487",
    "4337596",
    "252305",
    "4355983",
    "3408434",
    "2028409",
    "2247273",
    "3423009",
    "2688162",
    "4337632",
    "4116511",
    "1668364",
    "4371851",
    "3301464",
    "3732718",
    "2026614",
    "2670637",
    "2382610",
    "2550430",
    "4348768",
    "1809523",
    "2725498",
    "4348705",
    "2084287",
    "4357853",
    "2545981",
    "706376",
    "1857261",
    "276926",
    "1651438",
    "4342824",
    "3408541",
    "1664654",
    "4537387",
    "2652603",
    "4359699",
    "1820429",
    "3408852",
    "2988482",
    "2285399",
    "4535234",
    "1667175",
    "3924018",
    "1641845",
    "3006284",
    "2574777",
    "1857262",
    "1655977",
    "1446485",
    "643043",
    "4384012",
    "1907214",
    "3465476",
    "4344472",
    "4375337",
    "2550572",
    "3965673",
    "3074910",
    "425005",
    "2586585",
    "1820622",
    "1625791",
    "2163879",
    "4009405",
    "4344494",
    "4397385",
    "564014",
    "2988467",
    "4525147",
    "1624988",
    "3403084",
    "4365857",
    "4363382",
    "3474044",
    "982667",
    "1820424",
    "3409282",
    "1229871",
    "4406479",
    "1651516",
    "2832378",
    "4375351",
    "1646070",
    "1662665",
    "4337590",
    "2026487",
    "4337700",
    "2006788",
    "2683987",
    "4355947",
    "3412075",
    "2984515",
    "3387667",
    "3449821",
    "1095567",
    "1651511",
    "4344493",
    "4348699",
    "2077351",
    "4112759",
    "1666083",
    "760556",
    "1068556",
    "4337581",
    "1633804",
    "4537007",
    "2550914",
    "2907502",
    "4355963",
    "3385626",
    "1655823",
    "708070",
    "1697071",
    "2504373",
    "1095570",
    "3385671",
    "1744434",
    "432453",
    "3409357",
    "4535590",
    "4339319",
    "4344473",
    "3528995",
    "2238357",
    "269810",
    "4339326",
    "2863434",
    "1681251",
    "4361611",
    "1617570",
    "3074941",
    "2077302",
    "2803870",
    "1641874",
    "265399",
    "2966308",
    "2419948",
    "3407068",
    "1645556",
    "2021395",
    "4348706",
    "1637604",
    "4359777",
    "4348703",
    "1626569",
    "4357961",
    "4535654",
    "3425993",
    "3425995",
    "838394",
    "2298685",
    "244500",
    "4348769",
    "2591822",
    "243118",
    "3730608",
    "2812052",
    "2134316",
    "4535241",
    "273358",
    "3460568",
    "3303805",
    "2334398",
    "2221128",
    "1282243",
    "1670005",
    "1649644",
    "1591663",
    "4535597",
    "4372582",
    "1717031",
    "840212",
    "2244362",
    "2119167",
    "707699",
    "1667138",
    "3409755",
    "1669834",
    "4340905",
    "4126380",
    "697454",
    "2713340",
    "4348741",
    "1906209",
    "2616734",
    "1711275",
    "1802526",
    "2909351",
    "2988464",
    "1617108",
    "2524900",
    "439760",
    "4337622",
    "3426001",
    "1619568",
    "1843749",
    "4355977",
    "3010207",
    "2594804",
    "4348710",
    "2435895",
    "4348734",
    "4535472",
    "4337697",
    "1744865",
    "1619704",
    "2507577",
    "2984162",
    "2586584",
    "4386488",
    "4535439",
    "3582763",
    "2738054",
    "3222628",
    "4363425",
    "707516",
    "3408793",
    "4348724",
    "4348737",
    "4348717",
    "4371847",
    "4371848",
    "4371854",
    "4535248",
    "4371858",
    "4535652",
    "1791605",
    "1591660",
    "3537624",
    "501313",
    "3311762",
    "1507754",
    "3442603",
    "4340917",
    "3609429",
    "2572081",
    "244602",
    "4357835",
    "962205",
    "2601584",
    "337270",
    "1597754",
    "243114",
    "1661889",
    "251814",
    "2188542",
    "4357848",
    "3983764",
    "243116",
    "3074758",
    "2079146",
    "2359410",
    "3270541",
    "251303",
    "1689438",
    "1816944",
    "2478708",
    "4344490",
    "2586275",
    "1787806",
    "245734",
    "2839158",
    "3518223",
    "890707",
    "2745580",
    "3982286",
    "652933",
    "4375333",
    "4395897",
    "269782",
    "3463965",
    "1138312",
    "251300",
    "4361615",
    "1653481",
    "4355956",
    "2132051",
    "820538",
    "2442573",
    "4348727",
    "1941638",
    "1833451",
    "3054750",
    "3064945",
    "2985961",
    "707554",
    "456202",
    "3761327",
    "4180021",
    "1664820",
    "3433318",
    "1346748",
    "1646080",
    "2635185",
    "4344486",
    "282463",
    "318793",
    "1638134",
    "4344483",
    "2890328",
    "1501073",
    "3289735",
    "4112985",
    "1687688",
    "4337636",
    "2811344",
    "559744",
    "765434",
    "1513686",
    "652936",
    "4348738",
    "277467",
    "4337702",
    "4359702",
    "266621",
    "4534688",
    "2924076",
    "1662677",
    "2909212",
    "1645194",
    "4357819",
    "1025860",
    "1667147",
    "2435780",
    "3406928",
    "3433426",
    "3406973",
    "273370",
    "2683892",
    "1943871",
    "1446481",
    "1626501",
    "2939717",
    "4431531",
    "2791483",
    "1336874",
    "3417274",
    "2894308",
    "3993565",
    "1700215",
    "1820432",
    "476591",
    "254734",
    "1833525",
    "1336875",
    "4337586",
    "266488",
    "4371865",
    "3174028",
    "243113",
    "3006261",
    "4344476",
    "4355969",
    "2442422",
    "1651431",
    "2745577",
    "708072",
    "1618276",
    "2867559",
    "245749",
    "4339321",
    "4390073",
    "1617109",
    "1618382",
    "4357865",
    "2188454",
    "589729",
    "4340916",
    "4395555",
    "4355955",
    "254743",
    "1645206",
    "3408549",
    "770069",
    "2717192",
    "3493698",
    "452517",
    "253305",
    "465144",
    "1820448",
    "2594921",
    "1618251",
    "422966",
    "4363449",
    "1454492",
    "1323053",
    "1644517",
    "1366319",
    "1679266",
    "2836047",
    "393091",
    "464936",
    "1667144",
    "3401992",
    "425029",
    "518047",
    "3443183",
    "3049309",
    "2996544",
    "1683103",
    "2911803",
    "2330379",
    "313825",
    "2831424",
    "2558516",
    "3403252",
    "1068555",
    "2220706",
    "4344499",
    "392588",
    "1651537",
    "1645751",
    "4371871",
    "3474858",
    "4348772",
    "1716793",
    "729710",
    "4357839",
    "4361609",
    "2553097",
    "2924102",
    "2713266",
    "751346",
    "243120",
    "1626176",
    "393092",
    "4339339",
    "392596",
    "3904005",
    "4366682",
    "4307555",
    "3417366",
    "2435892",
    "4337624",
    "3291926",
    "955316",
    "1079063",
    "1618604",
    "4337589",
    "3492093",
    "1618272",
    "3157762",
    "1366336",
    "2560034",
    "2729269",
    "4355964",
    "2521544",
    "4363375",
    "1833550",
    "2591776",
    "1638719",
    "4340932",
    "2920911",
    "2165753",
    "2832182",
    "1979153",
    "4387993",
    "589733",
    "4344484",
    "860879",
    "1618253",
    "4355976",
    "1641876",
    "2076140",
    "3174038",
    "2188538",
    "1820435",
    "244237",
    "4339323",
    "3012892",
    "241939",
    "1680391",
    "1655326",
    "1644984",
    "269914",
    "3974245",
    "1642140",
    "4397028",
    "4337627",
    "2738145",
    "563100",
    "2895099",
    "2083751",
    "1653463",
    "2531496",
    "1501079",
    "1581589",
    "1687746",
    "2909355",
    "2827761",
    "4348770",
    "1403434",
    "860914",
    "3432200",
    "3442401",
    "3984664",
    "1618263",
    "3006283",
    "1446482",
    "1618269",
    "245067",
    "2076215",
    "244596",
    "1618270",
    "2435773",
    "2478707",
    "1877649",
    "4096068",
    "3668497",
    "1398544",
    "4371849",
    "4359706",
    "1651352",
    "2717264",
    "4359278",
    "2512123",
    "4375336",
    "241940",
    "2572073",
    "1722178",
    "3556221",
    "509639",
    "2828605",
    "402703",
    "1618257",
    "1667191",
    "1682846",
    "1853582",
    "1682567",
    "1857259",
    "804903",
    "269843",
    "1346745",
    "3074837",
    "330107",
    "2090834",
    "2512735",
    "1662451",
    "656660",
    "1653975",
    "2052490",
    "1668378",
    "1346494",
    "318808",
    "4372073",
    "2987497",
    "1649212",
    "1651368",
    "2988508",
    "1095568",
    "4339320",
    "251744",
    "1857253",
    "1645786",
    "3403212",
    "4074825",
    "241952",
    "2540179",
    "1346746",
    "3524796",
    "3408778",
    "2267180",
    "2735552",
    "770072",
    "244227",
    "1649147",
    "1618267",
    "3026397",
    "2682260",
    "1824206",
    "1990455",
    "1645313",
    "1990456",
    "1249987",
    "1624570",
    "2571982",
    "789798",
    "4339347",
    "4318469",
    "2131822",
    "1710951",
    "1066244",
    "4355962",
    "4363377",
    "806248",
    "3426013",
    "2189786",
    "2695155",
    "1624556",
    "253768",
    "4180159",
    "4355959",
    "3480566",
    "2586514",
    "2898648",
    "1336880",
    "1641767",
    "2580813",
    "1667186",
    "243081",
    "2238354",
    "1629837",
    "3184279",
    "337222",
    "396586",
    "742036",
    "2551141",
    "2451504",
    "1934357",
    "4009708",
    "1244663",
    "3535250",
    "733461",
    "591423",
    "2558448",
    "2550891",
    "3174031",
    "653746",
    "729712",
    "3493773",
    "1857265",
    "1339864",
    "824709",
    "2832130",
    "3018014",
    "3074850",
    "1618705",
    "2913405",
    "3500146",
    "3174027",
    "2134285",
    "1346742",
    "1795121",
    "2285406",
    "1962992",
    "3431713",
    "3493699",
    "562413",
    "818497",
    "1736436",
    "2860011",
    "277678",
    "245399",
    "2984160",
    "393107",
    "1618657",
    "2451640",
    "1618265",
    "2756987",
    "1309391",
    "2134455",
    "252307",
    "397865",
    "422238",
    "2418894",
    "2209864",
    "244601",
    "4112986",
    "2735547",
    "1632836",
    "3983515",
    "1638093",
    "3408443",
    "2754202",
    "2898795",
    "2051650",
    "2934777",
    "4089844",
    "270562",
    "1662159",
    "3400213",
    "269781",
    "1833473",
    "2435839",
    "1685451",
    "1741740",
    "2579674",
    "2688007",
    "2620756",
    "3423026",
    "707553",
    "3500145",
    "3405688",
    "1591657",
    "1195711",
    "1346877",
    "2890350",
    "4126913",
    "2900827",
    "2962892",
    "1001667",
    "1644546",
    "3527793",
    "3535317",
    "1653451",
    "4009400",
    "3978941",
    "2435818",
    "570761",
    "313812",
    "2803835",
    "1454494",
    "1655455",
    "1809518",
    "425077",
    "2622210",
    "2596449",
    "733462",
    "1645300",
    "1833372",
    "2282658",
    "3286380",
    "4009769",
    "1669817",
    "1624552",
    "3420686",
    "2909352",
    "1632850",
    "1714122",
    "733464",
    "2890333",
    "498054",
    "1682812",
    "3460567",
    "3522423",
    "1632852",
    "1028571",
    "2801987",
    "1912663",
    "2996543",
    "3984663",
    "1641875",
    "1366314",
    "1646284",
    "1336871",
    "1645569",
    "2505805",
    "294193",
    "3522294",
    "3522182",
    "243083",
    "3431758",
    "2449934",
    "2551142",
    "936160",
    "2905109",
    "269842",
    "739163",
    "839146",
    "3474038",
    "2994503",
    "1645292",
    "2913478",
    "1655291",
    "273363",
    "3011581",
    "1446483",
    "1626348",
    "2656753",
    "269903",
    "392587",
    "241936",
    "266609",
    "1645716",
    "241937",
    "2978661",
    "1618256",
    "3647194",
    "997122",
    "2666295",
    "1618261",
    "1641842",
    "243109",
    "3405484",
    "1641820",
    "2832214",
    "1641770",
    "1857254",
    "2890348",
    "244498",
    "1651311",
    "2188458",
    "2419319",
    "2028967",
    "1645303",
    "1681273",
    "1664946",
    "1664825",
    "2533981",
    "1645437",
    "1632618",
    "1581602",
    "3500137",
    "3983628",
    "951551",
    "253810",
    "653745",
    "1728327",
    "1774402",
    "2682256",
    "1618605",
    "3517692",
    "789799",
    "3527953",
    "1638154",
    "3408556",
    "3330552",
    "3500140",
    "2695132",
    "745664",
    "1667382",
    "2586583",
    "3043290",
    "2330892",
    "493215",
    "1322443",
    "1113263",
    "1618264",
    "2189795",
    "3408786",
    "1649228",
    "1666301",
    "1820425",
    "3010226",
    "2550875",
    "3522170",
    "1625803",
    "518046",
    "1651597",
    "963171",
    "483567",
    "1651443",
    "2550768",
    "756619",
    "1366330",
    "3174025",
    "2188527",
    "3635116",
    "2067004",
    "2676207",
    "1907194",
    "1645299",
    "1632120",
    "3418356",
    "1364537",
    "2579666",
    "1810931",
    "269912",
    "563092",
    "2616742",
    "1618271",
    "566387",
    "1685433",
    "483595",
    "643048",
    "1651407",
    "3438395",
    "3414488",
    "2832184",
    "1768478",
    "2832149",
    "1683010",
    "1624569",
    "997127",
    "3000872",
    "1670004",
    "2442600",
    "563093",
    "1669537",
    "1646064",
    "1618273",
    "253834",
    "1653436",
    "243074",
    "1736810",
    "1717612",
    "1408251",
    "1348752",
    "509630",
    "1617110",
    "1348749",
    "1013662",
    "1655732",
    "1040337",
    "1346741",
    "1677994",
    "2769078",
    "1685462",
    "1745632",
    "613914",
    "1645438",
    "390140",
    "657750",
    "1618255",
    "1666081",
    "1666697",
    "1649213",
    "1641819",
    "2488133",
    "2536269",
    "2478686",
    "2720437",
    "2579685",
    "1710362",
    "1494973",
    "3408928",
    "3416116",
    "3438124",
    "3438068",
    "3438355",
    "3438095",
    "3445513",
    "243068",
    "1645781",
    "2805156",
    "643109",
    "2624602",
    "1805160",
    "3500120",
    "3500128",
    "3500115",
    "3500117",
    "3500142",
    "3500126",
    "3480054",
    "3522534",
    "3527956",
    "3527962",
    "707536",
    "959339",
    "3589244",
    "1366311",
    "3609428",
    "3422964",
    "3450455",
    "241907",
    "2560006",
    "3531749",
    "708478",
    "2267399",
    "266638",
    "3402967",
    "4009699",
    "2732932",
    "562410",
    "1668363",
    "4112797",
    "3712166",
    "350025",
    "1701264",
    "643052",
    "2750801",
    "3018341",
    "2007328",
    "1655445",
    "1771264",
    "4112794",
    "3969763",
    "3034198",
    "3074859",
    "1495252",
    "2765982",
    "2243580",
    "2507351",
    "1446487",
    "392586",
    "2077251",
    "1624503",
    "1668371",
    "1787873",
    "2191919",
    "1637754",
    "4180053",
    "3982436",
    "294188",
    "1689940",
    "2418787",
    "1641844",
    "738037",
    "1649097",
    "2968601",
    "1970357",
    "2606569",
    "253304",
    "1581603",
    "1677972",
    "2435830",
    "3501368",
    "2488231",
    "1699833",
    "2420104",
    "1446484",
    "3984628",
    "1491407",
    "1348751",
    "2687885",
    "1745599",
    "2311571",
    "2586524",
    "1052384",
    "1666682",
    "2550858",
    "318791",
    "1618482",
    "1618260",
    "1966038",
    "2717265",
    "1585975",
    "243067",
    "1645295",
    "1513671",
    "3984630",
    "319022",
    "2478685",
    "1740660",
    "3269810",
    "418346",
    "1626286",
    "2640369",
    "3405635",
    "1662097",
    "1618258",
    "3527736",
    "2595124",
    "3442595",
    "1682853",
    "820529",
    "3289491",
    "3406960",
    "3405849",
    "2898647",
    "1645305",
    "318810",
    "1376539",
    "3403143",
    "1741592",
    "3500139",
    "2898646",
    "1631435",
    "1651959",
    "891030",
    "1346609",
    "251294",
    "3431793",
    "2874006",
    "1744875",
    "243085",
    "1662670",
    "915345",
    "253737",
    "3400206",
    "1649182",
    "1656272",
    "853029",
    "2165738",
    "318788",
    "3531883",
    "279240",
    "243084",
    "2165740",
    "1669261",
    "3406848",
    "1366320",
    "928826",
    "1339884",
    "464934",
    "416844",
    "1346915",
    "254409",
    "2854542",
    "2540006",
    "3527961",
    "2488225",
    "1641854",
    "2934828",
    "2451637",
    "1138416",
    "1682573",
    "3501372",
    "3405996",
    "707561",
    "3445516",
    "1626320",
    "284154",
    "269918",
    "252313",
    "1666723",
    "406550",
    "3011633",
    "1787619",
    "2435832",
    "269967",
    "2028973",
    "2894314",
    "3270360",
    "1631434",
    "1631436",
    "3397684",
    "1632846",
    "2488145",
    "1322446",
    "464969",
    "3405473",
    "3445518",
    "2658780",
    "294187",
    "2595461",
    "1642165",
    "3500127",
    "3500132",
    "422964",
    "1696994",
    "1624553",
    "2732924",
    "1626080",
    "2331487",
    "2221132",
    "1908593",
    "511974",
    "2188456",
    "1220679",
    "1109874",
    "1358496",
    "2865942",
    "3493774",
    "2963396",
    "3438381",
    "1346777",
    "336988",
    "1859611",
    "1651596",
    "1655729",
    "243111",
    "3609468",
    "1683432",
    "3006276",
    "1666763",
    "751344",
    "244605",
    "1339878",
    "970342",
    "3074943",
    "3524088",
    "1645296",
    "1666968",
    "241938",
    "2028769",
    "1366337",
    "1666705",
    "393093",
    "1653783",
    "689769",
    "1654404",
    "1366351",
    "3408804",
    "1623736",
    "2191892",
    "1661851",
    "1821644",
    "1671582",
    "1389199",
    "518039",
    "1661881",
    "1649183",
    "1666866",
    "1661702",
    "1346916",
    "518043",
    "1346873",
    "1682552",
    "2805456",
    "1654451",
    "1640339",
    "3002108",
    "1666979",
    "2445409",
    "2346678",
    "1683006",
    "890705",
    "1348748",
    "1059914",
    "1618700",
    "359047",
    "464966",
    "1321417",
    "2978660",
    "2435810",
    "2456785",
    "1683350",
    "2717034",
    "274437",
    "2305731",
    "1781248",
    "2890331",
    "1810878",
    "1787620",
    "2579689",
    "3026418",
    "1626847",
    "1848767",
    "1655376",
    "1669495",
    "1666691",
    "1348750",
    "1651429",
    "1666699",
    "1655733",
    "1624551",
    "426115",
    "1645419",
    "1736811",
    "1618254",
    "1655393",
    "1653491",
    "812203",
    "847966",
    "243080",
    "1666700",
    "1366339",
    "1624319",
    "393018",
    "1635767",
    "1376538",
    "1667064",
    "1682549",
    "1667022",
    "1668567",
    "1668849",
    "1666671",
    "1666687",
    "1666689",
    "1666729",
    "1666719",
    "1666667",
    "1666664",
    "1655783",
    "1645882",
    "1645289",
    "1645423",
    "1645589",
    "1632833",
    "1618252",
    "1581601",
    "1346879",
    "1667019",
    "1667124",
    "1645447",
    "1655378",
    "1689654",
    "1795335",
    "2065307",
    "2119274",
    "2420109",
    "2188528",
    "1348753",
    "1740649",
    "2675457",
    "1618259",
    "2734913",
    "2964595",
    "1771697",
    "1645783",
    "1687369",
    "2963383",
    "2075562",
    "2668632",
    "516257",
    "3400216",
    "3406924",
    "3406926",
    "269855",
    "2988466",
    "2534545",
    "3010218",
    "2807317",
    "1666750",
    "1646065",
    "3438573",
    "3438047",
    "2550392",
    "2560791",
    "3445474",
    "3445515",
    "3445475",
    "3445514",
    "3445519",
    "2330798",
    "3452973",
    "1667040",
    "1646063",
    "1687717",
    "266640",
    "1645413",
    "1346639",
    "3489573",
    "3500136",
    "3501375",
    "3500113",
    "3500121",
    "3500129",
    "3500114",
    "3500122",
    "3500130",
    "3500123",
    "3500131",
    "3500116",
    "3500124",
    "3500141",
    "3501371",
    "3500125",
    "3500133",
    "3500134",
    "3501373",
    "3500119",
    "3500135",
    "3501374",
    "3397652",
    "2580851",
    "3522530",
    "1971416",
    "1651404",
    "1680114",
    "3523108",
    "3524089",
    "3523109",
    "1666191",
    "3524082",
    "3524090",
    "1666856",
    "3524083",
    "1667038",
    "1669565",
    "3524084",
    "3524092",
    "3524085",
    "3524093",
    "1637927",
    "243079",
    "1908603",
    "3527964",
    "1908513",
    "3527958",
    "1908517",
    "3527959",
    "1908594",
    "3527960",
    "1908602",
    "3527955",
    "3527963",
    "1668743",
    "3539035",
    "2915994",
    "1671587",
    "3043301",
    "1908539",
    "818490",
    "2978657",
    "338864",
    "2827786",
    "3011599",
    "3660849",
    "449411",
    "1491489",
    "1668365",
    "1668369",
    "2280847",
    "3445120",
    "2708152",
    "1581604",
    "2708315",
    "3405878",
    "3730607",
    "518361",
    "2890504",
    "2676130",
    "1810673",
    "2119197",
    "3531791",
    "3270411",
    "1626337",
    "961821",
    "707522",
    "2984567",
    "2574707",
    "1684955",
    "279267",
    "2628166",
    "3369515",
    "3474900",
    "707627",
    "3484018",
    "266597",
    "266598",
    "1787882",
    "318790",
    "1040338",
    "2676352",
    "3898640",
    "955528",
    "742880",
    "814842",
    "1591656",
    "1077271",
    "1591654",
    "3011457",
    "1665547",
    "3984625",
    "3984665",
    "3983538",
    "3983975",
    "3984609",
    "3984627",
    "3984659",
    "3984667",
    "419196",
    "3984614",
    "3914592",
    "3983977",
    "3983606",
    "3984603",
    "3984624",
    "3982290",
    "2987494",
    "1741767",
    "3634868",
    "707555",
    "4009431",
    "2134319",
    "1365593",
    "2435787",
    "338857",
    "2435779",
    "1641771",
    "1038265",
    "4009126",
    "2268049",
    "3369445",
    "295516",
    "1741591",
    "243071",
    "2805130",
    "3578154",
    "2656869",
    "1494972",
    "2783728",
    "3402739",
    "4009663",
    "3404674",
    "1624496",
    "891028",
    "1627201",
    "1741564",
    "483580",
    "285614",
    "245045",
    "278092",
    "4009430",
    "4096067",
    "244501",
    "293066",
    "4112792",
    "4112987",
    "4112793",
    "4112988",
    "2497715",
    "3924034",
    "465126",
    "483557",
    "244567",
    "270552",
    "2920874",
    "526221",
    "1649720",
    "1934834",
    "402704",
    "3291987",
    "252322",
    "1192551",
    "839144",
    "1113264",
    "4180119",
    "4179947",
    "4180017",
    "2712611",
    "393084",
    "393005",
    "2077254",
    "2077242",
    "1787808",
    "3969803",
    "3969783",
    "3969796",
    "812202",
    "1816606",
    "1816578",
    "1630285",
    "266479",
    "4220029",
    "2931542",
    "4009455",
    "3333092",
    "835220",
    "3397676",
    "2563681",
    "3070815",
    "3181809",
    "2586475",
    "509631",
    "1581600",
    "3983974",
    "3714170",
    "3408584",
    "270554",
    "298424",
    "3497456",
    "1683830",
    "2057653",
    "3984658",
    "3984626",
    "1934253",
    "513791",
    "2550759",
    "2720528",
    "2579679",
    "3397656",
    "4009746",
    "4289547",
    "253832",
    "1637468",
    "2811284",
    "1645325",
    "1700511",
    "3534778",
    "3984661",
    "462536",
    "340783",
    "928816",
    "371589",
    "392595",
    "3984284",
    "893690",
    "1744917",
    "1643880",
    "501306",
    "350012",
    "2028997",
    "1683362",
    "242587",
    "1740383",
    "1740379",
    "1366423",
    "1080127",
    "2551139",
    "1336879",
    "245293",
    "1109867",
    "1194087",
    "2435777",
    "245514",
    "1633490",
    "2788858",
    "3538950",
    "2076141",
    "2957852",
    "3002100",
    "3400214",
    "2913441",
    "1346726",
    "1741616",
    "1741388",
    "254733",
    "1741595",
    "1741615",
    "1741744",
    "1680077",
    "1740655",
    "1454497",
    "2946177",
    "3528764",
    "2748828",
    "2134451",
    "1653430",
    "2134453",
    "2769099",
    "1643949",
    "2435841",
    "2066948",
    "269894",
    "1710024",
    "1741736",
    "1741668",
    "3017992",
    "2748878",
    "1710356",
    "915347",
    "1597755",
    "1446479",
    "3493701",
    "3018141",
    "4339317",
    "4339343",
    "4339345",
    "1583094",
    "2554169",
    "4337678",
    "4337680",
    "4344475",
    "4344477",
    "4337580",
    "4344480",
    "4337583",
    "4337705",
    "4344481",
    "4337588",
    "4337712",
    "4337600",
    "4342822",
    "4342823",
    "4342825",
    "4342815",
    "4342816",
    "4342820",
    "4340908",
    "4340902",
    "4340931",
    "4339346",
    "3408562",
    "4344487",
    "4344492",
    "1834372",
    "4126379",
    "4344506",
    "3522563",
    "860880",
    "1346454",
    "2453669",
    "3984631",
    "1637231",
    "4337691",
    "2539820",
    "4355974",
    "4355940",
    "4355961",
    "4355979",
    "4355946",
    "4355965",
    "4355982",
    "4355966",
    "4355951",
    "4355967",
    "4355954",
    "3622266",
    "4357850",
    "4357855",
    "4357836",
    "4357862",
    "4357837",
    "4357838",
    "4357866",
    "4357867",
    "4357870",
    "4357871",
    "2443622",
    "4359700",
    "4361620",
    "4361621",
    "4359690",
    "4357974",
    "4363365",
    "4363360",
    "4363364",
    "4363404",
    "4348712",
    "4363406",
    "4363407",
    "4363427",
    "4363428",
    "4363430",
    "4363436",
    "4348739",
    "4363385",
    "4348742",
    "4363393",
    "4361613",
    "4361616",
    "4361605",
    "4348720",
    "4357250",
    "4357841",
    "4357815",
    "4357847",
    "4355975",
    "4355943",
    "4355945",
    "4355972",
    "4363443",
    "4363445",
    "4363447",
    "4348726",
    "2507561",
    "4365860",
    "4365861",
    "4348719",
    "4307574",
    "4348731",
    "4348735",
    "4363633",
    "4365856",
    "4359712",
    "4357263",
    "2683871",
    "2708111",
    "3577571",
    "4337592",
    "4371216",
    "4371863",
    "4371867",
    "4371869",
    "4371839",
    "4371902",
    "4371904",
    "4371818",
    "4371872",
    "3731189",
    "4371841",
    "4371843",
    "4371809",
    "4370784",
    "4365858",
    "4365859",
    "4348711",
    "4348708",
    "4372841",
    "4372202",
    "4337695",
    "4372830",
    "4372907",
    "4372834",
    "1855886",
    "1753558",
    "3502975",
    "4376910",
    "4357253",
    "2205501",
    "4375346",
    "3425658",
    "4375356",
    "4375357",
    "4375358",
    "1787804",
    "1346453",
    "3030388",
    "4363434",
    "2165734",
    "1685448",
    "1681304",
    "1792564",
    "3588269",
    "1857155",
    "1443318",
    "1707954",
    "2435775",
    "2435776",
    "3018349",
    "2973290",
    "4342818",
    "4348701",
    "3301950",
    "4395525",
    "3730547",
    "4395894",
    "2656754",
    "4382748",
    "4337637",
    "4396716",
    "3484076",
    "2841964",
    "1244658",
    "4403282",
    "4402920",
    "1651055",
    "3317945",
    "4396766",
    "4406594",
    "4371870",
    "4408118",
    "4408228",
    "4396773",
    "4363599",
    "1623707",
    "1625773",
    "3984662",
    "4339318",
    "3493772",
    "1848743",
    "4395433",
    "2748886",
    "1795124",
    "4371903",
    "3589242",
    "3609471",
    "1354162",
    "2577793",
    "4389551",
    "1627294",
    "2537791",
    "581458",
    "406050",
    "2077454",
    "4390062",
    "4390051",
    "3588182",
    "2488244",
    "3799842",
    "4371853",
    "4180139",
    "1346646",
    "3408743",
    "4441400",
    "4432243",
    "4432257",
    "4446348",
    "2828008",
    "4447130",
    "3303675",
    "2255301",
    "1668787",
    "4038028",
    "4382080",
    "4395493",
    "4382985",
    "4450694",
    "4450070",
    "2811337",
    "756210",
    "1736492",
    "509633",
    "3013585",
    "4375350",
    "707613",
    "2453630",
    "1848760",
    "4391539",
    "1684958",
    "1010423",
    "3404591",
    "243070",
    "606360",
    "2082591",
    "652824",
    "787140",
    "266700",
    "2558514",
    "3730419",
    "3524642",
    "3522263",
    "747725",
    "1653993",
    "1645269",
    "3408732",
    "523206",
    "992636",
    "1640338",
    "2422960",
    "3503440",
    "2168083",
    "2074122",
    "653160",
    "1857263",
    "2842066",
    "1633327",
    "1683027",
    "2330792",
    "2903612",
    "2072856",
    "371517",
    "2168084",
    "3270555",
    "653164",
    "1848930",
    "3524622",
    "3490150",
    "4037993",
    "2280868",
    "4126382",
    "4355957",
    "4355513",
    "4361606",
    "2909389",
    "4382995",
    "4406449",
    "1906875",
    "2626576",
    "1617168",
    "707520",
    "3432557",
    "1010419",
    "1138407",
    "4406565",
    "4389447",
    "1908541",
    "2268103",
    "4467205",
    "4467161",
    "4466164",
    "2828595",
    "3556242",
    "252312",
    "4467242",
    "4467746",
    "4355941",
    "4355942",
    "1372769",
    "3984671",
    "251301",
    "3714155",
    "4340907",
    "2813666",
    "4340904",
    "4468709",
    "1074858",
    "3900023",
    "4471494",
    "4471532",
    "4471597",
    "4372846",
    "3438363",
    "4468734",
    "2676111",
    "3404945",
    "4476360",
    "4476257",
    "4476367",
    "4476261",
    "4476292",
    "4478089",
    "4371862",
    "4371915",
    "3421062",
    "707562",
    "2912402",
    "3984670",
    "4375335",
    "3709322",
    "563095",
    "2662978",
    "2534429",
    "3527957",
    "1700193",
    "4363403",
    "2895114",
    "1072151",
    "1645290",
    "1768479",
    "4471456",
    "1624596",
    "2876330",
    "708059",
    "3437519",
    "3437529",
    "3437509",
    "3405915",
    "4471573",
    "3622821",
    "2685939",
    "1633614",
    "3425997",
    "1651300",
    "1637312",
    "4340909",
    "4340910",
    "2221133",
    "3730387",
    "584980",
    "4493950",
    "1679242",
    "2811245",
    "4495830",
    "4495642",
    "3438587",
    "2474034",
    "1716832",
    "2966306",
    "4363424",
    "1653937",
    "4375334",
    "4383900",
    "4389115",
    "4359692",
    "4446345",
    "4359693",
    "4385945",
    "2443624",
    "4450053",
    "4074827",
    "3984660",
    "3984629",
    "4361608",
    "3983979",
    "2738138",
    "2039440",
    "3730361",
    "516298",
    "345386",
    "1622974",
    "4382790",
    "4468421",
    "4448731",
    "4382084",
    "4386493",
    "2077247",
    "4471497",
    "4471498",
    "617074",
    "2656878",
    "1184695",
    "1740385",
    "1639738",
    "4393159",
    "3010182",
    "3417201",
    "2832212",
    "3995345",
    "2134280",
    "3511442",
    "2282430",
    "2687949",
    "4388997",
    "4441583",
    "3400383",
    "4467823",
    "1771651",
    "1632835",
    "1677801",
    "1626836",
    "455055",
    "596892",
    "3479414",
    "4372587",
    "474977",
    "2924141",
    "1346563",
    "1082654",
    "2756984",
    "2769009",
    "4524423",
    "4524452",
    "4525686",
    "4525376",
    "4525682",
    "4524472",
    "4525314",
    "4525628",
    "4359689",
    "3484057",
    "3173438",
    "4372866",
    "1389159",
    "3212198",
    "4344478",
    "4344482",
    "4344485",
    "4528513",
    "4344474",
    "1624554",
    "516268",
    "997125",
    "3479915",
    "4531717",
    "4525246",
    "4531411",
    "3005324",
    "1875274",
    "4376893",
    "4533709",
    "4357259",
    "4533803",
    "4533807",
    "4533818",
    "4524597",
    "4533819",
    "4533828",
    "4532205",
    "4531574",
    "4531430",
    "4531584",
    "4531558",
    "4531596",
    "4531601",
    "4528510",
    "4531571",
    "4518348",
    "1024429",
    "1805419",
    "4535224",
    "4535470",
    "4382040",
    "4359779",
    "4524443",
    "4531381",
    "4535230",
    "4535451",
    "4535656",
    "4531653",
    "4468419",
    "4535246",
    "4531554",
    "4535252",
    "4535213",
    "4531032",
    "4535261",
    "4535545",
    "4535222",
    "4535441",
    "4535594",
    "2970966",
    "4531046",
    "1372770",
    "4417241",
    "4536884",
    "4536894",
    "3976280",
    "4447863",
    "4537215",
    "4526477",
    "4536685",
    "4537019",
    "4536726",
    "4537031",
    "4537330",
    "4536604",
    "4536744",
    "4537170",
    "4537008",
    "3438460",
    "4539097",
    "4526678",
    "4540413",
    "516293",
    "4430307",
    "4468379",
    "2912363",
    "4528541",
    "4528556",
    "1810867",
    "1625809",
    "4009646",
    "4359697",
    "4384325",
    "2417380",
    "4384440",
    "449415",
    "4404893",
    "4533723",
    "881718",
    "3170984",
    "2957767",
    "4397915",
    "2688071",
    "4096070",
    "4531744",
    "4531022",
    "4531444",
    "4533817",
    "4536596",
    "4554838",
    "2298958",
    "284585",
    "245051",
    "4555477",
    "4555485",
    "2551140",
    "2683785",
    "4536607",
    "2158507",
    "2258332",
    "4559327",
    "4559356",
    "4546336",
    "4558304",
    "4556523",
    "4556960",
    "4555793",
    "4546905",
    "4556401",
    "4556598",
    "4447953",
    "4558132",
    "4559939",
    "4376887",
    "3006269",
    "2970973",
    "1491424",
    "4556593",
    "4556594",
    "3030387",
    "1626323",
    "3785229",
    "4564272",
    "4564278",
    "4564156",
    "4564025",
    "4447929",
    "4564261",
    "1969269",
    "1980481",
    "4564255",
    "2009320",
    "4568108",
    "4568211",
    "4565011",
    "3444558",
    "4567308",
    "3984666",
    "2334296",
    "4542724",
    "1665550",
    "1668540",
    "4357972",
    "562447",
    "2025804",
    "3488076",
    "4578450",
    "443981",
    "4551598",
    "4584590",
    "283217",
    "4074813",
    "4585115",
    "4558244",
    "4559880",
    "4585150",
    "4586179",
    "4584971",
    "4556597",
    "3443610",
    "4584138",
    "4468540",
    "4557635",
    "4471546",
    "4576470",
    "4539157",
    "4575956",
    "1711103",
    "3404843",
    "317564",
    "1689372",
    "4557549",
    "4586275",
    "4586276",
    "4586345",
    "4586475",
    "4586356",
    "4586393",
    "4358927",
    "2550760",
    "3270429",
    "2754241",
    "4402957",
    "4556729",
    "4589478",
    "4532179",
    "1013984",
    "4525050",
    "3647059",
    "4566675",
    "4586721",
    "4566719",
    "4363751",
    "4363753",
    "4566655",
    "4371907",
    "4386752",
    "4371912",
    "4371913",
    "2550761",
    "2915869",
    "2809897",
    "4598914",
    "4363457",
    "4359787",
    "847208",
    "397898",
    "4602005",
    "4602016",
    "4602953",
    "4602777",
    "4371879",
    "4603146",
    "1624509",
    "4384180",
    "4450392",
    "4371905",
    "4371906",
    "4371908",
    "4371916",
    "4371917",
    "4371881",
    "4371918",
    "4371893",
    "4524468",
    "4602042",
    "545593",
    "308459",
    "2622335",
    "1539462",
    "1657189",
    "1683011",
    "1087679",
    "3416122",
    "1696000",
    "2712614",
    "1803264",
    "1803267",
    "1683029",
    "2675736",
    "1632775",
    "1339880",
    "3405907",
    "2764674",
    "2454271",
    "3730609",
    "4371897",
    "4604039",
    "4602740",
    "4600579",
    "4469672",
    "4620171"
]