[
    "3513877",
    "807793",
    "967611",
    "3513872",
    "3323106",
    "3513904",
    "1192554",
    "1619705",
    "2973276",
    "3511449",
    "3384466",
    "3437693",
    "707673",
    "2168069",
    "314859",
    "1656426",
    "1664923",
    "3199036",
    "703115",
    "4376903",
    "3978880",
    "2421559",
    "1704361",
    "4359767",
    "2219902",
    "3432975",
    "2583835",
    "441964",
    "581462",
    "3627456",
    "838730",
    "3682114",
    "2551024",
    "4363580",
    "1863316",
    "3219116",
    "1640409",
    "4116466",
    "3735276",
    "1928974",
    "2850601",
    "4470380",
    "3582708",
    "247065",
    "708063",
    "893653",
    "806483",
    "2676166",
    "1857157",
    "2850600",
    "1361180",
    "3230098",
    "4433867",
    "292961",
    "1223086",
    "2192196",
    "2164244",
    "2192199",
    "3230490",
    "509801",
    "2606640",
    "1242109",
    "2828617",
    "1684975",
    "980586",
    "1681417",
    "4358625",
    "3204725",
    "652796",
    "756209",
    "2370517",
    "1656422",
    "3787113",
    "1454481",
    "3013594",
    "1410467",
    "1454546",
    "1799800",
    "1624635",
    "1470602",
    "1192553",
    "1678410",
    "1805177",
    "502736",
    "2853154",
    "502737",
    "371598",
    "292947",
    "1446474",
    "562462",
    "3641270",
    "1985791",
    "1410468",
    "3136051",
    "3206025",
    "603214",
    "2147581",
    "2769105",
    "2731209",
    "1242691",
    "963173",
    "3627455",
    "1805175",
    "2705309",
    "613940",
    "3230291",
    "3219114",
    "2895149",
    "2978654",
    "2330767",
    "4099155",
    "4376900",
    "450096",
    "959352",
    "2084059",
    "3206026",
    "3641110",
    "400187",
    "371605",
    "501310",
    "1684978",
    "562451",
    "3330167",
    "2731208",
    "2640531",
    "3714190",
    "3521417",
    "1643816",
    "3230383",
    "1813124",
    "516313",
    "2298961",
    "516318",
    "1638511",
    "2134300",
    "1792982",
    "566032",
    "3327442",
    "3330190",
    "3785115",
    "1366777",
    "3206003",
    "707671",
    "3582702",
    "1470604",
    "4108644",
    "2417847",
    "980587",
    "4376904",
    "3387748",
    "1101793",
    "361426",
    "1690376",
    "1346689",
    "1684974",
    "2554164",
    "2147243",
    "3656410",
    "2712578",
    "251681",
    "2931529",
    "3522915",
    "2453416",
    "1220693",
    "3522904",
    "501214",
    "562434",
    "3522976",
    "2988441",
    "3522909",
    "1656424",
    "3219113",
    "244441",
    "3522912",
    "3411570",
    "1358503",
    "498037",
    "518038",
    "3522908",
    "345874",
    "3522902",
    "1346687",
    "562459",
    "1678409",
    "608439",
    "997231",
    "2093071",
    "3522896",
    "3230099",
    "1681407",
    "1685404",
    "2828663",
    "1470600",
    "3523041",
    "4009901",
    "4099160",
    "4099153",
    "3965768",
    "1358502",
    "1597650",
    "1643815",
    "1638496",
    "3522917",
    "3522901",
    "3522970",
    "1855286",
    "3641068",
    "1223087",
    "806482",
    "3204732",
    "1678037",
    "499083",
    "902515",
    "3522916",
    "1863317",
    "3522980",
    "3522897",
    "3522900",
    "3522978",
    "3522914",
    "3522907",
    "3522899",
    "640550",
    "1941340",
    "1855430",
    "3522975",
    "3450566",
    "1470603",
    "3522967",
    "3522898",
    "3641098",
    "2828664",
    "450095",
    "292951",
    "1664546",
    "1242692",
    "3522973",
    "562463",
    "3523040",
    "3206023",
    "3522971",
    "3522903",
    "1827195",
    "997230",
    "1656425",
    "2745732",
    "2119217",
    "2370291",
    "2119216",
    "2330734",
    "3219085",
    "3332209",
    "2105977",
    "1678021",
    "2640533",
    "1911425",
    "2422748",
    "2640532",
    "1855406",
    "3513914",
    "1109865",
    "2663805",
    "2090874",
    "1931217",
    "3387747",
    "1695726",
    "3522905",
    "3522906",
    "3522969",
    "3522977",
    "3522979",
    "3650883",
    "1855280",
    "3518264",
    "2419238",
    "3152207",
    "3785237",
    "562449",
    "562461",
    "498038",
    "1470601",
    "1410469",
    "371596",
    "562450",
    "1941339",
    "4009873",
    "1638515",
    "959349",
    "3022841",
    "360146",
    "450097",
    "361427",
    "3713598",
    "4099154",
    "3965778",
    "3965764",
    "292960",
    "1782569",
    "4108803",
    "4009441",
    "2347012",
    "1640403",
    "4009436",
    "1640398",
    "1640399",
    "1004307",
    "3437238",
    "3419922",
    "396594",
    "2939683",
    "4353227",
    "547834",
    "4363573",
    "2320420",
    "4363566",
    "3441973",
    "4363562",
    "4363576",
    "516311",
    "4406486",
    "1638491",
    "4005899",
    "3582732",
    "3460389",
    "3713563",
    "2712604",
    "4432261",
    "4432266",
    "504791",
    "1251301",
    "1834724",
    "3171528",
    "2931282",
    "4432263",
    "1931205",
    "2957430",
    "2438130",
    "2456898",
    "308183",
    "2924135",
    "2957742",
    "2939738",
    "2025482",
    "1800343",
    "4453655",
    "1855400",
    "1513682",
    "2703070",
    "3349746",
    "1220694",
    "1739658",
    "3488565",
    "1640404",
    "3537237",
    "3978166",
    "4524692",
    "4524786",
    "3219115",
    "361424",
    "4535444",
    "4535570",
    "4535637",
    "4535447",
    "4537399",
    "2818233",
    "2359409",
    "4376901",
    "4533077",
    "4493953",
    "3641269",
    "357500",
    "1855403",
    "1855289",
    "1855290",
    "4108802",
    "3040477",
    "2828635",
    "4363569",
    "3152199",
    "4546685",
    "4546686",
    "4546693",
    "4567096",
    "4546695",
    "4567562",
    "4567227",
    "1311302",
    "3589493",
    "1855401",
    "3349748",
    "4565613",
    "4591669",
    "3965556",
    "4600529",
    "4432249",
    "1681414"
]