[
    "3227830",
    "2573374",
    "4113564",
    "592945",
    "3756706",
    "2561916",
    "2492068",
    "4449394",
    "2968610",
    "3806465",
    "2999326",
    "2391671",
    "3912600",
    "703018",
    "784723",
    "4034058",
    "3887562",
    "1350252",
    "1585216",
    "3806470",
    "3291550",
    "2487572",
    "3766601",
    "2408850",
    "3078180",
    "2391668",
    "3755786",
    "2857369",
    "2529282",
    "3292002",
    "241883",
    "1020202",
    "2937114",
    "3078158",
    "3887561",
    "2968622",
    "3112123",
    "3930145",
    "2637870",
    "2487491",
    "3242121",
    "322980",
    "3849392",
    "309754",
    "2410575",
    "3330703",
    "3744583",
    "2391652",
    "4112256",
    "1873738",
    "2487492",
    "4035352",
    "2419498",
    "2391598",
    "4399742",
    "3780039",
    "2391655",
    "2390381",
    "960636",
    "3747302",
    "2391657",
    "497149",
    "2391656",
    "2436883",
    "3887559",
    "529383",
    "3688119",
    "2409319",
    "892792",
    "2967660",
    "4323556",
    "1795633",
    "2486713",
    "4084043",
    "1642281",
    "2510661",
    "971632",
    "3747262",
    "3755909",
    "740729",
    "3427166",
    "3238330",
    "2562445",
    "2560227",
    "3811690",
    "2407492",
    "112784",
    "2487586",
    "2834125",
    "3768208",
    "3766334",
    "506001",
    "757405",
    "2659285",
    "2560535",
    "3233546",
    "3889380",
    "3548167",
    "3978301",
    "3778821",
    "2560356",
    "2411179",
    "2621487",
    "3747220",
    "3769882",
    "2407410",
    "2407407",
    "3745699",
    "1745846",
    "3800411",
    "866232",
    "1795632",
    "1795634",
    "3752473",
    "3749626",
    "2869162",
    "2659290",
    "2882209",
    "3292003",
    "2410608",
    "3747115",
    "3755915",
    "3758689",
    "3131739",
    "3762685",
    "3755560",
    "3746007",
    "2561840",
    "2407409",
    "3082838",
    "2407408",
    "510664",
    "3764568",
    "3764567",
    "3769043",
    "3548165",
    "3979699",
    "2505144",
    "3850484",
    "3762900",
    "3762964",
    "3778123",
    "2487493",
    "558415",
    "2492885",
    "2492964",
    "2492963",
    "3800120",
    "4035533",
    "3758696",
    "1642279",
    "1642278",
    "3747318",
    "2391653",
    "2487494",
    "3978300",
    "4034052",
    "3292069",
    "3799940",
    "3799941",
    "3763832",
    "3548163",
    "3775970",
    "3291472",
    "3758457",
    "2391659",
    "2562438",
    "4324579",
    "3978620",
    "3747254",
    "2487490",
    "4391576",
    "3762928",
    "2968623",
    "3889342",
    "3770673",
    "3976707",
    "3768723",
    "2968621",
    "3889582",
    "3760709",
    "4084153",
    "2486715",
    "2407378",
    "4428970",
    "4434177",
    "4439018",
    "4457161",
    "3760609",
    "4035479",
    "4445955",
    "4323565",
    "3131745",
    "4456103",
    "3749936",
    "2391601",
    "3752496",
    "4323571",
    "4025918",
    "4344818",
    "921234",
    "3778355",
    "3887560",
    "4302920",
    "4113004",
    "4302906",
    "3291474",
    "4138438",
    "2436882",
    "4387532",
    "4535595",
    "4034084",
    "4109604",
    "4409113",
    "3082837",
    "4537821",
    "3976640",
    "2411178",
    "3770672",
    "320010",
    "4456100",
    "4537819",
    "3747884",
    "4591319",
    "4265737",
    "3768724",
    "4440275",
    "4601112",
    "3738593",
    "3492330",
    "759370",
    "1378418"
]