[
    "574005",
    "2890194",
    "1372768",
    "4356028",
    "4361623",
    "1641754",
    "251607",
    "3978154",
    "4307873",
    "266590",
    "3282911",
    "243098",
    "4361622",
    "1645711",
    "4340926",
    "1683397",
    "423468",
    "2257868",
    "965933",
    "2898612",
    "847210",
    "4356029",
    "1695366",
    "1618443",
    "2540338",
    "4354140",
    "3528783",
    "243105",
    "3332088",
    "3983534",
    "1645993",
    "2336886",
    "1875028",
    "2676353",
    "4009758",
    "1031836",
    "1202700",
    "1667221",
    "2895071",
    "2842074",
    "242762",
    "786287",
    "4365920",
    "1962547",
    "2540336",
    "243106",
    "244988",
    "1647747",
    "759434",
    "279445",
    "2890203",
    "2485973",
    "1645740",
    "1668952",
    "1645201",
    "2518212",
    "1653548",
    "243097",
    "1124702",
    "4009424",
    "1389166",
    "423469",
    "1682598",
    "2486010",
    "1689722",
    "1637798",
    "1683389",
    "244428",
    "266485",
    "3522178",
    "1943085",
    "2435889",
    "1908699",
    "1653370",
    "1668976",
    "243101",
    "2881046",
    "251610",
    "518040",
    "2909382",
    "2540340",
    "725146",
    "1309377",
    "1682603",
    "1320495",
    "1962958",
    "3983166",
    "1645459",
    "566389",
    "3969792",
    "1632953",
    "4130703",
    "2876371",
    "4395513",
    "4405514",
    "4450222",
    "1679274",
    "1653254",
    "1679248",
    "3730528",
    "1618442",
    "1683385",
    "4523816",
    "4537367",
    "4359683",
    "4532461",
    "961881",
    "4472969",
    "1633191",
    "4592719"
]